"FieldID","Farm","PlntgID","PlotName","PlntgSeq","ActualHarvest","Crop","PlotID","Method","Acres","Beds","Width","PlantDate","PlannedHarvest","Variety","Notes"
"BF0110- -49178","BF",49178,"0110"," ",2015-04-13,"Lettuce",10,"DS ",20.2999992370605,145,76,2015-01-18,2015-05-05,"Vandenberg","WB-4L  3.1"""
"BF0111- -49177","BF",49177,"0111"," ",2015-04-03,"Lettuce",11,"DS ",15.6000003814697,111,76,2015-01-02,2015-04-26,"Vandenberg","WB-4L  3.1"""
"BF0115- -49183","BF",49183,"0115"," ",2015-04-09,"Broccoli",15,"TPG",20.8999996185303,146,76,2015-01-12,2015-04-19,"Heritage","WB-4L 10.5"""
"BF0116- -49182","BF",49182,"0116"," ",2015-03-31,"Broccoli",16,"TPG",16.6000003814697,117,76,2015-01-06,2015-04-15,"Heritage","WB-4L 10.5"""
"BF0117- -49181","BF",49181,"0117"," ",2015-03-28,"Broccoli",17,"TPG",15.6000003814697,111,76,2014-12-31,2015-04-09,"Heritage","WB-4L 10.5"""
"BF0401-A-48801","BF",48801,"0401","A",2015-04-18,"Cauliflower",49,"TPG",11.3000001907349,132,76,2015-01-09,2015-04-26,"Paciencia","WB"
"BF0601- -48339","BF",48339,"0601"," ",2015-03-27,"Cauliflower",60,"TPG",13.3999996185303,83,76,2014-12-10,2015-04-03,"Paciencia","WB"
"BF0602- -48338","BF",48338,"0602"," ",2015-03-26,"Cauliflower",61,"TPG",16.3999996185303,96,76,2014-12-10,2015-04-03,"Paciencia","WB"
"BF0701-A-49353","BF",49353,"0701","A",2015-04-01,"Romaine Hearts",68,"TPG",5.30000019073486,48,38,2015-01-30,2015-04-20,"Hrt Delight",NA
"BF0701-B-49354","BF",49354,"0701","B",2015-04-02,"Romaine Hearts",68,"TPG",5.40000009536743,48,38,2015-01-30,2015-04-20,"Heavy Heart",NA
"BF0701-C-49355","BF",49355,"0701","C",2015-04-10,"Romaine Hearts",68,"TPG",3.90000009536743,34,38,2015-02-06,2015-04-22,"Hrt Delight",NA
"BF0701-D-49358","BF",49358,"0701","D",2015-04-11,"Romaine Hearts",68,"TPG",4.30000019073486,38,38,2015-02-06,2015-04-22,"Heavy Heart",NA
"BF0701-E-50476","BF",50476,"0701","E",2015-04-11,"Romaine Hearts",68,"TPG",4.59999990463257,20,38,2015-02-10,2015-04-26,"Heavy Heart",NA
"BF0702-A-49352","BF",49352,"0702","A",2015-04-17,"Romaine Hearts",69,"TPG",5.5,48,76,2015-02-20,2015-05-01,"Hrt Delight","WB-5L"
"BF0702-B-49357","BF",49357,"0702","B",2015-04-17,"Romaine Hearts",69,"TPG",5.5,48,76,2015-02-20,2015-05-01,"Heavy Heart","WB-5L"
"BF0704- -48337","BF",48337,"0704"," ",2015-03-16,"Cauliflower",71,"TPG",22.1000003814697,186,76,2014-11-29,2015-03-26,"Paciencia","WB  17"""
"BF0705- -48336","BF",48336,"0705"," ",2015-04-08,"Cauliflower",72,"TPG",21.5,248,38,2014-12-29,2015-04-18,"Paciencia",NA
"BF0801- -49886","BF",49886,"0801"," ",2015-03-29,"Lettuce",76,"TPG",15.8999996185303,264,38,2015-01-15,2015-04-21,"Vandenberg",NA
"BF0802- -49969","BF",49969,"0802"," ",2015-04-06,"Lettuce",77,"TPG",17.1000003814697,292,38,2015-01-29,2015-04-27,"Vandenberg",NA
"BF0803-A-50108","BF",50108,"0803","A",2015-04-16,"Lettuce",78,"TPG",5.80000019073486,102,38,2015-02-04,2015-04-26,"Vandenberg",NA
"BF0803-B-50298","BF",50298,"0803","B",2015-04-15,"Lettuce",78,"TPG",10.5,254,38,2015-02-04,2015-04-26,"Vandenberg",NA
"BF0804W- -49305","BF",49305,"0804W"," ",2015-03-30,"Lettuce",572,"TPG",16,226,38,2015-01-02,2015-04-15,"Vandenberg",NA
"BF0901-A-48657","BF",48657,"0901","A",2015-03-21,"Romaine",83,"TPG",6.09999990463257,108,38,2015-01-14,2015-04-08,"Rio Bravo","11"""
"BF0901-B-48655","BF",48655,"0901","B",2015-03-27,"Romaine",83,"TPG",6.09999990463257,92,38,2015-01-23,2015-04-15,"Rio Bravo",NA
"BF0902-A-50359","BF",50359,"0902","A",2015-04-06,"Romaine",84,"TPG",7.30000019073486,100,38,2015-02-12,2015-04-28,"Rio Bravo","From North"
"BF0902-B-50358","BF",50358,"0902","B",2015-04-09,"Romaine",84,"TPG",7.30000019073486,100,38,2015-02-12,2015-04-28,"Coastal Star",NA
"BF1005-A-48805","BF",48805,"1005","A",2015-04-13,"Lettuce",802,"DS ",8,68,38,2015-01-12,2015-04-29,"Vandenberg","2.8"""
"BF1005-B-49872","BF",49872,"1005","B",2015-04-13,"Lettuce",802,"DS ",3.09999990463257,24,38,2015-01-12,2015-04-29,"Vail","2.8"""
"BF1005-C-49871","BF",49871,"1005","C",2015-04-13,"Lettuce",802,"DS ",6.5,56,38,2015-01-15,2015-05-02,"Vail",NA
"BF1006-A-48804","BF",48804,"1006","A",2015-04-08,"Lettuce",803,"DS ",7.30000019073486,64,38,2014-12-31,2015-04-24,"Vandenberg","2.8"""
"BF1006-B-49783","BF",49783,"1006","B",2015-04-08,"Lettuce",803,"DS ",7.30000019073486,64,38,2014-12-31,2015-04-24,"Vail","2.8"""
"BF1007-A-48803","BF",48803,"1007","A",2015-03-26,"Lettuce",804,"DS ",9,84,38,2014-12-13,2015-04-14,"Vandenberg",NA
"BF1007-B-49711","BF",49711,"1007","B",2015-03-27,"Lettuce",804,"DS ",2.5,24,38,2014-12-13,2015-04-14,"Vail",NA
"BF1007-C-49710","BF",49710,"1007","C",2015-04-07,"Lettuce",804,"DS ",7,64,38,2015-01-04,2015-04-28,"Vail","2.8"""
"BF1008- -48802","BF",48802,"1008"," ",2015-03-19,"Lettuce",805,"DS ",16,140,38,2014-11-28,2015-04-06,"Vandenberg","3"""
"BF1011- -48084","BF",48084,"1011"," ",2015-01-28,"Cauliflower",808,"TPG",14.1999998092651,269,38,2014-10-23,2015-02-21,"Paciencia","14"""
"BF1012- -48083","BF",48083,"1012"," ",2015-02-05,"Cauliflower",809,"TPG",16.3999996185303,198,38,2014-10-28,2015-02-27,"Paciencia","14"""
"BF1013- -48082","BF",48082,"1013"," ",2015-02-16,"Cauliflower",810,"TPG",19.7000007629395,240,38,2014-11-06,2015-03-08,"Paciencia",NA
"BF1014- -48081","BF",48081,"1014"," ",2015-02-19,"Cauliflower",811,"TPG",19.6000003814697,210,38,2014-11-12,2015-03-13,"Paciencia","14"""
"BF1015- -48080","BF",48080,"1015"," ",2015-02-21,"Cauliflower",812,"TPG",20.3999996185303,312,38,2014-11-14,2015-03-15,"Paciencia","14"""
"BF1016- -48079","BF",48079,"1016"," ",2015-01-26,"Cauliflower",813,"TPG",18.2999992370605,117,76,2014-10-16,2015-02-14,"Paciencia","WB"
"BF1106- -47858","BF",47858,"1106"," ",2015-01-30,"Cauliflower",102,"TPG",15.1999998092651,334,38,2014-10-21,2015-02-19,"Paciencia",NA
"BF1107- -47857","BF",47857,"1107"," ",2015-02-04,"Cauliflower",103,"TPG",13.6999998092651,204,38,2014-10-25,2015-02-23,"Paciencia","14"""
"BF1108- -47856","BF",47856,"1108"," ",2015-02-11,"Cauliflower",104,"TPG",15.1000003814697,264,38,2014-10-31,2015-03-02,"Paciencia",NA
"BF1402- -48136","BF",48136,"1402"," ",2015-02-14,"Cauliflower",130,"TPG",18.3999996185303,312,38,2014-11-06,2015-03-08,"Paciencia","14"""
"BF1403-A-48827","BF",48827,"1403","A",2015-04-01,"Romaine Hearts",131,"TPG",4.40000009536743,33,76,2015-01-21,2015-04-13,"Hrt Delight","WB-5L"
"BF1403-B-49954","BF",49954,"1403","B",2015-03-24,"Romaine Hearts",131,"TPG",3.29999995231628,24,76,2015-01-21,2015-04-13,"Rio Bravo","WB-5L"
"BF1403-C-49953","BF",49953,"1403","C",2015-03-31,"Romaine Hearts",131,"TPG",1.60000002384186,6,76,2015-01-26,2015-04-16,"Rio Bravo",NA
"BF1403-D-49952","BF",49952,"1403","D",2015-03-31,"Romaine Hearts",131,"TPG",8.39999961853027,54,76,2015-01-26,2015-04-16,"Heavy Heart",NA
"BF1405-A-49961","BF",49961,"1405","A",2015-04-08,"Romaine Hearts",133,"TPG",8.39999961853027,35,76,2015-02-03,2015-04-19,"Hrt Delight","From North"
"BF1405-B-49962","BF",49962,"1405","B",2015-04-04,"Romaine Hearts",133,"TPG",8.39999961853027,35,76,2015-02-03,2015-04-19,"Heavy Heart",NA
"BF1405-C-50295","BF",50295,"1405","C",2015-04-07,"Romaine Hearts",133,"TPG",3.40000009536743,14,76,2015-02-03,2015-04-19,"Rio Bravo",NA
"BF1407-A-50362","BF",50362,"1407","A",2015-04-14,"Romaine Hearts",135,"TPG",5.59999990463257,34,76,2015-02-12,2015-04-28,"Hrt Delight","From South"
"BF1407-B-50361","BF",50361,"1407","B",2015-04-10,"Romaine Hearts",135,"TPG",8.89999961853027,54,76,2015-02-12,2015-04-28,"Heavy Heart",NA
"BF1407-C-50360","BF",50360,"1407","C",2015-04-15,"Romaine Hearts",135,"TPG",3.5,21,76,2015-02-12,2015-04-28,"Rio Bravo",NA
"BF1501- -48142","BF",48142,"1501"," ",2015-04-06,"Cauliflower",137,"TPG",14.3999996185303,222,38,2014-12-28,2015-04-17,"Paciencia",NA
"BF1502- -48141","BF",48141,"1502"," ",2015-03-25,"Cauliflower",138,"TPG",7.5,108,38,2014-12-09,2015-04-02,"Paciencia","13"""
"BF1503- -48140","BF",48140,"1503"," ",2015-03-14,"Cauliflower",139,"TPG",9.5,126,38,2014-11-28,2015-03-25,"Paciencia",NA
"BF1504- -48139","BF",48139,"1504"," ",2015-03-06,"Cauliflower",140,"TPG",10.3000001907349,128,38,2014-11-19,2015-03-19,"Paciencia","14"""
"BF1507- -48795","BF",48795,"1507"," ",2015-04-14,"Cauliflower",143,"TPG",9.69999980926514,120,38,2015-01-05,2015-04-22,"Paciencia","13"""
"BF1521-A-49748","BF",49748,"1521","A",2015-03-23,"Lettuce",157,"TPG",15.1000003814697,180,38,2015-01-10,2015-04-16,"Vandenberg",NA
"BF1521-B-50124","BF",50124,"1521","B",2015-04-13,"Lettuce",157,"TPG",5.09999990463257,34,38,2015-01-26,2015-04-24,"Vandenberg",NA
"BF1522- -49747","BF",49747,"1522"," ",2015-04-09,"Lettuce",158,"TPG",16.7000007629395,140,38,2015-01-26,2015-04-24,"Vandenberg",NA
"BF1523- -49746","BF",49746,"1523"," ",2015-04-16,"Lettuce",159,"TPG",14.6999998092651,276,38,2015-02-06,2015-04-28,"Vandenberg",NA
"BF1524- -48071","BF",48071,"1524"," ",2015-03-04,"Broccoli",160,"TPG",11.1000003814697,294,38,2014-11-26,2015-03-13,"Bravado",NA
"BF1525-A-48064","BF",48064,"1525","A",2015-02-04,"Broccoli",161,"TPG",11.6000003814697,164,38,2014-10-29,2015-02-14,"Bravado",NA
"BF1525-B-48063","BF",48063,"1525","B",2015-02-11,"Broccoli",161,"TPG",11.1000003814697,140,38,2014-11-07,2015-02-23,"Bravado",NA
"BF1530- -48066","BF",48066,"1530"," ",2015-02-23,"Broccoli",166,"TPG",12.3000001907349,172,38,2014-11-18,2015-03-05,"Bravado",NA
"BF1531- -48065","BF",48065,"1531"," ",2015-02-17,"Broccoli",167,"TPG",12.6000003814697,234,38,2014-11-12,2015-02-28,"Bravado",NA
"BF1605-C-47824","BF",47824,"1605","C",2015-01-28,"Broccoli",174,"TPG",7.19999980926514,91,38,2014-10-16,2015-02-01,"Heritage","tranasition"
"BF1701-A-49319","BF",49319,"1701","A",2015-04-16,"Romaine",177,"TPG",5.80000019073486,36,76,2015-02-21,2015-05-02,"Rio Bravo",NA
"BF1701-B-49315","BF",49315,"1701","B",2015-04-15,"Romaine",177,"TPG",5.80000019073486,36,76,2015-02-21,2015-05-02,"Coastal Star",NA
"BF2001- -48319","BF",48319,"2001"," ",2015-03-31,"Broccoli",192,"TPG",13.8000001907349,140,38,2015-01-02,2015-04-11,"Heritage",NA
"BF2002- -48318","BF",48318,"2002"," ",2015-04-03,"Broccoli",193,"TPG",15.3999996185303,136,38,2015-01-05,2015-04-14,"Heritage",NA
"BF2003- -48317","BF",48317,"2003"," ",2015-04-18,"Broccoli",194,"TPG",14.3000001907349,124,38,2015-01-19,2015-04-24,"Heritage",NA
"BF2103-A-49958","BF",49958,"2103","A",2015-03-30,"Romaine",204,"TPG",4,44,38,2015-02-02,2015-04-18,"Coastal Star","From East"
"BF2103-B-49957","BF",49957,"2103","B",2015-04-01,"Romaine",204,"TPG",5.09999990463257,56,38,2015-02-02,2015-04-18,"Grn Towers",NA
"BF2103-C-50294","BF",50294,"2103","C",2015-03-31,"Romaine",204,"TPG",3,34,38,2015-02-02,2015-04-18,"Grn Thunder",NA
"BF2104-A-49931","BF",49931,"2104","A",2015-03-25,"Romaine",205,"TPG",6.90000009536743,76,38,2015-01-23,2015-04-15,"Coastal Star",NA
"BF2104-B-49930","BF",49930,"2104","B",2015-03-29,"Romaine",205,"TPG",7.30000019073486,80,38,2015-02-02,2015-04-18,"Rio Bravo",NA
"BF2501- -47881","BF",47881,"2501"," ",2015-02-15,"Broccoli",246,"TPG",15.3999996185303,256,38,2014-11-13,2015-03-01,"Avenger",NA
"BF2502- -47880","BF",47880,"2502"," ",2015-02-24,"Broccoli",247,"TPG",14.3999996185303,234,38,2014-11-17,2015-03-04,"Avenger",NA
"BF2503- -47879","BF",47879,"2503"," ",2015-03-06,"Broccoli",248,"TPG",13.8999996185303,228,38,2014-11-25,2015-03-12,"Avenger",NA
"BF2505- -47878","BF",47878,"2505"," ",2015-01-30,"Broccoli",250,"TPG",14,236,38,2014-10-22,2015-02-07,"Avenger",NA
"BF2506- -47877","BF",47877,"2506"," ",2015-02-03,"Broccoli",251,"TPG",13.6999998092651,228,38,2014-10-28,2015-02-13,"Avenger","9"""
"BF2507- -47876","BF",47876,"2507"," ",2015-02-15,"Broccoli",252,"TPG",13.6000003814697,224,38,2014-11-10,2015-02-26,"Avenger",NA
"BF2511- -49743","BF",49743,"2511"," ",2015-04-20,"Broccoli",256,"TPG",15.8999996185303,344,38,2015-01-22,2015-04-27,"Heritage",NA
"BF2512- -49742","BF",49742,"2512"," ",2015-04-11,"Broccoli",257,"TPG",12.8999996185303,143,38,2015-01-13,2015-04-20,"Heritage",NA
"BF2513- -48822","BF",48822,"2513"," ",2015-03-30,"Broccoli",258,"TPG",12.3000001907349,246,38,2014-12-27,2015-04-07,"Heritage",NA
"BF2701- -48203","BF",48203,"2701"," ",2015-01-31,"Broccoli",274,"TPG",13.1999998092651,102,76,2014-10-26,2015-02-11,"Marathon","WB-4L 9.5"""
"BF2702- -48202","BF",48202,"2702"," ",2015-02-10,"Broccoli",275,"TPG",13.6999998092651,96,76,2014-11-05,2015-02-21,"Heritage","WB-4L 9.5"""
"BF2703- -48201","BF",48201,"2703"," ",2015-02-13,"Broccoli",276,"TPG",14.3000001907349,99,76,2014-11-08,2015-02-24,"Heritage","WB-4L 9.5"""
"BF2704- -48200","BF",48200,"2704"," ",2015-02-16,"Broccoli",277,"TPG",14.8000001907349,90,76,2014-11-15,2015-03-03,"Heritage","WB-4L 9.5"""
"BF2705- -48199","BF",48199,"2705"," ",2015-02-26,"Broccoli",278,"TPG",9.39999961853027,65,76,2014-11-24,2015-03-11,"Heritage","WB-4L 9.5"""
"BF2706-A-48762","BF",48762,"2706","A",2015-03-30,"Broccoli",279,"TPG",7.30000019073486,36,76,2015-01-03,2015-04-12,"Heritage","WB-4L 10.5"""
"BF2706-B-48766","BF",48766,"2706","B",2015-03-30,"Broccoli",279,"TPG",6.69999980926514,33,76,2015-01-03,2015-04-12,"Bravado","WB-4L 10.5"""
"BF2707-A-48761","BF",48761,"2707","A",2015-04-04,"Broccoli",280,"TPG",7.19999980926514,36,76,2015-01-08,2015-04-15,"Heritage","WB-4L 10.5"""
"BF2707-B-48765","BF",48765,"2707","B",2015-04-07,"Broccoli",280,"TPG",7.19999980926514,36,76,2015-01-08,2015-04-15,"Bravado","WB-4L 10.5"""
"BF2708- -48764","BF",48764,"2708"," ",2015-04-14,"Broccoli",281,"TPG",14.5,72,76,2015-01-16,2015-04-21,"Heritage","WB-4L 10.5"""
"BF3007- -48521","BF",48521,"3007"," ",2015-04-17,"Cauliflower",1520,"TPG",18.5,108,76,2015-01-07,2015-04-24,"Paciencia","WB  14"""
"BF3008- -48520","BF",48520,"3008"," ",2015-04-15,"Cauliflower",1521,"TPG",17.2999992370605,100,76,2014-12-30,2015-04-21,"Paciencia","WB 14"""
"BF3009- -48519","BF",48519,"3009"," ",2015-03-25,"Cauliflower",1522,"TPG",15.3999996185303,90,76,2014-12-06,2015-04-05,"Paciencia","WB"
"BF3501- -48639","BF",48639,"3501"," ",2015-03-26,"Lettuce",331,"DS ",13,124,38,2014-12-05,2015-04-13,"Vandenberg","3"""
"BF3502- -48638","BF",48638,"3502"," ",2015-04-03,"Lettuce",332,"DS ",13,124,38,2014-12-12,2015-04-13,"Vandenberg","3"""
"BF3503- -48637","BF",48637,"3503"," ",2015-04-15,"Lettuce",333,"DS ",11.8000001907349,120,38,2015-01-16,2015-05-03,"Vandenberg","2.8"""
"BF3504- -48636","BF",48636,"3504"," ",2015-04-06,"Lettuce",334,"DS ",13.6000003814697,132,38,2015-01-01,2015-04-25,"Vandenberg","2.8"""
"BF4501- -48148","BF",48148,"4501"," ",2015-02-16,"Cauliflower",394,"TPG",13.1000003814697,51,76,2014-11-10,2015-03-11,"Paciencia","WB-3L  17"""
"BF4502- -48147","BF",48147,"4502"," ",2015-03-03,"Cauliflower",395,"TPG",13.1000003814697,51,76,2014-11-18,2015-03-18,"Paciencia","WB-3L 17"""
"BF4503- -48146","BF",48146,"4503"," ",2015-03-17,"Cauliflower",396,"TPG",12.6999998092651,50,76,2014-11-28,2015-03-25,"Paciencia","WB-3L 17"""
"BF4504- -48145","BF",48145,"4504"," ",2015-04-03,"Cauliflower",397,"TPG",12.8999996185303,51,76,2014-12-26,2015-04-19,"Paciencia","WB-3L 17"""
"BF4505- -48144","BF",48144,"4505"," ",2015-04-17,"Cauliflower",398,"TPG",12.5,51,76,2015-01-09,2015-04-26,"Paciencia","WB-3L 17"""
"BF4506- -48143","BF",48143,"4506"," ",2015-03-24,"Cauliflower",399,"TPG",12.1000003814697,51,76,2014-12-11,2015-04-04,"Paciencia","WB-3L 15"""
"BF4803- -47871","BF",47871,"4803"," ",2015-01-26,"Broccoli",617,"TPG",14.1000003814697,234,38,2014-10-20,2015-02-05,"Bravado",NA
"BF4804- -47870","BF",47870,"4804"," ",2015-02-02,"Broccoli",618,"TPG",14.1999998092651,248,38,2014-10-25,2015-02-10,"Bravado",NA
"BF4901- -48135","BF",48135,"4901"," ",2015-02-04,"Cauliflower",619,"TPG",12.5,156,38,2014-10-27,2015-02-25,"Paciencia",NA
"BF4902- -48134","BF",48134,"4902"," ",2015-02-09,"Cauliflower",620,"TPG",12.1999998092651,180,38,2014-10-30,2015-03-01,"Paciencia",NA
"BF4909- -47809","BF",47809,"4909"," ",2015-01-29,"Cauliflower",627,"TPG",11.3000001907349,206,38,2014-10-17,2015-02-15,"Paciencia",NA
"BF5101-A-48073","BF",48073,"5101","A",2015-01-27,"Cauliflower",969,"TPG",10.6000003814697,180,76,2014-10-17,2015-02-15,"Paciencia","WB  14"""
"BF5101-B-48072","BF",48072,"5101","B",2015-01-30,"Cauliflower",969,"TPG",6.59999990463257,90,76,2014-10-22,2015-02-20,"Paciencia","WB 14"""
"BF5102-A-48075","BF",48075,"5102","A",2015-02-02,"Cauliflower",970,"TPG",11.1000003814697,144,76,2014-10-25,2015-02-22,"Paciencia","WB 14"""
"BF5102-B-48074","BF",48074,"5102","B",2015-02-14,"Cauliflower",970,"TPG",9.69999980926514,130,76,2014-11-05,2015-03-07,"Paciencia","WB  14"""
"BF5103- -48307","BF",48307,"5103"," ",2015-03-13,"Broccoli",971,"TPG",14.3999996185303,284,38,2014-12-09,2015-03-25,"Heritage",NA
"BF5104-A-48077","BF",48077,"5104","A",2015-01-30,"Cauliflower",972,"TPG",3.40000009536743,46,76,2014-10-22,2015-02-20,"Paciencia","WB 14"""
"BF5104-B-48625","BF",48625,"5104","B",2015-02-26,"Cauliflower",972,"TPG",22,274,76,2014-11-15,2015-03-16,"Paciencia","14"""
"BF5105- -48076","BF",48076,"5105"," ",2015-02-19,"Cauliflower",973,"TPG",24,158,76,2014-11-13,2015-03-14,"Paciencia","WB 17"""
"BF5106- -48306","BF",48306,"5106"," ",2015-04-01,"Broccoli",974,"TPG",17.8999996185303,308,38,2014-12-26,2015-04-06,"Heritage",NA
"BF7204- -46735","BF",46735,"7204"," ",2015-01-31,"Cauliflower",2013,"TPG",15.6000003814697,194,76,2014-10-20,2015-02-18,"Paciencia","WB 17"""
"BF7205- -46734","BF",46734,"7205"," ",2015-02-03,"Cauliflower",2007,"TPG",15.3999996185303,123,76,2014-10-24,2015-02-22,"Paciencia","WB"
"BF7206- -46733","BF",46733,"7206"," ",2015-02-09,"Cauliflower",2008,"TPG",15.3000001907349,120,76,2014-10-29,2015-02-27,"Paciencia","WB"
"BF7207- -46732","BF",46732,"7207"," ",2015-02-18,"Cauliflower",2009,"TPG",15.1000003814697,131,76,2014-11-11,2015-03-12,"Paciencia","WB 17"""
"BF7304-A-49494","BF",49494,"7304","A",2015-04-14,"Romaine Hearts",2017,"TPG",7.69999980926514,32,76,2015-02-13,2015-04-29,"Hrt Delight","From West"
"BF7304-B-49495","BF",49495,"7304","B",2015-04-14,"Romaine Hearts",2017,"TPG",8.19999980926514,34,76,2015-02-13,2015-04-29,"Heavy Heart",NA
"BF7306-B-49789","BF",49789,"7306","B",2015-03-28,"Romaine Hearts",2019,"DS ",8,48,76,2014-12-28,2015-04-22,"Hrt Delight","3.1'"
"BF7307-A-49509","BF",49509,"7307","A",2015-03-16,"Romaine Hearts",2020,"DS ",4.59999990463257,27,76,2014-11-27,2015-04-05,"Hrt Delight","WB-5L  3.1"""
"BF7307-B-49502","BF",49502,"7307","B",2015-03-30,"Romaine Hearts",2020,"DS ",7.59999990463257,45,76,2014-12-28,2015-04-22,"Heavy Heart","3.1"""
"BF7308-A-49508","BF",49508,"7308","A",2015-03-12,"Romaine Hearts",2021,"DS ",7.80000019073486,60,76,2014-11-27,2015-04-05,"Heavy Heart","WB-5L  3.1"""
"BF7308-B-49503","BF",49503,"7308","B",2015-03-14,"Romaine Hearts",2021,"DS ",3.40000009536743,21,76,2014-11-27,2015-04-05,"Hrt Delight","WB-5L  3.1"""
"BF7401- -48868","BF",48868,"7401"," ",2015-03-28,"Lettuce",2023,"TPG",11.1999998092651,96,76,2014-12-26,2015-04-08,"Vandenberg","WB-4L 12"""
"BF7402- -48867","BF",48867,"7402"," ",2015-03-24,"Lettuce",2024,"TPG",12.8999996185303,111,76,2014-12-31,2015-04-13,"Vandenberg","WB-4L 12"""
"BF7403-A-48866","BF",48866,"7403","A",2015-03-29,"Lettuce",2025,"TPG",9.39999961853027,76,76,2015-01-16,2015-04-22,"Vandenberg","WB-4L 12"""
"BF7403-B-49887","BF",49887,"7403","B",2015-03-31,"Lettuce",2025,"TPG",3.59999990463257,29,76,2015-01-16,2015-04-22,"Showtime","WB-4L 12"""
"BF7404- -48865","BF",48865,"7404"," ",2015-04-13,"Lettuce",2026,"TPG",12.3999996185303,102,76,2015-01-31,2015-04-29,"Vandenberg","WB-4L 12"""
"BF7705- -48198","BF",48198,"7705"," ",2015-01-26,"Broccoli",2042,"TPG",10,93,76,2014-10-21,2015-02-06,"Heritage","WB 9.5"""
"BF7706- -48204","BF",48204,"7706"," ",2015-01-23,"Broccoli",2054,"TPG",11.1000003814697,103,76,2014-10-21,2015-02-06,"Marathon","WB 9.5"""
"FRP2-A-49421","FR",49421,"P2","A",2015-03-03,"Broccoli",2299,"DS ",21,224,38,2014-11-05,2015-03-14,"Tahoe","P2E  WD-11/10/14"
"FRP2-B-49390","FR",49390,"P2","B",2015-03-02,"Broccoli",2299,"DS ",16,161,38,2014-11-05,2015-03-14,"Emerald Jewel","P2W  WD-11/11/14"
"MN5601- -48325","MN",48325,"5601"," ",2015-03-17,"Cauliflower",421,"TPG",10.1999998092651,132,38,2014-11-20,2015-03-20,"Paciencia","14"""
"MN5602- -48324","MN",48324,"5602"," ",2015-03-19,"Cauliflower",422,"TPG",10.3999996185303,132,38,2014-11-29,2015-03-26,"Paciencia",NA
"MN5603- -48323","MN",48323,"5603"," ",2015-03-23,"Cauliflower",423,"TPG",13.1000003814697,216,38,2014-12-10,2015-04-03,"Paciencia","13"""
"MN5604- -48322","MN",48322,"5604"," ",2015-04-17,"Cauliflower",424,"TPG",10.1999998092651,132,38,2015-01-06,2015-04-23,"Paciencia","13"""
"MN5605- -48321","MN",48321,"5605"," ",2015-04-15,"Cauliflower",425,"TPG",10.3999996185303,132,38,2014-12-30,2015-04-21,"Paciencia",NA
"MN5701- -47843","MN",47843,"5701"," ",2015-02-16,"Broccoli",428,"TPG",7.30000019073486,128,38,2014-11-11,2015-02-27,"Heritage",NA
"MN5702- -47842","MN",47842,"5702"," ",2015-02-07,"Broccoli",429,"TPG",8,96,38,2014-10-31,2015-02-16,"Heritage",NA
"MN5703- -47841","MN",47841,"5703"," ",2015-02-04,"Broccoli",430,"TPG",9,112,38,2014-10-24,2015-02-09,"Heritage",NA
"MN5704- -47840","MN",47840,"5704"," ",2015-01-29,"Broccoli",431,"TPG",9.19999980926514,112,38,2014-10-17,2015-02-02,"Bravado",NA
"MN5708- -48138","MN",48138,"5708"," ",2015-02-18,"Cauliflower",435,"TPG",8.5,108,38,2014-11-07,2015-03-09,"Paciencia","14"""
"MN5711- -47850","MN",47850,"5711"," ",2015-03-04,"Broccoli",438,"TPG",9.80000019073486,162,38,2014-11-22,2015-03-09,"Heritage",NA
"MN5712-A-47849","MN",47849,"5712","A",2015-03-03,"Broccoli",439,"TPG",5.90000009536743,80,38,2014-11-28,2015-03-15,"Heritage",NA
"MN5712-B-49518","MN",49518,"5712","B",2015-03-03,"Broccoli",439,"TPG",3.79999995231628,52,38,2014-11-28,2015-03-15,"Heritage",NA
"MN5713- -47848","MN",47848,"5713"," ",2015-03-13,"Broccoli",440,"TPG",9.30000019073486,132,38,2014-12-08,2015-03-24,"Heritage",NA
"MN5714- -47847","MN",47847,"5714"," ",2015-04-13,"Broccoli",441,"TPG",9.10000038146973,120,38,2015-01-09,2015-04-16,"Bravado",NA
"MN5715- -47846","MN",47846,"5715"," ",2015-02-19,"Broccoli",442,"TPG",8.89999961853027,100,38,2014-11-07,2015-02-23,"Bravado",NA
"MN5716- -47845","MN",47845,"5716"," ",2015-02-17,"Broccoli",443,"TPG",8.69999980926514,100,38,2014-11-06,2015-02-22,"Bravado",NA
"MN5717- -47844","MN",47844,"5717"," ",2015-02-20,"Broccoli",444,"TPG",8.19999980926514,110,38,2014-11-14,2015-03-02,"Heritage",NA
"MN5718-A-48137","MN",48137,"5718","A",2015-03-10,"Cauliflower",445,"TPG",6.09999990463257,126,38,2014-11-18,2015-03-18,"Paciencia","14"""
"MN5718-B-49516","MN",49516,"5718","B",2015-03-10,"Cauliflower",445,"TPG",3.5,72,38,2014-11-18,2015-03-18,"Paciencia","14"""
"OF0103- -48305","OF",48305,"0103"," ",2015-04-18,"Broccoli",503,"TPG",8.60000038146973,100,38,2015-01-17,2015-04-22,"Bravado",NA
"OF0104- -48304","OF",48304,"0104"," ",2015-04-10,"Broccoli",504,"TPG",8.60000038146973,104,38,2015-01-08,2015-04-15,"Bravado",NA
"OF0105- -48303","OF",48303,"0105"," ",2015-04-02,"Broccoli",505,"TPG",8.80000019073486,108,38,2014-12-24,2015-04-04,"Heritage",NA
"OF0106- -48302","OF",48302,"0106"," ",2015-03-16,"Broccoli",506,"TPG",8.39999961853027,104,38,2014-12-11,2015-03-24,"Heritage",NA
"OF0107- -48301","OF",48301,"0107"," ",2015-04-03,"Broccoli",507,"TPG",8.30000019073486,104,38,2014-12-30,2015-04-08,"Bravado",NA
"OF0108N- -48059","OF",48059,"0108N"," ",2015-02-09,"Broccoli",508,"TPG",11.3999996185303,148,38,2014-10-30,2015-02-15,"Bravado",NA
"OF0108S- -48058","OF",48058,"0108S"," ",2015-02-16,"Broccoli",594,"TPG",9.89999961853027,196,38,2014-11-08,2015-02-24,"Bravado",NA
"OF0109- -48829","OF",48829,"0109"," ",2015-03-31,"Lettuce",509,"TPG",11.3999996185303,186,38,2014-12-28,2015-04-10,"Vandenberg",NA
"OF0110- -48062","OF",48062,"0110"," ",2015-03-13,"Broccoli",510,"TPG",9.39999961853027,120,38,2014-11-29,2015-03-16,"Avenger",NA
"OF0112- -48828","OF",48828,"0112"," ",2015-04-02,"Lettuce",512,"TPG",12.8000001907349,228,38,2015-01-12,2015-04-18,"Vandenberg",NA
"OF0113- -48061","OF",48061,"0113"," ",2015-02-21,"Broccoli",513,"TPG",12.3999996185303,192,38,2014-11-15,2015-03-03,"Avenger",NA
"OF0114- -48060","OF",48060,"0114"," ",2015-02-26,"Broccoli",514,"TPG",12.3999996185303,148,38,2014-11-21,2015-03-08,"Avenger",NA
"OF0201- -48133","OF",48133,"0201"," ",2015-02-19,"Cauliflower",518,"TPG",10.3000001907349,176,38,2014-11-07,2015-03-09,"Paciencia","13"""
"OF0203- -48131","OF",48131,"0203"," ",2015-02-02,"Cauliflower",520,"TPG",10.1999998092651,102,38,2014-10-15,2015-02-13,"Paciencia",NA
"OF0204- -48130","OF",48130,"0204"," ",2015-02-06,"Cauliflower",521,"TPG",10.1000003814697,84,38,2014-10-21,2015-02-19,"Paciencia","13"""
"OF0205- -48129","OF",48129,"0205"," ",2015-02-11,"Cauliflower",522,"TPG",13.8000001907349,108,38,2014-10-28,2015-02-27,"Paciencia","14"""
"OF0501- -48833","OF",48833,"0501"," ",2015-04-11,"Lettuce",530,"TPG",10.1999998092651,108,38,2015-01-26,2015-04-24,"Vandenberg",NA
"OF0602- -47884","OF",47884,"0602"," ",2015-01-26,"Broccoli",535,"TPG",9.80000019073486,116,38,2014-10-16,2015-02-01,"Avenger",NA
"OF0603- -47883","OF",47883,"0603"," ",2015-02-03,"Broccoli",536,"TPG",7.59999990463257,96,38,2014-10-23,2015-02-08,"Avenger",NA
"OF0604- -47882","OF",47882,"0604"," ",2015-02-07,"Broccoli",537,"TPG",7.59999990463257,96,38,2014-10-29,2015-02-14,"Avenger",NA
"OF0705- -48328","OF",48328,"0705"," ",2015-03-26,"Cauliflower",542,"TPG",7.19999980926514,200,38,2014-12-11,2015-04-04,"Paciencia","13"""
"OF0801- -48069","OF",48069,"0801"," ",2015-02-24,"Cauliflower",543,"TPG",10.3999996185303,152,38,2014-11-13,2015-03-14,"Paciencia","13"""
"OF0802-A-48068","OF",48068,"0802","A",2015-03-07,"Cauliflower",544,"TPG",9.5,104,38,2014-11-17,2015-03-19,"Paciencia",NA
"OF0802-B-49515","OF",49515,"0802","B",2015-03-07,"Cauliflower",544,"TPG",1.60000002384186,24,38,2014-11-17,2015-03-19,"Paciencia",NA
"OF0803-A-48067","OF",48067,"0803","A",2015-03-18,"Cauliflower",545,"TPG",5.59999990463257,68,38,2014-11-24,2015-03-24,"Paciencia",NA
"OF0803-B-49517","OF",49517,"0803","B",2015-03-18,"Cauliflower",545,"TPG",4.80000019073486,72,38,2014-11-24,2015-03-24,"Paciencia",NA
"OF0804- -49299","OF",49299,"0804"," ",2015-04-10,"Cauliflower",546,"TPG",10.6000003814697,154,38,2014-12-27,2015-04-16,"Paciencia","13"""
"OF0805- -49298","OF",49298,"0805"," ",2015-04-13,"Cauliflower",547,"TPG",10.3000001907349,148,38,2015-01-03,2015-04-25,"Paciencia",NA
