Farm,Ranch,Field,Acres,Crop,Variety,Planting_Date,Estimated_Harvest,Estimated_Harvest_GDD,Days_Early,Days_Late
BF,BF43,BF4311,3.1,Broccoli,marathon,10/1/2013,1/18/2014,1/31/2014,,13
BF,BF45,BF4505,4.1,Broccoli,heritage,10/7/2013,1/30/2014,2/8/2014,,9
BF,BF45,BF4504,9,Broccoli,heritage,10/11/2013,2/2/2014,2/13/2014,,11
BF,BF43,BF4308,11.1,Broccoli,heritage,11/1/2013,2/20/2014,3/8/2014,,17
BF,BF43,BF4307,15.1,Broccoli,heritage,11/8/2013,2/27/2014,3/16/2014,,18
BF,BF43,BF4306,10.1,Broccoli,heritage,11/17/2013,3/6/2014,3/25/2014,,19
BF,BF45,BF4503,6.1,Broccoli,heritage,12/2/2013,3/20/2014,3/31/2014,,11
BF,BF43,BF4305,14.1,Broccoli,heritage,11/25/2013,3/12/2014,4/1/2014,,20
BF,BF43,BF4304,10.1,Broccoli,heritage,12/3/2013,3/22/2014,4/1/2014,,10
BF,BF43,BF4303,5.1,Broccoli,heritage,12/12/2013,3/27/2014,4/8/2014,,12
BF,BF43,BF4303,10.1,Broccoli,avenger,12/12/2013,3/30/2014,4/12/2014,,13
BF,BF43,BF4302,12.1,Broccoli,heritage,12/22/2013,4/2/2014,4/16/2014,,14
BF,BF43,BF4301,9.1,Broccoli,avenger,12/30/2013,4/10/2014,4/24/2014,,14
BF,BF76,BF7603,5.1,Celery,sonora,9/12/2013,1/6/2014,1/3/2014,3,
BF,BF76,BF7609,3,Celery,sonora,9/13/2013,1/13/2014,1/4/2014,9,
BF,BF30,BF3021,3,Broccoli,heritage,9/6/2013,12/19/2013,1/5/2014,,17
BF,BF21,BF2104,5.1,Broccoli,heritage,9/9/2013,12/20/2013,1/10/2014,,21
BF,BF30,BF3020,4.1,Broccoli,heritage,9/12/2013,12/29/2013,1/15/2014,,17
BF,BF21,BF2107,11,Broccoli,heritage,9/15/2013,1/2/2014,1/21/2014,,19
BF,BF30,BF3019,15.1,Broccoli,heritage,9/17/2013,1/11/2014,1/24/2014,,13
BF,BF21,BF2108,4.1,Broccoli,heritage,9/20/2013,1/7/2014,1/27/2014,,20
BF,BF30,BF3018,9.1,Broccoli,heritage,9/21/2013,1/17/2014,1/29/2014,,12
BF,BF30,BF3017,11,Broccoli,heritage,9/26/2013,1/23/2014,2/6/2014,,14
BF,BF30,BF3016,6,Broccoli,heritage,9/30/2013,1/26/2014,2/12/2014,,17
BF,BF30,BF3012,6,Broccoli,heritage,12/9/2013,3/23/2014,4/7/2014,,15
BF,BF30,BF3013,4.1,Broccoli,heritage,12/20/2013,4/5/2014,4/16/2014,,11
BF,BF30,BF3014,11,Broccoli,heritage,12/28/2013,4/10/2014,4/21/2014,,11
BF,BF35,BF3513,15,Lettuce,vandenberg,12/5/2013,4/9/2014,4/13/2014,,4
BF,BF35,BF3512,14.1,Lettuce,vandenberg,12/14/2013,4/12/2014,4/20/2014,,8
BF,BF35,BF3508,4,Lettuce,sure shot,12/22/2013,4/17/2014,4/24/2014,,7
BF,BF35,BF3509,7.1,Lettuce,vandenberg,12/30/2013,4/23/2014,4/30/2014,,7
BF,BF04,BF0404,9,Broccoli,marathon,9/22/2013,1/17/2014,1/1/2014,16,
BF,BF51,BF5103,8,Broccoli,heritage,9/7/2013,12/28/2013,1/2/2014,,5
BF,BF15,BF1504,14,Broccoli,heritage,9/9/2013,12/23/2013,1/6/2014,,14
BF,BF27,BF2701,12,Broccoli,heritage,9/10/2013,12/30/2013,1/7/2014,,8
BF,BF04,BF0405,3.1,Broccoli,marathon,9/27/2013,1/20/2014,1/10/2014,10,
BF,BF16,BF1605,6,Broccoli,heritage,9/13/2013,1/4/2014,1/13/2014,,9
BF,BF15,BF1503,11,Broccoli,heritage,9/14/2013,1/5/2014,1/15/2014,,10
BF,BF27,BF2702,10.1,Broccoli,heritage,9/14/2013,1/7/2014,1/15/2014,,8
BF,BF15,BF1502,3.1,Broccoli,heritage,9/19/2013,1/14/2014,1/23/2014,,9
BF,BF27,BF2703,5,Broccoli,heritage,9/22/2013,1/13/2014,1/27/2014,,14
BF,BF15,BF1501,3,Broccoli,heritage,9/23/2013,1/17/2014,1/28/2014,,11
BF,BF15,BF1508,14.1,Broccoli,heritage,10/3/2013,1/24/2014,1/31/2014,,7
BF,BF15,BF1518,6,Broccoli,heritage,9/26/2013,1/20/2014,2/2/2014,,13
BF,BF04,BF0405,8,Broccoli,heritage,9/27/2013,1/23/2014,2/3/2014,,11
BF,BF27,BF2704,10,Broccoli,heritage,9/27/2013,1/24/2014,2/3/2014,,10
BF,BF27,BF2705,14.1,Broccoli,heritage,9/28/2013,1/26/2014,2/5/2014,,10
BF,BF15,BF1507,11.1,Broccoli,heritage,9/29/2013,1/23/2014,2/7/2014,,15
BF,BF10,BF1002,12,Broccoli,heritage,10/8/2013,2/2/2014,2/7/2014,,5
BF,BF15,BF1523,13.1,Broccoli,heritage,10/9/2013,1/31/2014,2/8/2014,,8
BF,BF10,BF1001,7.1,Broccoli,heritage,9/30/2013,1/30/2014,2/8/2014,,9
BF,BF15,BF1509,6.1,Broccoli,heritage,10/10/2013,2/6/2014,2/9/2014,,3
BF,BF10,BF1003,15.1,Broccoli,heritage,10/12/2013,2/7/2014,2/12/2014,,5
BF,BF15,BF1522,13.1,Broccoli,heritage,10/14/2013,2/6/2014,2/15/2014,,9
BF,BF15,BF1510,12.1,Broccoli,heritage,10/15/2013,2/8/2014,2/17/2014,,9
BF,BF10,BF1004,10.1,Broccoli,heritage,10/18/2013,2/13/2014,2/22/2014,,9
BF,BF15,BF1521,9,Broccoli,heritage,10/19/2013,2/10/2014,2/23/2014,,13
BF,BF15,BF1511,12.1,Broccoli,heritage,10/21/2013,2/13/2014,2/26/2014,,13
BF,BF10,BF1005,3.1,Broccoli,heritage,10/25/2013,2/15/2014,3/3/2014,,17
BF,BF47,BF4707,8.1,Broccoli,heritage,10/26/2013,2/15/2014,3/5/2014,,19
BF,BF10,BF1006,10.1,Broccoli,heritage,11/2/2013,2/27/2014,3/6/2014,,8
BF,BF47,BF4708,4.1,Broccoli,heritage,11/3/2013,2/22/2014,3/7/2014,,14
BF,BF15,BF1512,4.1,Broccoli,heritage,10/29/2013,2/14/2014,3/8/2014,,23
BF,BF15,BF1513,13.1,Broccoli,heritage,11/5/2013,2/24/2014,3/9/2014,,14
BF,BF47,BF4705,4.1,Broccoli,heritage,11/9/2013,2/28/2014,3/13/2014,,13
BF,BF47,BF4706,12,Broccoli,heritage,11/9/2013,3/1/2014,3/13/2014,,12
BF,BF10,BF1007,4,Broccoli,heritage,11/9/2013,3/2/2014,3/13/2014,,11
BF,BF15,BF1514,14.1,Broccoli,heritage,11/15/2013,3/5/2014,3/19/2014,,14
BF,BF10,BF1008,5.1,Broccoli,heritage,11/17/2013,3/9/2014,3/21/2014,,12
BF,BF47,BF4704,9.1,Broccoli,heritage,11/18/2013,3/8/2014,3/22/2014,,14
BF,BF02,BF0204,9.1,Broccoli,heritage,12/2/2013,3/30/2014,3/29/2014,1,
BF,BF15,BF1515,7,Broccoli,heritage,11/25/2013,3/16/2014,3/29/2014,,13
BF,BF10,BF1010,7,Broccoli,heritage,11/26/2013,3/13/2014,3/30/2014,,17
BF,BF25,BF2511,4.1,Broccoli,heritage,11/26/2013,3/15/2014,3/30/2014,,15
BF,BF25,BF2510,11.1,Broccoli,heritage,12/5/2013,3/22/2014,3/31/2014,,9
BF,BF10,BF1009,3.1,Broccoli,heritage,12/5/2013,3/26/2014,3/31/2014,,5
BF,BF47,BF4702,12.1,Broccoli,heritage,12/7/2013,3/30/2014,4/1/2014,,2
BF,BF47,BF4703,5,Broccoli,heritage,11/28/2013,3/19/2014,4/1/2014,,13
BF,BF72,BF7207,11.1,Broccoli,heritage,12/10/2013,3/28/2014,4/3/2014,,6
BF,BF02,BF0204,4,Broccoli,heritage,12/12/2013,4/7/2014,4/5/2014,2,
BF,BF01,BF0108,9,Lettuce,vandenberg,12/1/2013,4/5/2014,4/5/2014,,
BF,BF47,BF4701,3,Broccoli,heritage,12/17/2013,4/2/2014,4/9/2014,,7
BF,BF25,BF2509,13,Broccoli,avenger,12/15/2013,3/29/2014,4/11/2014,,13
BF,BF11,BF1104,8.1,Broccoli,heritage,12/19/2013,4/2/2014,4/11/2014,,9
BF,BF72,BF7206,13,Broccoli,heritage,12/21/2013,4/5/2014,4/12/2014,,7
BF,BF02,BF0204,4.1,Broccoli,heritage,12/21/2013,4/10/2014,4/12/2014,,2
BF,BF27,BF2709,4,Broccoli,heritage,12/27/2013,4/10/2014,4/17/2014,,7
BF,BF01,BF0109,5,Lettuce,sure shot,12/15/2013,4/11/2014,4/17/2014,,6
BF,BF11,BF1106,12.1,Broccoli,heritage,12/28/2013,4/16/2014,4/17/2014,,1
BF,BF72,BF7205,14.1,Broccoli,heritage,12/29/2013,4/12/2014,4/18/2014,,6
BF,BF11,BF1105,4,Broccoli,avenger,12/31/2013,4/19/2014,4/22/2014,,3
BF,BF01,BF0107,6,Lettuce,vandenberg,12/29/2013,4/25/2014,4/25/2014,,
BF,BF45,BF4502,3.1,Broccoli,heritage,1/13/2014,4/21/2014,4/23/2014,,2
BF,BF46,BF4603,9.1,Cauliflower,symphony,1/19/2014,4/26/2014,4/29/2014,,3
BF,BF44,BF4405,5,Romaine,grn thunder,2/28/2014,5/22/2014,5/12/2014,10,
BF,BF44,BF4405,3.1,Romaine,grn forest,2/28/2014,5/23/2014,5/12/2014,11,
BF,BF44,BF4405,6,Romaine,stryker,2/28/2014,5/25/2014,5/12/2014,13,
BF,BF45,BF4501,14,Broccoli,heritage,2/4/2014,5/2/2014,5/13/2014,,11
BF,BF46,BF4601,3.1,Cauliflower,symphony,2/4/2014,5/2/2014,5/15/2014,,13
BF,BF46,BF4602,15.1,Cauliflower,symphony,2/16/2014,5/7/2014,5/24/2014,,17
BF,BF44,BF4406,8,Romaine,grn forest,3/10/2014,5/31/2014,5/25/2014,6,
BF,BF44,BF4405,14.1,Romaine,grn thunder,3/10/2014,5/29/2014,5/26/2014,3,
BF,BF44,BF4406,11.1,Romaine,grn thunder,3/10/2014,6/1/2014,5/26/2014,6,
BF,BF44,BF4406,4,Romaine,stryker,3/10/2014,5/31/2014,5/31/2014,,
BF,BF44,BF4404,15.1,Romaine,grn forest,3/23/2014,6/5/2014,6/5/2014,,
BF,BF44,BF4404,8.1,Romaine,grn thunder,3/23/2014,6/6/2014,6/5/2014,1,
BF,BF44,BF4404,6.1,Romaine,stryker,3/23/2014,6/4/2014,6/10/2014,,6
BF,BF44,BF4403,11.1,Romaine,grn forest,4/2/2014,6/11/2014,6/20/2014,,9
BF,BF44,BF4403,8.1,Romaine,stryker,4/2/2014,6/11/2014,6/22/2014,,11
BF,BF44,BF4402,3.1,Romaine,grn forest,4/6/2014,6/15/2014,6/23/2014,,8
BF,BF44,BF4403,10,Romaine,grn thunder,4/2/2014,6/8/2014,6/24/2014,,16
BF,BF44,BF4402,11.1,Romaine,stryker,4/6/2014,6/15/2014,6/25/2014,,10
BF,BF44,BF4402,12.1,Romaine,grn thunder,4/6/2014,6/15/2014,6/27/2014,,12
BF,BF44,BF4401,14,Romaine,grn forest,4/18/2014,6/18/2014,7/2/2014,,14
BF,BF44,BF4401,9.1,Romaine,stryker,4/18/2014,6/21/2014,7/4/2014,,13
BF,BF44,BF4401,8.1,Romaine,grn thunder,4/18/2014,6/21/2014,7/6/2014,,15
BF,BF42,BF4205,5.1,Lettuce,telluride,4/24/2014,7/2/2014,7/9/2014,,7
BF,BF43,BF4311,4,Broccoli,grn magic,5/3/2014,7/12/2014,7/21/2014,,9
BF,BF42,BF4204,7,Lettuce,telluride,5/3/2014,7/10/2014,7/23/2014,,13
BF,BF43,BF4310,13.1,Broccoli,grn magic,5/12/2014,7/17/2014,7/28/2014,,11
BF,BF42,BF4203,4.1,Lettuce,telluride,5/11/2014,7/20/2014,7/29/2014,,9
BF,BF43,BF4309,12.1,Broccoli,grn magic,5/18/2014,7/23/2014,8/3/2014,,11
BF,BF45,BF4506,11,Lettuce,9238,5/19/2014,7/25/2014,8/6/2014,,12
BF,BF43,BF4308,5.1,Broccoli,grn magic,5/25/2014,7/27/2014,8/8/2014,,12
BF,BF42,BF4201,10,Lettuce,telluride,5/24/2014,7/31/2014,8/9/2014,,9
BF,BF45,BF4505,5.1,Lettuce,telluride,5/25/2014,8/1/2014,8/10/2014,,9
BF,BF46,BF4608,8,Lettuce,telluride,5/25/2014,8/2/2014,8/10/2014,,8
BF,BF42,BF4202,15.1,Lettuce,denali,5/19/2014,7/30/2014,8/12/2014,,13
BF,BF43,BF4307,5.1,Broccoli,grn magic,6/1/2014,8/4/2014,8/13/2014,,9
BF,BF45,BF4504,12.1,Lettuce,journey,6/4/2014,8/7/2014,8/18/2014,,11
BF,BF46,BF4607,4,Lettuce,telluride,6/4/2014,8/9/2014,8/18/2014,,9
BF,BF43,BF4306,12,Broccoli,grn magic,6/8/2014,8/11/2014,8/18/2014,,7
BF,BF45,BF4503,4,Lettuce,telluride,6/11/2014,8/17/2014,8/23/2014,,6
BF,BF46,BF4605,15.1,Lettuce,telluride,6/11/2014,8/18/2014,8/23/2014,,5
BF,BF43,BF4305,15,Broccoli,grn magic,6/14/2014,8/17/2014,8/23/2014,,6
BF,BF45,BF4502,8.1,Lettuce,9238,6/18/2014,8/29/2014,8/31/2014,,2
BF,BF43,BF4304,8.1,Broccoli,grn magic,6/22/2014,8/27/2014,8/31/2014,,4
BF,BF46,BF4604,13.1,Lettuce,telluride,6/20/2014,8/23/2014,9/1/2014,,9
BF,BF45,BF4502,14.1,Lettuce,denali,6/18/2014,8/29/2014,9/3/2014,,5
BF,BF45,BF4509,4,Broccoli,avenger,6/18/2014,9/17/2014,9/5/2014,12,
BF,BF43,BF4303,14.1,Broccoli,grn magic,6/29/2014,9/3/2014,9/7/2014,,4
BF,BF46,BF4603,11,Lettuce,9238,6/25/2014,9/4/2014,9/7/2014,,3
BF,BF45,BF4508,7.1,Broccoli,avenger,6/22/2014,9/20/2014,9/9/2014,11,
BF,BF45,BF4501,3.1,Lettuce,denali,6/26/2014,9/1/2014,9/10/2014,,9
BF,BF45,BF4507,13.1,Broccoli,avenger,6/28/2014,9/29/2014,9/14/2014,15,
BF,BF46,BF4601,10,Lettuce,9238,7/7/2014,9/13/2014,9/18/2014,,5
BF,BF43,BF4302,6.1,Broccoli,grn magic,7/6/2014,9/10/2014,9/24/2014,,14
BF,BF43,BF4301,11,Broccoli,grn magic,7/12/2014,9/13/2014,9/30/2014,,17
BF,BF44,BF4406,12,Broccoli,avenger,7/19/2014,10/2/2014,10/12/2014,,10
BF,BF44,BF4405,13.1,Broccoli,avenger,7/23/2014,10/4/2014,10/17/2014,,13
BF,BF44,BF4403,5,Broccoli,avenger,8/2/2014,10/18/2014,10/19/2014,,1
BF,BF44,BF4404,14.1,Broccoli,avenger,7/28/2014,10/11/2014,10/21/2014,,10
BF,BF44,BF4402,12,Broccoli,avenger,8/8/2014,10/23/2014,10/26/2014,,3
BF,BF44,BF4401,10,Broccoli,avenger,8/15/2014,10/30/2014,11/4/2014,,5
BF,BF45,BF4506,8,Cauliflower,paciencia,9/8/2014,12/10/2014,12/2/2014,8,
BF,BF45,BF4505,10,Cauliflower,paciencia,9/13/2014,12/15/2014,12/8/2014,7,
BF,BF75,BF7503,6.1,Broccoli,marathon,2/15/2014,5/12/2014,5/17/2014,,5
BF,BF75,BF7503,12,Broccoli,heritage,2/15/2014,5/14/2014,5/22/2014,,8
BF,BF76,BF7605,12,Celery,mission-2510,1/29/2014,5/19/2014,5/23/2014,,4
BF,BF75,BF7502,4.1,Broccoli,heritage,2/23/2014,5/16/2014,5/27/2014,,11
BF,BF75,BF7501,10.1,Broccoli,marathon,3/1/2014,5/23/2014,6/2/2014,,10
BF,BF76,BF7604,9.1,Celery,mission-2510,2/4/2014,5/25/2014,6/3/2014,,9
BF,BF76,BF7602,11,Celery,mission-2510,2/15/2014,6/4/2014,6/12/2014,,8
BF,BF76,BF7609,13,Lettuce,quest,3/23/2014,6/13/2014,6/14/2014,,1
BF,BF76,BF7601,5,Celery,mission-2510,2/22/2014,6/9/2014,6/16/2014,,7
BF,BF76,BF7601,9.1,Celery,conquistdr,2/22/2014,6/11/2014,6/20/2014,,9
BF,BF76,BF7606,4.1,Lettuce,quest,3/31/2014,6/18/2014,6/20/2014,,2
BF,BF76,BF7603,3,Lettuce,quest,4/9/2014,6/25/2014,6/29/2014,,4
BF,BF76,BF7608,12,Celery,mission-2510,3/3/2014,6/22/2014,6/30/2014,,8
BF,BF76,BF7608,9,Celery,conquistdr,3/3/2014,6/20/2014,7/1/2014,,11
BF,BF76,BF7607,12.1,Celery,mission-2510,3/12/2014,6/29/2014,7/5/2014,,6
BF,BF76,BF7607,13.1,Celery,conquistdr,3/12/2014,6/27/2014,7/6/2014,,9
BF,BF77,BF7706,11.1,Celery,mission-2510,3/23/2014,7/2/2014,7/13/2014,,11
BF,BF77,BF7705,9.1,Celery,mission-2510,3/30/2014,7/11/2014,7/18/2014,,7
BF,BF77,BF7703,5.1,Celery,mission-2510,4/7/2014,7/19/2014,7/18/2014,1,
BF,BF77,BF7703,14.1,Celery,conquistdr,4/7/2014,7/21/2014,7/18/2014,3,
BF,BF77,BF7705,14,Celery,conquistdr,3/30/2014,7/9/2014,7/18/2014,,9
BF,BF77,BF7703,12.1,Celery,conquistdr,4/17/2014,7/24/2014,7/25/2014,,1
BF,BF77,BF7704,6.1,Celery,conquistdr,4/17/2014,7/26/2014,7/25/2014,1,
BF,BF77,BF7704,15,Celery,sonora,4/24/2014,7/28/2014,7/31/2014,,3
BF,BF77,BF7702,9,Celery,sonora,5/1/2014,7/31/2014,8/9/2014,,9
BF,BF77,BF7702,13,Celery,sonora,5/8/2014,8/3/2014,8/14/2014,,11
BF,BF77,BF7701,10.1,Celery,sonora,5/8/2014,8/8/2014,8/14/2014,,6
BF,BF77,BF7701,9.1,Celery,sonora,5/16/2014,8/10/2014,8/21/2014,,11
BF,BF75,BF7503,10.1,Lettuce,quest,7/2/2014,9/10/2014,9/10/2014,,
BF,BF76,BF7605,12,Cauliflower,absolute,7/3/2014,9/10/2014,9/10/2014,,
BF,BF76,BF7604,13.1,Cauliflower,absolute,7/7/2014,9/12/2014,9/14/2014,,2
BF,BF76,BF7602,3.1,Cauliflower,absolute,7/13/2014,9/18/2014,9/20/2014,,2
BF,BF75,BF7501,4.1,Lettuce,telluride,7/13/2014,9/28/2014,9/22/2014,6,
BF,BF75,BF7502,12.1,Lettuce,denali,7/9/2014,9/21/2014,9/25/2014,,4
BF,BF76,BF7601,14,Cauliflower,absolute,7/20/2014,10/1/2014,9/28/2014,3,
BF,BF76,BF7608,3.1,Cauliflower,absolute,7/26/2014,10/3/2014,10/4/2014,,1
BF,BF76,BF7607,15.1,Cauliflower,absolute,7/31/2014,10/9/2014,10/9/2014,,
BF,BF76,BF7609,4,Broccoli,avenger,7/30/2014,10/13/2014,10/24/2014,,11
BF,BF76,BF7606,9,Broccoli,heritage,8/3/2014,10/22/2014,11/1/2014,,10
BF,BF76,BF7603,6.1,Broccoli,heritage,8/9/2014,10/29/2014,11/8/2014,,10
BF,BF30,BF3011,9,Broccoli,heritage,1/9/2014,4/20/2014,4/22/2014,,2
BF,BF21,BF2101,13,Romaine,hrt break,1/11/2014,3/29/2014,4/22/2014,,24
BF,BF21,BF2101,9,Romaine,hrt delight,1/11/2014,4/2/2014,4/22/2014,,20
BF,BF21,BF2102,10.1,Romaine,hrt break,1/18/2014,3/30/2014,4/26/2014,,27
BF,BF21,BF2102,6.1,Romaine,hrt delight,1/18/2014,4/5/2014,4/26/2014,,21
BF,BF21,BF2106,13,Romaine,hrt delight,2/11/2014,4/24/2014,4/29/2014,,5
BF,BF21,BF2106,3.1,Romaine,hrt break,2/11/2014,4/18/2014,4/30/2014,,12
BF,BF21,BF2104,7,Romaine,hrt delight,3/3/2014,5/1/2014,5/4/2014,,3
BF,BF21,BF2103,11,Romaine,hrt break,2/17/2014,4/23/2014,5/5/2014,,12
BF,BF21,BF2103,3.1,Romaine,hrt delight,2/20/2014,4/26/2014,5/5/2014,,9
BF,BF21,BF2105,10,Romaine,hrt delight,1/30/2014,4/11/2014,5/6/2014,,25
BF,BF21,BF2105,15.1,Romaine,hrt break,1/30/2014,4/16/2014,5/6/2014,,20
BF,BF30,BF3021,6,Romaine,hrt break,2/20/2014,4/27/2014,5/7/2014,,10
BF,BF21,BF2103,3,Romaine,hrt delight,2/27/2014,4/30/2014,5/11/2014,,11
BF,BF30,BF3021,13,Romaine,hrt break,2/27/2014,5/3/2014,5/13/2014,,10
BF,BF21,BF2107,3,Romaine,grn thunder,3/9/2014,5/7/2014,5/27/2014,,20
BF,BF30,BF3021,14,Romaine,hrt break,3/2/2014,5/4/2014,5/28/2014,,24
BF,BF21,BF2104,4,Romaine,hrt break,3/3/2014,5/1/2014,5/29/2014,,28
BF,BF21,BF2107,13,Romaine,stryker,3/9/2014,5/9/2014,6/1/2014,,23
BF,BF21,BF2107,9.1,Romaine,hrt break,3/9/2014,5/5/2014,6/2/2014,,28
BF,BF30,BF3020,12.1,Romaine,hrt break,3/13/2014,5/11/2014,6/4/2014,,24
BF,BF30,BF3018,9.1,Romaine,stryker,3/16/2014,6/4/2014,6/6/2014,,2
BF,BF21,BF2108,12.1,Romaine,grn forest,3/24/2014,5/16/2014,6/7/2014,,22
BF,BF21,BF2108,3.1,Romaine,grn thunder,3/24/2014,5/15/2014,6/7/2014,,23
BF,BF21,BF2108,7,Romaine,stryker,3/24/2014,5/11/2014,6/13/2014,,33
BF,BF30,BF3020,13,Romaine,hrt break,3/30/2014,5/19/2014,6/18/2014,,30
BF,BF30,BF3017,7.1,Romaine,stryker,4/5/2014,6/13/2014,6/26/2014,,13
BF,BF30,BF3017,10.1,Romaine,grn thunder,4/5/2014,6/14/2014,6/28/2014,,14
BF,BF30,BF3019,11,Romaine,salvius,4/9/2014,5/22/2014,6/29/2014,,38
BF,BF30,BF3017,6.1,Romaine,stryker,4/24/2014,7/5/2014,7/11/2014,,6
BF,BF30,BF3017,15,Romaine,grn thunder,4/24/2014,6/28/2014,7/13/2014,,15
BF,BF30,BF3022,10,Broccoli,grn magic,5/11/2014,7/13/2014,7/29/2014,,16
BF,BF21,BF2101,14.1,Broccoli,imperial,5/12/2014,7/25/2014,7/29/2014,,4
BF,BF21,BF2102,11,Broccoli,imperial,5/19/2014,8/1/2014,8/4/2014,,3
BF,BF21,BF2105,7,Broccoli,imperial,5/29/2014,8/8/2014,8/12/2014,,4
BF,BF21,BF2109,12.1,Cauliflower,absolute,6/7/2014,8/10/2014,8/17/2014,,7
BF,BF21,BF2106,6.1,Broccoli,imperial,6/2/2014,8/14/2014,8/21/2014,,7
BF,BF21,BF2111,13.1,Cauliflower,absolute,6/14/2014,8/18/2014,8/23/2014,,5
BF,BF21,BF2103,5.1,Broccoli,imperial,6/9/2014,8/16/2014,8/26/2014,,10
BF,BF21,BF2104,13.1,Broccoli,imperial,6/15/2014,8/22/2014,9/1/2014,,10
BF,BF21,BF2112,14.1,Cauliflower,absolute,6/23/2014,8/27/2014,9/1/2014,,5
BF,BF21,BF2110,9,Cauliflower,absolute,6/29/2014,8/31/2014,9/6/2014,,6
BF,BF21,BF2107,7.1,Broccoli,imperial,6/21/2014,8/29/2014,9/7/2014,,9
BF,BF21,BF2108,4,Broccoli,imperial,6/28/2014,9/4/2014,9/12/2014,,8
BF,BF30,BF3021,5,Cauliflower,absolute,8/1/2014,10/9/2014,10/13/2014,,4
BF,BF30,BF3012,10,Lettuce,telluride,8/6/2014,10/26/2014,10/18/2014,8,
BF,BF30,BF3020,9,Cauliflower,absolute,8/6/2014,10/15/2014,10/19/2014,,4
BF,BF30,BF3013,8,Lettuce,telluride,8/10/2014,10/29/2014,10/22/2014,7,
BF,BF30,BF3019,10.1,Cauliflower,absolute,8/11/2014,10/19/2014,10/24/2014,,5
BF,BF30,BF3014,11,Lettuce,telluride,8/16/2014,11/2/2014,10/30/2014,3,
BF,BF30,BF3018,9.1,Cauliflower,absolute,8/18/2014,10/26/2014,11/2/2014,,7
BF,BF30,BF3017,7.1,Cauliflower,absolute,8/22/2014,11/1/2014,11/7/2014,,6
BF,BF30,BF3016,12,Cauliflower,absolute,8/27/2014,11/8/2014,11/15/2014,,7
BF,BF28,BF2801,11,Broccoli,heritage,1/12/2014,4/17/2014,4/22/2014,,5
BF,BF28,BF2802,3.1,Broccoli,heritage,1/18/2014,4/20/2014,4/26/2014,,6
BF,BF28,BF2803,7,Broccoli,heritage,2/2/2014,4/27/2014,5/12/2014,,15
BF,BF28,BF2804,12.1,Broccoli,heritage,2/8/2014,5/2/2014,5/16/2014,,14
BF,BF28,BF2808,4.1,Broccoli,heritage,2/16/2014,5/9/2014,5/23/2014,,14
BF,BF28,BF2807,6.1,Broccoli,heritage,2/25/2014,5/18/2014,5/30/2014,,12
BF,BF09,BF0907N,7,Broccoli,avenger,3/6/2014,6/2/2014,6/13/2014,,11
BF,BF28,BF2806,15,Broccoli,heritage,3/5/2014,5/26/2014,6/15/2014,,20
BF,BF09,BF0907S,14.1,Broccoli,avenger,3/14/2014,6/7/2014,6/17/2014,,10
BF,BF09,BF0908N,15,Broccoli,heritage,3/14/2014,6/5/2014,6/21/2014,,16
BF,BF09,BF0908S,7.1,Broccoli,avenger,3/24/2014,6/15/2014,6/25/2014,,10
BF,BF28,BF2805,9.1,Broccoli,heritage,4/5/2014,6/19/2014,6/28/2014,,9
BF,BF09,BF0905N,11.1,Broccoli,avenger,6/29/2014,10/2/2014,9/14/2014,18,
BF,BF09,BF0905S,5,Broccoli,avenger,7/5/2014,10/8/2014,9/27/2014,11,
BF,BF28,BF2807,5.1,Lettuce,journey,7/26/2014,10/10/2014,9/29/2014,11,
BF,BF09,BF0901,13.1,Lettuce,journey,7/27/2014,9/26/2014,9/30/2014,,4
BF,BF09,BF0906N,12.1,Broccoli,avenger,7/13/2014,10/12/2014,10/5/2014,7,
BF,BF09,BF0906S,7,Broccoli,heritage,7/19/2014,10/22/2014,10/8/2014,14,
BF,BF28,BF2806,11.1,Lettuce,journey,8/2/2014,10/13/2014,10/9/2014,4,
BF,BF09,BF0902,4,Lettuce,regency,8/1/2014,10/2/2014,10/11/2014,,9
BF,BF28,BF2804,6,Celery,gregorian,7/13/2014,9/19/2014,10/12/2014,,23
BF,BF28,BF2806,3,Lettuce,regency,8/2/2014,10/13/2014,10/12/2014,1,
BF,BF28,BF2805,10,Lettuce,journey,8/7/2014,10/16/2014,10/15/2014,1,
BF,BF09,BF0903,5.1,Lettuce,telluride,8/6/2014,10/19/2014,10/17/2014,2,
BF,BF28,BF2805,14.1,Lettuce,victory,8/7/2014,10/16/2014,10/18/2014,,2
BF,BF09,BF0904,5.1,Lettuce,telluride,8/11/2014,10/25/2014,10/22/2014,3,
BF,BF09,BF0907N,5.1,Broccoli,heritage,9/7/2014,12/5/2014,12/17/2014,,12
BF,BF09,BF0907S,10,Broccoli,heritage,9/12/2014,12/15/2014,12/25/2014,,10
BF,BF35,BF3510,9.1,Lettuce,vandenberg,1/16/2014,4/30/2014,4/24/2014,6,
BF,BF35,BF3512,12.1,Lettuce,vandenberg,2/5/2014,4/19/2014,5/7/2014,,18
BF,BF35,BF3511,10.1,Lettuce,reliant,1/30/2014,5/2/2014,5/7/2014,,5
BF,BF35,BF3508,9.1,Cauliflower,absolute,8/13/2014,10/24/2014,10/27/2014,,3
BF,BF35,BF3509,6.1,Cauliflower,absolute,8/17/2014,10/29/2014,11/1/2014,,3
BF,BF35,BF3510,15,Cauliflower,absolute,8/23/2014,11/7/2014,11/8/2014,,1
BF,BF35,BF3511,3,Cauliflower,absolute,8/28/2014,11/15/2014,11/16/2014,,1
BF,BF35,BF3506,9,Broccoli,heritage,8/16/2014,12/1/2014,11/20/2014,11,
BF,BF35,BF3505,6,Broccoli,heritage,8/17/2014,12/1/2014,11/21/2014,10,
BF,BF35,BF3503,7.1,Broccoli,avenger,8/29/2014,11/27/2014,11/24/2014,3,
BF,BF35,BF3507,4.1,Broccoli,heritage,8/22/2014,12/10/2014,11/28/2014,12,
BF,BF35,BF3504,6.1,Broccoli,heritage,9/4/2014,12/7/2014,12/14/2014,,7
BF,BF05,BF0504,15.1,Romaine,sparx,2/24/2014,5/14/2014,5/11/2014,3,
BF,BF05,BF0504,12.1,Romaine,grn forest,2/24/2014,5/15/2014,5/11/2014,4,
BF,BF05,BF0505,14.1,Romaine,grn forest,3/7/2014,6/2/2014,5/26/2014,7,
BF,BF05,BF0505,8.1,Romaine,grn thunder,3/7/2014,6/2/2014,5/26/2014,7,
BF,BF05,BF0505,13,Romaine,grn forest,3/16/2014,6/1/2014,6/2/2014,,1
BF,BF05,BF0505,15,Romaine,sparx,3/7/2014,5/28/2014,6/5/2014,,8
BF,BF05,BF0505,11.1,Romaine,sparx,3/16/2014,6/6/2014,6/12/2014,,6
BF,BF05,BF0506,12.1,Romaine,grn forest,3/29/2014,6/13/2014,6/12/2014,1,
BF,BF05,BF0506,11,Romaine,grn thunder,3/29/2014,6/14/2014,6/13/2014,1,
BF,BF05,BF0506,9,Romaine,sparx,3/29/2014,6/12/2014,6/22/2014,,10
BF,BF05,BF0506,11,Romaine,grn forest,4/4/2014,6/18/2014,6/24/2014,,6
BF,BF05,BF0506,11,Romaine,sparx,4/4/2014,6/18/2014,6/27/2014,,9
BF,BF05,BF0501,5.1,Romaine,grn star,4/29/2014,7/3/2014,7/17/2014,,14
BF,BF05,BF0504,6.1,Broccoli,heritage,8/13/2014,11/2/2014,11/18/2014,,16
BF,BF05,BF0505,13,Broccoli,heritage,8/17/2014,11/2/2014,11/23/2014,,21
BF,BF05,BF0501,8,Broccoli,avenger,8/30/2014,11/28/2014,11/27/2014,1,
BF,BF05,BF0506,13.1,Broccoli,heritage,8/22/2014,11/16/2014,11/30/2014,,14
BF,BF05,BF0502,5,Broccoli,avenger,9/6/2014,12/4/2014,12/18/2014,,14
BF,BF05,BF0503,3.1,Broccoli,avenger,9/10/2014,12/12/2014,12/25/2014,,13
BF,BF58,BF5806,14.1,Broccoli,avenger,4/18/2014,7/6/2014,7/6/2014,,
BF,BF58,BF5805,3.1,Broccoli,avenger,4/25/2014,7/12/2014,7/13/2014,,1
BF,BF58,BF5804,14,Broccoli,avenger,5/4/2014,7/23/2014,7/22/2014,1,
BF,BF58,BF5801,6.1,Lettuce,journey,5/23/2014,7/24/2014,8/2/2014,,9
BF,BF58,BF5802,4,Lettuce,journey,5/31/2014,8/2/2014,8/9/2014,,7
BF,BF58,BF5803,4.1,Lettuce,9238,6/20/2014,8/22/2014,9/3/2014,,12
BF,BF34,BF3410,9.1,Cauliflower,symphony,1/20/2014,4/25/2014,5/1/2014,,6
BF,BF32,BF3207,11,Lettuce,cannry row,2/5/2014,4/27/2014,5/7/2014,,10
BF,BF32,BF3208,4.1,Lettuce,cannry row,2/16/2014,5/2/2014,5/17/2014,,15
BF,BF34,BF3409,7,Cauliflower,symphony,2/10/2014,5/7/2014,5/21/2014,,14
BF,BF32,BF3203,9,Lettuce,reliant,2/16/2014,5/21/2014,5/24/2014,,3
BF,BF32,BF3209,9.1,Lettuce,vandenberg,2/27/2014,5/9/2014,5/24/2014,,15
BF,BF34,BF3408,14.1,Cauliflower,symphony,2/22/2014,5/18/2014,5/30/2014,,12
BF,BF34,BF3407,8.1,Cauliflower,symphony,3/5/2014,5/24/2014,5/30/2014,,6
BF,BF32,BF3204,6.1,Lettuce,reliant,2/27/2014,5/30/2014,6/2/2014,,3
BF,BF32,BF3210,7.1,Broccoli,heritage,2/28/2014,5/28/2014,6/3/2014,,6
BF,BF34,BF3403,11.1,Cauliflower,symphony,3/12/2014,6/1/2014,6/4/2014,,3
BF,BF34,BF3404,6,Cauliflower,symphony,3/12/2014,6/2/2014,6/4/2014,,2
BF,BF32,BF3205,9.1,Lettuce,journey,3/8/2014,5/28/2014,6/8/2014,,11
BF,BF34,BF3402,10,Lettuce,sniper,3/15/2014,6/8/2014,6/10/2014,,2
BF,BF34,BF3401,13.1,Lettuce,sniper,3/24/2014,6/12/2014,6/17/2014,,5
BF,BF34,BF3404,15.1,Cauliflower,symphony,3/31/2014,6/16/2014,6/19/2014,,3
BF,BF34,BF3403,8.1,Cauliflower,symphony,3/31/2014,6/20/2014,6/19/2014,1,
BF,BF32,BF3211,12.1,Broccoli,heritage,3/9/2014,6/6/2014,6/20/2014,,14
BF,BF34,BF3405,14.1,Cauliflower,absolute,4/10/2014,6/25/2014,6/26/2014,,1
BF,BF32,BF3212,5,Broccoli,heritage,3/23/2014,6/18/2014,6/30/2014,,12
BF,BF32,BF3213E,11.1,Broccoli,grn magic,4/9/2014,6/29/2014,7/1/2014,,2
BF,BF32,BF3214E,14,Broccoli,grn magic,4/9/2014,7/4/2014,7/1/2014,3,
BF,BF32,BF3213W,8,Broccoli,imperial,3/31/2014,6/18/2014,7/2/2014,,14
BF,BF32,BF3214W,8,Broccoli,imperial,3/31/2014,7/4/2014,7/2/2014,2,
BF,BF34,BF3406,9.1,Cauliflower,absolute,4/20/2014,7/3/2014,7/4/2014,,1
BF,BF34,BF3410,11,Lettuce,journey,7/5/2014,9/7/2014,9/10/2014,,3
BF,BF34,BF3410,3.1,Lettuce,regency,7/5/2014,9/12/2014,9/16/2014,,4
BF,BF34,BF3409,3.1,Lettuce,journey,7/12/2014,9/17/2014,9/17/2014,,
BF,BF32,BF3203,13,Cauliflower,absolute,7/9/2014,9/14/2014,9/18/2014,,4
BF,BF34,BF3408,5,Lettuce,journey,7/17/2014,9/24/2014,9/22/2014,2,
BF,BF32,BF3203,4,Cauliflower,absolute,7/14/2014,9/19/2014,9/23/2014,,4
BF,BF32,BF3210,9,Lettuce,journey,7/18/2014,9/20/2014,9/23/2014,,3
BF,BF34,BF3407,5,Lettuce,journey,7/24/2014,10/1/2014,9/29/2014,2,
BF,BF32,BF3205,14.1,Cauliflower,absolute,7/21/2014,9/29/2014,9/30/2014,,1
BF,BF34,BF3403,5.1,Lettuce,journey,7/28/2014,10/4/2014,10/3/2014,1,
BF,BF32,BF3206,10,Broccoli,avenger,7/9/2014,10/12/2014,10/4/2014,8,
BF,BF34,BF3407,4,Lettuce,sniper,7/24/2014,10/2/2014,10/5/2014,,3
BF,BF32,BF3212,15,Lettuce,journey,7/30/2014,10/9/2014,10/5/2014,4,
BF,BF32,BF3204,5.1,Cauliflower,absolute,7/27/2014,10/8/2014,10/6/2014,2,
BF,BF32,BF3211,9,Lettuce,regency,7/25/2014,9/29/2014,10/6/2014,,7
BF,BF32,BF3207,5,Broccoli,avenger,7/16/2014,10/19/2014,10/11/2014,8,
BF,BF32,BF3208,10,Broccoli,heritage,7/20/2014,10/31/2014,10/12/2014,19,
BF,BF34,BF3404,4,Lettuce,regency,8/2/2014,10/12/2014,10/15/2014,,3
BF,BF34,BF3402,9,Cauliflower,absolute,8/2/2014,10/18/2014,10/15/2014,3,
BF,BF32,BF3212,13,Lettuce,victory,7/30/2014,10/10/2014,10/16/2014,,6
BF,BF32,BF3213E,6,Lettuce,telluride,8/4/2014,10/16/2014,10/17/2014,,1
BF,BF32,BF3214E,9.1,Lettuce,telluride,8/4/2014,10/16/2014,10/17/2014,,1
BF,BF32,BF3213E,12.1,Lettuce,regency,8/4/2014,10/18/2014,10/17/2014,1,
BF,BF32,BF3214E,12,Lettuce,regency,8/4/2014,10/18/2014,10/17/2014,1,
BF,BF32,BF3209,10.1,Broccoli,heritage,7/26/2014,11/8/2014,10/18/2014,21,
BF,BF32,BF3214W,15.1,Lettuce,journey,8/8/2014,10/16/2014,10/18/2014,,2
BF,BF34,BF3401,13,Cauliflower,absolute,8/7/2014,10/24/2014,10/20/2014,4,
BF,BF34,BF3413,13,Broccoli,heritage,7/30/2014,11/10/2014,10/22/2014,19,
BF,BF32,BF3214W,6,Lettuce,quest,8/8/2014,10/17/2014,10/23/2014,,6
BF,BF32,BF3213W,13.1,Lettuce,quest,8/8/2014,10/20/2014,10/23/2014,,3
BF,BF34,BF3405,13.1,Lettuce,regency,8/10/2014,10/20/2014,10/23/2014,,3
BF,BF34,BF3405,15.1,Lettuce,quest,8/10/2014,10/22/2014,10/25/2014,,3
BF,BF34,BF3413,9,Broccoli,avenger,7/30/2014,11/15/2014,10/27/2014,19,
BF,BF34,BF3406,15.1,Lettuce,regency,8/14/2014,10/22/2014,10/28/2014,,6
BF,BF34,BF3406,13.1,Lettuce,quest,8/14/2014,10/24/2014,10/30/2014,,6
BF,BF34,BF3412,11,Broccoli,heritage,8/7/2014,11/16/2014,11/8/2014,8,
BF,BF34,BF3411,8.1,Broccoli,heritage,8/13/2014,11/26/2014,11/17/2014,9,
BF,BF27,BF2708,12.1,Broccoli,heritage,1/7/2014,4/19/2014,4/17/2014,2,
BF,BF07,BF0704,9,Romaine,hrt delight,2/1/2014,4/20/2014,4/18/2014,2,
BF,BF72,BF7203,7.1,Broccoli,heritage,1/10/2014,4/21/2014,4/19/2014,2,
BF,BF25,BF2501,11.1,Romaine,grn towers,1/11/2014,3/29/2014,4/19/2014,,21
BF,BF25,BF2501,11.1,Romaine,rio bravo,1/11/2014,3/30/2014,4/19/2014,,20
BF,BF25,BF2501,12,Romaine,coastal star,1/11/2014,4/2/2014,4/19/2014,,17
BF,BF10,BF1019,10.1,Lettuce,sure shot,1/10/2014,4/25/2014,4/19/2014,6,
BF,BF07,BF0704,13.1,Romaine,hrt break,2/1/2014,4/17/2014,4/20/2014,,3
BF,BF72,BF7204,4.1,Lettuce,sure shot,1/14/2014,4/16/2014,4/22/2014,,6
BF,BF27,BF2707,11.1,Broccoli,heritage,1/16/2014,4/24/2014,4/22/2014,2,
BF,BF72,BF7202,11,Broccoli,heritage,1/17/2014,4/23/2014,4/23/2014,,
BF,BF07,BF0704,15,Romaine,hrt break,2/6/2014,4/19/2014,4/23/2014,,4
BF,BF25,BF2502,15,Romaine,grn towers,1/19/2014,4/3/2014,4/24/2014,,21
BF,BF25,BF2502,3,Romaine,rio bravo,1/19/2014,4/5/2014,4/24/2014,,19
BF,BF25,BF2502,4.1,Romaine,coastal star,1/19/2014,4/7/2014,4/24/2014,,17
BF,BF11,BF1107,13.1,Broccoli,avenger,1/10/2014,4/23/2014,4/24/2014,,1
BF,BF07,BF0704,12.1,Romaine,hrt delight,2/9/2014,4/23/2014,4/24/2014,,1
BF,BF01,BF0106,15,Lettuce,sure shot,1/19/2014,5/5/2014,4/25/2014,10,
BF,BF25,BF2505,5,Romaine,coastal star,2/10/2014,4/17/2014,4/26/2014,,9
BF,BF25,BF2505,7.1,Romaine,grn thunder,2/10/2014,4/20/2014,4/26/2014,,6
BF,BF25,BF2505,12.1,Romaine,rio bravo,2/10/2014,4/21/2014,4/26/2014,,5
BF,BF11,BF1108,5.1,Broccoli,avenger,1/18/2014,4/24/2014,4/29/2014,,5
BF,BF07,BF0705,10.1,Romaine,hrt break,2/14/2014,4/28/2014,4/30/2014,,2
BF,BF27,BF2706,10.1,Broccoli,heritage,1/26/2014,4/25/2014,4/30/2014,,5
BF,BF25,BF2504,8.1,Broccoli,avenger,1/20/2014,4/30/2014,4/30/2014,,
BF,BF71,BF7101,6.1,Lettuce,vandenberg,2/1/2014,4/20/2014,5/1/2014,,11
BF,BF01,BF0118,5.1,Lettuce,vandenberg,2/1/2014,5/5/2014,5/1/2014,4,
BF,BF25,BF2503,7,Romaine,coastal star,1/28/2014,4/10/2014,5/1/2014,,21
BF,BF25,BF2503,6.1,Romaine,grn towers,1/28/2014,4/11/2014,5/1/2014,,20
BF,BF25,BF2503,4.1,Romaine,rio bravo,1/28/2014,4/12/2014,5/1/2014,,19
BF,BF25,BF2506,12,Romaine,coastal star,2/18/2014,4/25/2014,5/2/2014,,7
BF,BF25,BF2506,13,Romaine,grn towers,2/18/2014,4/27/2014,5/2/2014,,5
BF,BF25,BF2506,9,Romaine,rio bravo,2/18/2014,4/28/2014,5/2/2014,,4
BF,BF14,BF1403,13.1,Lettuce,vandenberg,1/31/2014,4/16/2014,5/2/2014,,16
BF,BF14,BF1402,5.1,Lettuce,vandenberg,2/6/2014,4/20/2014,5/4/2014,,14
BF,BF72,BF7204,12.1,Lettuce,sure shot,1/31/2014,4/17/2014,5/4/2014,,17
BF,BF10,BF1020,12,Lettuce,sure shot,1/31/2014,5/11/2014,5/4/2014,7,
BF,BF72,BF7201,8.1,Broccoli,marathon,2/2/2014,5/2/2014,5/5/2014,,3
BF,BF10,BF1017,8.1,Lettuce,cannry row,2/6/2014,5/11/2014,5/5/2014,6,
BF,BF25,BF2504,5,Broccoli,avenger,1/27/2014,5/1/2014,5/6/2014,,5
BF,BF71,BF7102,10.1,Lettuce,sure shot,2/9/2014,4/28/2014,5/8/2014,,10
BF,BF07,BF0705,9,Romaine,hrt break,2/25/2014,5/1/2014,5/8/2014,,7
BF,BF01,BF0119,7,Lettuce,vandenberg,2/11/2014,5/14/2014,5/9/2014,5,
BF,BF29,BF2913,9,Celery,mission-2510,1/13/2014,5/7/2014,5/9/2014,,2
BF,BF72,BF7201,15.1,Broccoli,heritage,2/2/2014,5/2/2014,5/10/2014,,8
BF,BF10,BF1016,8,Lettuce,vandenberg,2/13/2014,5/17/2014,5/11/2014,6,
BF,BF25,BF2507,12,Romaine,coastal star,2/28/2014,4/28/2014,5/11/2014,,13
BF,BF25,BF2507,6.1,Romaine,grn towers,2/28/2014,4/28/2014,5/11/2014,,13
BF,BF48,BF4804,8,Cauliflower,symphony,2/2/2014,5/8/2014,5/11/2014,,3
BF,BF10,BF1016,7.1,Lettuce,vandenberg,2/16/2014,5/16/2014,5/13/2014,3,
BF,BF14,BF1404,6.1,Lettuce,vandenberg,2/17/2014,5/2/2014,5/14/2014,,12
BF,BF29,BF2913,5.1,Celery,mission-2510,1/20/2014,5/14/2014,5/14/2014,,
BF,BF71,BF7103,3.1,Lettuce,vandenberg,2/18/2014,4/27/2014,5/14/2014,,17
BF,BF29,BF2906,7,Cauliflower,symphony,2/10/2014,5/9/2014,5/17/2014,,8
BF,BF29,BF2905,7.1,Cauliflower,symphony,2/10/2014,5/11/2014,5/17/2014,,6
BF,BF48,BF4803,4,Cauliflower,symphony,2/11/2014,5/11/2014,5/18/2014,,7
BF,BF01,BF0117,15.1,Lettuce,vandenberg,2/23/2014,5/22/2014,5/18/2014,4,
BF,BF14,BF1401,3.1,Broccoli,heritage,2/13/2014,5/10/2014,5/19/2014,,9
BF,BF10,BF1014,8.1,Lettuce,vandenberg,2/24/2014,5/25/2014,5/19/2014,6,
BF,BF14,BF1406,7,Lettuce,vandenberg,3/7/2014,5/16/2014,5/19/2014,,3
BF,BF51,BF5103,15,Broccoli,heritage,2/14/2014,5/11/2014,5/20/2014,,9
BF,BF10,BF1014,15.1,Lettuce,cannry row,2/24/2014,5/26/2014,5/20/2014,6,
BF,BF07,BF0706,4.1,Romaine,grn forest,3/7/2014,6/8/2014,5/22/2014,17,
BF,BF01,BF0116,15,Lettuce,sure shot,3/2/2014,5/28/2014,5/22/2014,6,
BF,BF07,BF0706,6,Romaine,grn thunder,3/7/2014,6/4/2014,5/22/2014,13,
BF,BF14,BF1405,5.1,Lettuce,vandenberg,2/28/2014,5/7/2014,5/23/2014,,16
BF,BF71,BF7105,5,Lettuce,vandenberg,3/13/2014,5/19/2014,5/23/2014,,4
BF,BF14,BF1405,4,Lettuce,sure shot,2/28/2014,5/9/2014,5/23/2014,,14
BF,BF16,BF1603,12,Cauliflower,paciencia,2/18/2014,5/25/2014,5/24/2014,1,
BF,BF29,BF2903,14,Cauliflower,symphony,3/2/2014,5/23/2014,5/25/2014,,2
BF,BF25,BF2508,14.1,Broccoli,avenger,2/1/2014,5/4/2014,5/25/2014,,21
BF,BF15,BF1523,5,Cauliflower,symphony,3/3/2014,5/26/2014,5/26/2014,,
BF,BF07,BF0701,12.1,Romaine,stryker,3/5/2014,5/7/2014,5/26/2014,,19
BF,BF14,BF1407,3.1,Lettuce,vandenberg,3/16/2014,5/22/2014,5/26/2014,,4
BF,BF11,BF1103,13,Broccoli,avenger,2/2/2014,5/7/2014,5/26/2014,,19
BF,BF14,BF1401,12,Broccoli,heritage,2/23/2014,5/17/2014,5/26/2014,,9
BF,BF07,BF0701,15.1,Romaine,hrt break,3/5/2014,5/8/2014,5/27/2014,,19
BF,BF17,BF1703,3,Broccoli,heritage,2/24/2014,5/18/2014,5/27/2014,,9
BF,BF07,BF0706,6,Romaine,stryker,3/7/2014,6/7/2014,5/27/2014,11,
BF,BF07,BF0706,9.1,Romaine,grn forest,3/15/2014,6/9/2014,5/28/2014,12,
BF,BF74,BF7406,8.1,Cauliflower,symphony,3/6/2014,6/1/2014,5/28/2014,4,
BF,BF07,BF0706,11.1,Romaine,grn thunder,3/15/2014,6/11/2014,5/28/2014,14,
BF,BF11,BF1102,5.1,Broccoli,avenger,2/6/2014,5/8/2014,5/29/2014,,21
BF,BF29,BF2904,5,Cauliflower,symphony,2/25/2014,5/18/2014,5/29/2014,,11
BF,BF29,BF2912,7,Celery,mission-2510,2/1/2014,5/25/2014,5/30/2014,,5
BF,BF51,BF5106,6,Broccoli,avenger,2/7/2014,5/8/2014,5/30/2014,,22
BF,BF71,BF7105,10,Lettuce,sure shot,3/13/2014,5/19/2014,5/30/2014,,11
BF,BF10,BF1015,11,Lettuce,quest,3/5/2014,6/1/2014,5/31/2014,1,
BF,BF29,BF2902,6,Cauliflower,symphony,3/10/2014,5/28/2014,5/31/2014,,3
BF,BF15,BF1522,12,Cauliflower,symphony,3/10/2014,6/4/2014,5/31/2014,4,
BF,BF71,BF7107,6,Lettuce,vandenberg,3/23/2014,5/24/2014,6/1/2014,,8
BF,BF14,BF1406,14.1,Lettuce,cannry row,3/7/2014,5/12/2014,6/1/2014,,20
BF,BF16,BF1604,9.1,Cauliflower,paciencia,2/28/2014,5/31/2014,6/2/2014,,2
BF,BF74,BF7405,9.1,Cauliflower,symphony,3/13/2014,6/4/2014,6/2/2014,2,
BF,BF07,BF0701,9,Romaine,stryker,3/15/2014,5/9/2014,6/2/2014,,24
BF,BF07,BF0706,10,Romaine,stryker,3/15/2014,6/9/2014,6/2/2014,7,
BF,BF07,BF0701,8,Romaine,grn thunder,3/22/2014,5/17/2014,6/3/2014,,17
BF,BF01,BF0115,5,Lettuce,quest,3/12/2014,6/4/2014,6/4/2014,,
BF,BF29,BF2912,9,Celery,mission-2510,2/10/2014,5/30/2014,6/6/2014,,7
BF,BF15,BF1506,13.1,Lettuce,cannry row,3/14/2014,5/18/2014,6/6/2014,,19
BF,BF15,BF1506,8.1,Lettuce,reliant,3/14/2014,5/18/2014,6/6/2014,,19
BF,BF11,BF1101,11.1,Broccoli,avenger,2/16/2014,5/16/2014,6/6/2014,,21
BF,BF15,BF1524,14.1,Lettuce,quest,3/15/2014,6/7/2014,6/6/2014,1,
BF,BF14,BF1407,3.1,Lettuce,reliant,3/16/2014,5/24/2014,6/8/2014,,15
BF,BF73,BF7308,13,Lettuce,journey,3/13/2014,6/11/2014,6/8/2014,3,
BF,BF07,BF0701,7,Romaine,hrt break,3/22/2014,5/15/2014,6/9/2014,,25
BF,BF01,BF0114,10,Broccoli,marathon,3/13/2014,5/30/2014,6/9/2014,,10
BF,BF10,BF1013,14.1,Lettuce,journey,3/14/2014,6/9/2014,6/9/2014,,
BF,BF15,BF1521,15.1,Cauliflower,symphony,3/23/2014,6/12/2014,6/10/2014,2,
BF,BF25,BF2512,10.1,Romaine,grn forest,3/31/2014,5/22/2014,6/11/2014,,20
BF,BF29,BF2901,9.1,Cauliflower,symphony,3/24/2014,6/7/2014,6/11/2014,,4
BF,BF25,BF2512,10,Romaine,grn thunder,3/31/2014,5/23/2014,6/11/2014,,19
BF,BF07,BF0702,6,Romaine,grn thunder,3/31/2014,5/28/2014,6/11/2014,,14
BF,BF15,BF1520,3.1,Lettuce,denali,3/15/2014,6/12/2014,6/12/2014,,
BF,BF29,BF2911,15,Celery,mission-2510,2/18/2014,6/13/2014,6/12/2014,1,
BF,BF17,BF1702,4.1,Broccoli,heritage,3/3/2014,5/25/2014,6/13/2014,,19
BF,BF74,BF7404,15.1,Cauliflower,symphony,3/27/2014,6/13/2014,6/13/2014,,
BF,BF71,BF7106,5.1,Lettuce,sure shot,3/30/2014,5/31/2014,6/13/2014,,13
BF,BF73,BF7307,3,Lettuce,quest,3/23/2014,6/13/2014,6/13/2014,,
BF,BF15,BF1516,3.1,Lettuce,cannry row,3/26/2014,5/28/2014,6/15/2014,,18
BF,BF07,BF0702,13.1,Romaine,stryker,3/31/2014,5/25/2014,6/16/2014,,22
BF,BF20,BF2007S,14.1,Cauliflower,absolute,3/30/2014,6/19/2014,6/16/2014,3,
BF,BF16,BF1604,12,Cauliflower,paciencia,3/31/2014,6/27/2014,6/17/2014,10,
BF,BF01,BF0113,9.1,Broccoli,marathon,3/24/2014,6/9/2014,6/18/2014,,9
BF,BF03,BF0301,6,Lettuce,quest,3/30/2014,6/21/2014,6/19/2014,2,
BF,BF01,BF0114,11.1,Broccoli,heritage,3/13/2014,6/1/2014,6/19/2014,,18
BF,BF29,BF2911,15.1,Celery,mission-2510,2/28/2014,6/16/2014,6/19/2014,,3
BF,BF15,BF1517,11.1,Lettuce,cannry row,3/31/2014,6/1/2014,6/19/2014,,18
BF,BF15,BF1525,8.1,Lettuce,journey,4/4/2014,6/18/2014,6/20/2014,,2
BF,BF74,BF7403,15,Cauliflower,symphony,4/5/2014,6/20/2014,6/20/2014,,
BF,BF03,BF0302,4,Lettuce,journey,4/6/2014,6/25/2014,6/21/2014,4,
BF,BF10,BF1012,5.1,Lettuce,journey,3/30/2014,6/16/2014,6/22/2014,,6
BF,BF15,BF1504,14,Lettuce,sniper,4/2/2014,6/19/2014,6/22/2014,,3
BF,BF10,BF1001,10.1,Cauliflower,absolute,4/9/2014,6/25/2014,6/22/2014,3,
BF,BF73,BF7306,9,Lettuce,journey,3/31/2014,6/12/2014,6/23/2014,,11
BF,BF14,BF1408,13.1,Lettuce,vandenberg,4/3/2014,6/7/2014,6/23/2014,,16
BF,BF73,BF7305,4,Lettuce,journey,4/9/2014,6/19/2014,6/23/2014,,4
BF,BF07,BF0703,8.1,Romaine,grn forest,4/9/2014,6/19/2014,6/24/2014,,5
BF,BF15,BF1525,6,Lettuce,quest,4/4/2014,6/19/2014,6/25/2014,,6
BF,BF15,BF1518,5,Broccoli,heritage,3/22/2014,6/15/2014,6/26/2014,,11
BF,BF01,BF0112,7.1,Broccoli,heritage,4/3/2014,6/21/2014,6/26/2014,,5
BF,BF07,BF0703,5.1,Romaine,stryker,4/9/2014,6/19/2014,6/26/2014,,7
BF,BF03,BF0302,13,Lettuce,quest,4/6/2014,6/25/2014,6/26/2014,,1
BF,BF27,BF2701,12,Lettuce,quest,4/7/2014,6/22/2014,6/27/2014,,5
BF,BF07,BF0702,15,Lettuce,vandenberg,4/10/2014,6/4/2014,6/28/2014,,24
BF,BF07,BF0703,8,Romaine,grn thunder,4/9/2014,6/20/2014,6/28/2014,,8
BF,BF16,BF1605,5,Cauliflower,absolute,4/18/2014,7/4/2014,6/30/2014,4,
BF,BF15,BF1502,12,Lettuce,journey,4/18/2014,6/28/2014,7/1/2014,,3
BF,BF20,BF2007N,11.1,Cauliflower,absolute,4/19/2014,6/30/2014,7/1/2014,,1
BF,BF74,BF7402,10,Cauliflower,symphony,4/19/2014,7/2/2014,7/1/2014,1,
BF,BF15,BF1519,7.1,Broccoli,heritage,3/29/2014,6/22/2014,7/1/2014,,9
BF,BF29,BF2910,10,Celery,mission-2510,3/8/2014,6/23/2014,7/1/2014,,8
BF,BF10,BF1002,13.1,Cauliflower,absolute,4/21/2014,7/3/2014,7/3/2014,,
BF,BF01,BF0105,6.1,Romaine,grn forest,4/20/2014,6/26/2014,7/3/2014,,7
BF,BF15,BF1505,15,Lettuce,cannry row,4/17/2014,6/11/2014,7/4/2014,,23
BF,BF73,BF7304,10.1,Lettuce,telluride,4/20/2014,7/3/2014,7/4/2014,,1
BF,BF20,BF2006,11.1,Cauliflower,absolute,4/23/2014,7/6/2014,7/5/2014,1,
BF,BF07,BF0703,12.1,Romaine,grn forest,4/22/2014,6/29/2014,7/5/2014,,6
BF,BF01,BF0111,14,Broccoli,heritage,4/16/2014,6/29/2014,7/5/2014,,6
BF,BF15,BF1503,7.1,Lettuce,quest,4/18/2014,6/26/2014,7/5/2014,,9
BF,BF01,BF0111,7.1,Broccoli,marathon,4/16/2014,6/28/2014,7/6/2014,,8
BF,BF01,BF0105,3,Romaine,sparx,4/20/2014,6/21/2014,7/6/2014,,15
BF,BF15,BF1527,14,Lettuce,9238,4/19/2014,6/28/2014,7/6/2014,,8
BF,BF01,BF0105,4.1,Romaine,grn forest,4/23/2014,6/27/2014,7/6/2014,,9
BF,BF01,BF0104,11.1,Romaine,grn forest,4/23/2014,7/3/2014,7/6/2014,,3
BF,BF74,BF7401,14.1,Cauliflower,symphony,4/25/2014,7/5/2014,7/7/2014,,2
BF,BF01,BF0105,5.1,Romaine,grn thunder,4/20/2014,6/26/2014,7/7/2014,,11
BF,BF03,BF0305N,5,Broccoli,heritage,4/18/2014,7/4/2014,7/7/2014,,3
BF,BF27,BF2702,12.1,Lettuce,quest,4/20/2014,6/25/2014,7/7/2014,,12
BF,BF07,BF0703,11.1,Romaine,stryker,4/22/2014,6/28/2014,7/7/2014,,9
BF,BF73,BF7303,12.1,Lettuce,telluride,4/24/2014,7/3/2014,7/8/2014,,5
BF,BF15,BF1528,3,Lettuce,sniper,4/22/2014,6/29/2014,7/8/2014,,9
BF,BF01,BF0104,13,Romaine,sparx,4/23/2014,6/28/2014,7/8/2014,,10
BF,BF16,BF1606,5,Cauliflower,absolute,4/27/2014,7/6/2014,7/9/2014,,3
BF,BF07,BF0703,7,Romaine,grn thunder,4/22/2014,6/30/2014,7/9/2014,,9
BF,BF15,BF1528,8,Lettuce,quest,4/22/2014,6/29/2014,7/9/2014,,10
BF,BF03,BF0303,11.1,Lettuce,sniper,4/23/2014,7/7/2014,7/9/2014,,2
BF,BF47,BF4705,11,Romaine,grn forest,4/27/2014,7/6/2014,7/10/2014,,4
BF,BF03,BF0303,4.1,Lettuce,quest,4/23/2014,7/4/2014,7/10/2014,,6
BF,BF10,BF1011,7,Lettuce,quest,4/24/2014,7/9/2014,7/11/2014,,2
BF,BF04,BF0401,7,Celery,sonora,3/23/2014,6/25/2014,7/12/2014,,17
BF,BF29,BF2910,10,Celery,conquistdr,3/22/2014,7/2/2014,7/12/2014,,10
BF,BF47,BF4705,4,Romaine,stryker,4/27/2014,7/5/2014,7/12/2014,,7
BF,BF47,BF4704,9.1,Romaine,grn forest,5/1/2014,7/14/2014,7/14/2014,,
BF,BF20,BF2005,15,Cauliflower,absolute,5/2/2014,7/12/2014,7/14/2014,,2
BF,BF47,BF4705,10.1,Romaine,grn thunder,4/27/2014,7/7/2014,7/14/2014,,7
BF,BF47,BF4704,11.1,Romaine,stryker,5/1/2014,7/12/2014,7/14/2014,,2
BF,BF01,BF0104,8.1,Romaine,sparx,4/29/2014,6/29/2014,7/14/2014,,15
BF,BF15,BF1501,15,Lettuce,victory,4/28/2014,7/6/2014,7/14/2014,,8
BF,BF03,BF0304,8.1,Lettuce,journey,5/1/2014,7/11/2014,7/15/2014,,4
BF,BF08,BF0804E,8.1,Romaine,grn forest,5/2/2014,7/10/2014,7/15/2014,,5
BF,BF27,BF2703,15,Lettuce,quest,4/28/2014,7/4/2014,7/15/2014,,11
BF,BF08,BF0804E,5,Romaine,stryker,5/2/2014,7/10/2014,7/15/2014,,5
BF,BF47,BF4704,7,Romaine,grn thunder,5/1/2014,7/13/2014,7/15/2014,,2
BF,BF04,BF0401,7.1,Celery,mission,4/4/2014,7/11/2014,7/15/2014,,4
BF,BF01,BF0104,11,Romaine,grn thunder,4/29/2014,7/2/2014,7/15/2014,,13
BF,BF15,BF1529,9,Lettuce,quest,4/29/2014,7/6/2014,7/16/2014,,10
BF,BF01,BF0110,5,Broccoli,heritage,4/27/2014,7/11/2014,7/16/2014,,5
BF,BF08,BF0804E,13.1,Romaine,grn thunder,5/2/2014,7/9/2014,7/16/2014,,7
BF,BF10,BF1003,3,Cauliflower,absolute,5/5/2014,7/13/2014,7/16/2014,,3
BF,BF04,BF0401,5.1,Celery,sonora,3/30/2014,7/2/2014,7/17/2014,,15
BF,BF16,BF1607,15,Cauliflower,absolute,5/7/2014,7/19/2014,7/18/2014,1,
BF,BF03,BF0304,3,Lettuce,quest,5/1/2014,7/13/2014,7/18/2014,,5
BF,BF01,BF0103,7,Romaine,sparx,5/7/2014,7/12/2014,7/19/2014,,7
BF,BF01,BF0103,15,Romaine,sun valley,5/7/2014,7/16/2014,7/19/2014,,3
BF,BF08,BF0804E,3,Romaine,grn forest,5/8/2014,7/18/2014,7/19/2014,,1
BF,BF27,BF2704,6,Lettuce,quest,5/3/2014,7/9/2014,7/19/2014,,10
BF,BF08,BF0804E,5.1,Romaine,stryker,5/8/2014,7/17/2014,7/19/2014,,2
BF,BF08,BF0804W,7.1,Romaine,stryker,5/8/2014,7/17/2014,7/19/2014,,2
BF,BF01,BF0103,13.1,Romaine,grn thunder,5/7/2014,7/12/2014,7/20/2014,,8
BF,BF15,BF1507,11.1,Lettuce,quest,5/4/2014,7/11/2014,7/20/2014,,9
BF,BF08,BF0804E,13,Romaine,grn thunder,5/8/2014,7/17/2014,7/20/2014,,3
BF,BF10,BF1011,3.1,Lettuce,denali,4/24/2014,7/9/2014,7/21/2014,,12
BF,BF47,BF4703,14,Romaine,grn forest,5/10/2014,7/19/2014,7/21/2014,,2
BF,BF25,BF2501,3,Cauliflower,absolute,5/11/2014,7/17/2014,7/21/2014,,4
BF,BF47,BF4703,4,Romaine,stryker,5/10/2014,7/19/2014,7/21/2014,,2
BF,BF10,BF1004,12.1,Cauliflower,absolute,5/12/2014,7/21/2014,7/22/2014,,1
BF,BF47,BF4703,13,Romaine,grn thunder,5/10/2014,7/16/2014,7/22/2014,,6
BF,BF73,BF7302,9,Lettuce,telluride,5/3/2014,7/12/2014,7/22/2014,,10
BF,BF03,BF0303N,6.1,Broccoli,heritage,5/2/2014,7/17/2014,7/23/2014,,6
BF,BF15,BF1508,15,Lettuce,victory,5/4/2014,7/11/2014,7/23/2014,,12
BF,BF15,BF1530,9.1,Lettuce,9238,5/5/2014,7/25/2014,7/25/2014,,
BF,BF08,BF0804W,15.1,Romaine,grn forest,5/15/2014,7/24/2014,7/25/2014,,1
BF,BF03,BF0315,10,Lettuce,quest,5/10/2014,7/23/2014,7/25/2014,,2
BF,BF08,BF0804W,6,Romaine,stryker,5/15/2014,7/24/2014,7/25/2014,,1
BF,BF03,BF0305,3.1,Broccoli,avenger,5/9/2014,7/26/2014,7/25/2014,1,
BF,BF04,BF0403,7.1,Celery,sonora,4/19/2014,7/18/2014,7/25/2014,,7
BF,BF01,BF0102,15.1,Romaine,sparx,5/16/2014,7/20/2014,7/26/2014,,6
BF,BF01,BF0103,8,Romaine,sun valley,5/16/2014,7/23/2014,7/26/2014,,3
BF,BF27,BF2705,8,Lettuce,quest,5/11/2014,7/16/2014,7/26/2014,,10
BF,BF08,BF0804W,4,Romaine,grn thunder,5/15/2014,7/23/2014,7/26/2014,,3
BF,BF47,BF4702,4,Romaine,grn forest,5/17/2014,7/21/2014,7/27/2014,,6
BF,BF15,BF1510,6,Lettuce,quest,5/12/2014,7/20/2014,7/27/2014,,7
BF,BF47,BF4702,3.1,Romaine,stryker,5/17/2014,7/21/2014,7/27/2014,,6
BF,BF01,BF0103,7,Romaine,grn thunder,5/16/2014,7/21/2014,7/27/2014,,6
BF,BF25,BF2502,6,Cauliflower,absolute,5/19/2014,7/31/2014,7/28/2014,3,
BF,BF25,BF2503,5,Cauliflower,absolute,5/19/2014,8/1/2014,7/28/2014,4,
BF,BF47,BF4702,14,Romaine,grn thunder,5/17/2014,7/26/2014,7/28/2014,,2
BF,BF15,BF1531,12,Lettuce,quest,5/14/2014,7/28/2014,7/28/2014,,
BF,BF73,BF7301,9,Lettuce,9238,5/11/2014,7/17/2014,7/30/2014,,13
BF,BF12,BF1201,10,Lettuce,sniper,5/12/2014,7/23/2014,7/30/2014,,7
BF,BF08,BF0805,4,Romaine,hrt break,5/22/2014,7/30/2014,7/30/2014,,
BF,BF10,BF1005,7,Cauliflower,absolute,5/22/2014,7/30/2014,7/30/2014,,
BF,BF08,BF0805,3,Romaine,stryker,5/22/2014,7/30/2014,7/31/2014,,1
BF,BF03,BF0316,8.1,Broccoli,avenger,5/16/2014,8/1/2014,7/31/2014,1,
BF,BF03,BF0314,6,Lettuce,quest,5/18/2014,8/1/2014,8/1/2014,,
BF,BF01,BF0102,4,Romaine,sparx,5/23/2014,7/27/2014,8/1/2014,,5
BF,BF01,BF0102,11.1,Romaine,sun valley,5/23/2014,7/31/2014,8/1/2014,,1
BF,BF08,BF0805,15,Romaine,grn thunder,5/22/2014,7/31/2014,8/1/2014,,1
BF,BF47,BF4701,4,Romaine,hrt break,5/25/2014,8/2/2014,8/1/2014,1,
BF,BF01,BF0102,4.1,Romaine,grn thunder,5/23/2014,7/27/2014,8/2/2014,,6
BF,BF25,BF2505,9,Cauliflower,absolute,5/26/2014,8/1/2014,8/3/2014,,2
BF,BF25,BF2503,7.1,Cauliflower,absolute,5/26/2014,8/6/2014,8/3/2014,3,
BF,BF47,BF4701,15,Romaine,stryker,5/25/2014,8/3/2014,8/3/2014,,
BF,BF04,BF0401,12,Celery,sonora,4/28/2014,7/23/2014,8/3/2014,,11
BF,BF15,BF1511,11.1,Lettuce,quest,5/21/2014,7/27/2014,8/3/2014,,7
BF,BF47,BF4701,4.1,Romaine,grn thunder,5/25/2014,8/2/2014,8/4/2014,,2
BF,BF27,BF2706,3,Broccoli,avenger,5/21/2014,8/6/2014,8/5/2014,1,
BF,BF08,BF0806,6,Romaine,hrt break,5/30/2014,8/6/2014,8/6/2014,,
BF,BF10,BF1006,7.1,Cauliflower,absolute,5/30/2014,8/6/2014,8/6/2014,,
BF,BF15,BF1509,14.1,Lettuce,denali,5/12/2014,7/21/2014,8/6/2014,,16
BF,BF03,BF0310,11,Broccoli,avenger,5/23/2014,8/15/2014,8/6/2014,9,
BF,BF15,BF1533,10,Lettuce,journey,5/29/2014,7/30/2014,8/7/2014,,8
BF,BF03,BF0313,3,Lettuce,quest,5/25/2014,8/6/2014,8/7/2014,,1
BF,BF08,BF0806,11.1,Romaine,stryker,5/30/2014,8/6/2014,8/7/2014,,1
BF,BF12,BF1202,5.1,Lettuce,9238,5/21/2014,7/31/2014,8/7/2014,,7
BF,BF15,BF1532,4.1,Lettuce,victory,5/22/2014,7/27/2014,8/7/2014,,11
BF,BF08,BF0805,13.1,Romaine,grn thunder,5/30/2014,8/7/2014,8/8/2014,,1
BF,BF15,BF1531,13.1,Lettuce,denali,5/14/2014,7/31/2014,8/8/2014,,8
BF,BF27,BF2707,5,Broccoli,avenger,5/26/2014,8/8/2014,8/9/2014,,1
BF,BF20,BF2001,7,Romaine,sparx,6/1/2014,8/10/2014,8/9/2014,1,
BF,BF03,BF0310,5.1,Broccoli,heritage,5/23/2014,8/14/2014,8/9/2014,5,
BF,BF29,BF2909,6.1,Romaine,hrt break,6/2/2014,8/7/2014,8/9/2014,,2
BF,BF29,BF2909,12.1,Romaine,stryker,6/2/2014,8/7/2014,8/10/2014,,3
BF,BF12,BF1203,4.1,Lettuce,quest,5/29/2014,8/7/2014,8/10/2014,,3
BF,BF03,BF0313,11,Lettuce,9238,5/25/2014,8/6/2014,8/10/2014,,4
BF,BF20,BF2001,6,Romaine,grn thunder,6/1/2014,8/15/2014,8/11/2014,4,
BF,BF04,BF0403,8.1,Celery,sonora,5/4/2014,8/1/2014,8/11/2014,,10
BF,BF29,BF2909,8.1,Romaine,grn thunder,6/2/2014,8/8/2014,8/11/2014,,3
BF,BF03,BF0312,13.1,Lettuce,quest,6/1/2014,8/14/2014,8/12/2014,2,
BF,BF25,BF2506,4.1,Cauliflower,absolute,6/4/2014,8/13/2014,8/13/2014,,
BF,BF15,BF1512,6.1,Lettuce,9238,5/29/2014,8/9/2014,8/14/2014,,5
BF,BF15,BF1511,9.1,Lettuce,denali,5/21/2014,7/27/2014,8/14/2014,,18
BF,BF08,BF0806,4.1,Romaine,hrt break,6/7/2014,8/14/2014,8/14/2014,,
BF,BF08,BF0807,5.1,Romaine,stryker,6/7/2014,8/7/2014,8/14/2014,,7
BF,BF10,BF1007,9,Cauliflower,absolute,6/6/2014,8/14/2014,8/15/2014,,1
BF,BF20,BF2002,5,Romaine,sparx,6/8/2014,8/16/2014,8/15/2014,1,
BF,BF20,BF2002,15,Romaine,sun valley,6/8/2014,8/16/2014,8/15/2014,1,
BF,BF08,BF0806,4.1,Romaine,grn thunder,6/7/2014,8/13/2014,8/16/2014,,3
BF,BF03,BF0309,5.1,Broccoli,heritage,5/31/2014,8/17/2014,8/16/2014,1,
BF,BF48,BF4801,10.1,Lettuce,quest,6/6/2014,8/13/2014,8/16/2014,,3
BF,BF20,BF2002,14.1,Romaine,grn thunder,6/8/2014,8/17/2014,8/17/2014,,
BF,BF03,BF0311,6.1,Lettuce,quest,6/8/2014,8/22/2014,8/17/2014,5,
BF,BF29,BF2909,15.1,Romaine,hrt break,6/12/2014,8/13/2014,8/18/2014,,5
BF,BF12,BF1204,12,Lettuce,sniper,6/5/2014,8/15/2014,8/18/2014,,3
BF,BF29,BF2909,11.1,Romaine,stryker,6/12/2014,8/14/2014,8/18/2014,,4
BF,BF04,BF0402,9.1,Celery,sonora,5/14/2014,8/15/2014,8/19/2014,,4
BF,BF01,BF0109,4.1,Cauliflower,absolute,6/11/2014,8/20/2014,8/19/2014,1,
BF,BF29,BF2909,14.1,Romaine,grn thunder,6/12/2014,8/14/2014,8/20/2014,,6
BF,BF03,BF0312,5.1,Lettuce,victory,6/1/2014,8/13/2014,8/20/2014,,7
BF,BF03,BF0311,9,Lettuce,journey,6/8/2014,8/16/2014,8/20/2014,,4
BF,BF10,BF1008,12,Cauliflower,absolute,6/13/2014,8/18/2014,8/21/2014,,3
BF,BF20,BF2002,3.1,Romaine,grn forest,6/15/2014,8/23/2014,8/21/2014,2,
BF,BF20,BF2003,9,Romaine,sparx,6/15/2014,8/22/2014,8/21/2014,1,
BF,BF48,BF4802,13,Lettuce,quest,6/13/2014,8/21/2014,8/21/2014,,
BF,BF08,BF0807,7,Romaine,grn thunder,6/15/2014,8/24/2014,8/22/2014,2,
BF,BF20,BF2002,13.1,Romaine,grn thunder,6/15/2014,8/24/2014,8/22/2014,2,
BF,BF29,BF2908,10,Romaine,hrt break,6/18/2014,8/20/2014,8/23/2014,,3
BF,BF29,BF2908,9,Romaine,stryker,6/18/2014,8/20/2014,8/24/2014,,4
BF,BF12,BF1205,10.1,Lettuce,journey,6/12/2014,8/16/2014,8/24/2014,,8
BF,BF15,BF1513,6,Lettuce,victory,6/5/2014,8/11/2014,8/24/2014,,13
BF,BF27,BF2708,14.1,Broccoli,avenger,6/5/2014,8/16/2014,8/24/2014,,8
BF,BF04,BF0402,9.1,Celery,sonora,5/21/2014,8/21/2014,8/24/2014,,3
BF,BF03,BF0309,9,Broccoli,avenger,6/6/2014,8/22/2014,8/25/2014,,3
BF,BF29,BF2908,11,Romaine,hrt break,6/20/2014,8/21/2014,8/25/2014,,4
BF,BF15,BF1514,12.1,Lettuce,9238,6/12/2014,8/20/2014,8/25/2014,,5
BF,BF29,BF2908,7.1,Romaine,grn thunder,6/18/2014,8/20/2014,8/25/2014,,5
BF,BF29,BF2908,13.1,Romaine,stryker,6/20/2014,8/22/2014,8/25/2014,,3
BF,BF72,BF7207,11.1,Celery,sonora,5/23/2014,8/17/2014,8/26/2014,,9
BF,BF12,BF1206,15.1,Lettuce,quest,6/18/2014,8/25/2014,8/26/2014,,1
BF,BF01,BF0108,11,Cauliflower,absolute,6/19/2014,8/25/2014,8/26/2014,,1
BF,BF08,BF0807,15,Romaine,hrt break,6/22/2014,8/27/2014,8/27/2014,,
BF,BF29,BF2908,14,Romaine,grn thunder,6/20/2014,8/23/2014,8/27/2014,,4
BF,BF15,BF1515,7.1,Lettuce,quest,6/19/2014,8/28/2014,8/27/2014,1,
BF,BF25,BF2512,13.1,Cauliflower,absolute,6/20/2014,8/27/2014,8/27/2014,,
BF,BF20,BF2004,11.1,Romaine,grn forest,6/22/2014,8/28/2014,8/27/2014,1,
BF,BF20,BF2003,6,Romaine,grn forest,6/22/2014,8/31/2014,8/27/2014,4,
BF,BF08,BF0807,7.1,Romaine,stryker,6/22/2014,8/24/2014,8/27/2014,,3
BF,BF20,BF2004,13.1,Romaine,sparx,6/22/2014,8/27/2014,8/28/2014,,1
BF,BF20,BF2003,5,Romaine,grn thunder,6/22/2014,8/30/2014,8/29/2014,1,
BF,BF29,BF2907,3,Romaine,hrt break,6/25/2014,8/27/2014,8/30/2014,,3
BF,BF03,BF0308,9,Broccoli,heritage,6/13/2014,8/31/2014,8/30/2014,1,
BF,BF27,BF2709,14,Broccoli,avenger,6/12/2014,8/24/2014,8/30/2014,,6
BF,BF72,BF7204,3,Broccoli,avenger,6/12/2014,8/28/2014,8/30/2014,,2
BF,BF29,BF2907,6,Romaine,stryker,6/25/2014,8/29/2014,8/30/2014,,1
BF,BF04,BF0404,3.1,Celery,sonora,5/29/2014,9/5/2014,8/31/2014,5,
BF,BF29,BF2907,12.1,Romaine,hrt break,6/27/2014,8/29/2014,8/31/2014,,2
BF,BF29,BF2907,13,Romaine,grn thunder,6/25/2014,8/27/2014,9/1/2014,,5
BF,BF29,BF2907,5.1,Romaine,stryker,6/27/2014,8/30/2014,9/1/2014,,2
BF,BF01,BF0107,15.1,Cauliflower,absolute,6/25/2014,9/3/2014,9/1/2014,2,
BF,BF11,BF1104,5.1,Romaine,hrt break,6/28/2014,8/31/2014,9/1/2014,,1
BF,BF20,BF2004,8,Romaine,grn forest,6/28/2014,9/3/2014,9/2/2014,1,
BF,BF72,BF7207,12,Celery,sonora,5/31/2014,8/24/2014,9/2/2014,,9
BF,BF72,BF7206,6.1,Celery,sonora,5/31/2014,8/27/2014,9/2/2014,,6
BF,BF20,BF2004,15.1,Romaine,sparx,6/28/2014,9/5/2014,9/2/2014,3,
BF,BF29,BF2907,14.1,Romaine,grn thunder,6/27/2014,9/3/2014,9/3/2014,,
BF,BF25,BF2513,8.1,Cauliflower,absolute,6/27/2014,9/1/2014,9/3/2014,,2
BF,BF72,BF7204,5,Broccoli,avenger,6/16/2014,8/29/2014,9/3/2014,,5
BF,BF71,BF7101,13,Broccoli,avenger,6/16/2014,8/30/2014,9/3/2014,,4
BF,BF11,BF1104,8,Romaine,grn thunder,6/28/2014,8/31/2014,9/4/2014,,4
BF,BF20,BF2004,13,Romaine,grn thunder,6/28/2014,9/1/2014,9/4/2014,,3
BF,BF15,BF1515,11,Lettuce,denali,6/19/2014,8/24/2014,9/4/2014,,11
BF,BF01,BF0106,8,Cauliflower,absolute,6/30/2014,9/8/2014,9/6/2014,2,
BF,BF48,BF4803,6,Lettuce,denali,6/21/2014,8/29/2014,9/6/2014,,8
BF,BF04,BF0404,5,Celery,sonora,6/4/2014,9/14/2014,9/6/2014,8,
BF,BF04,BF0405,14.1,Celery,sonora,6/4/2014,9/14/2014,9/6/2014,8,
BF,BF03,BF0308,11,Broccoli,avenger,6/19/2014,9/3/2014,9/6/2014,,3
BF,BF12,BF1207,4,Lettuce,9238,6/25/2014,9/1/2014,9/7/2014,,6
BF,BF25,BF2509,7.1,Lettuce,sniper,6/27/2014,9/3/2014,9/7/2014,,4
BF,BF29,BF2906,13.1,Romaine,hrt break,7/2/2014,9/3/2014,9/7/2014,,4
BF,BF48,BF4804,15.1,Lettuce,9238,6/27/2014,9/5/2014,9/8/2014,,3
BF,BF72,BF7205,13.1,Celery,sonora,6/7/2014,9/3/2014,9/8/2014,,5
BF,BF72,BF7206,11.1,Celery,sonora,6/7/2014,9/4/2014,9/8/2014,,4
BF,BF29,BF2906,4,Romaine,stryker,7/2/2014,9/4/2014,9/10/2014,,6
BF,BF29,BF2903,12.1,Lettuce,9238,6/29/2014,9/10/2014,9/10/2014,,
BF,BF16,BF1601,7.1,Lettuce,denali,6/26/2014,9/6/2014,9/10/2014,,4
BF,BF15,BF1506,13,Broccoli,heritage,6/25/2014,9/6/2014,9/10/2014,,4
BF,BF29,BF2906,4.1,Romaine,hrt break,7/5/2014,9/7/2014,9/10/2014,,3
BF,BF29,BF2906,15.1,Romaine,grn thunder,7/2/2014,9/4/2014,9/10/2014,,6
BF,BF04,BF0405,6.1,Celery,sonora,6/11/2014,9/15/2014,9/11/2014,4,
BF,BF03,BF0307,3.1,Broccoli,heritage,6/27/2014,9/13/2014,9/12/2014,1,
BF,BF71,BF7102,6.1,Broccoli,avenger,6/26/2014,9/10/2014,9/12/2014,,2
BF,BF15,BF1523,11.1,Romaine,sparx,7/6/2014,9/8/2014,9/12/2014,,4
BF,BF29,BF2906,10.1,Romaine,stryker,7/5/2014,9/6/2014,9/13/2014,,7
BF,BF25,BF2507,8,Broccoli,heritage,6/28/2014,9/12/2014,9/13/2014,,1
BF,BF29,BF2903,15,Lettuce,denali,6/29/2014,9/12/2014,9/13/2014,,1
BF,BF72,BF7205,6,Celery,sonora,6/13/2014,9/6/2014,9/13/2014,,7
BF,BF29,BF2906,7.1,Romaine,grn thunder,7/5/2014,9/11/2014,9/13/2014,,2
BF,BF11,BF1104,12.1,Romaine,stryker,7/6/2014,9/6/2014,9/13/2014,,7
BF,BF15,BF1523,15,Romaine,grn forest,7/6/2014,9/10/2014,9/14/2014,,4
BF,BF11,BF1104,5.1,Romaine,grn thunder,7/6/2014,9/10/2014,9/14/2014,,4
BF,BF15,BF1523,13,Romaine,grn thunder,7/6/2014,9/13/2014,9/14/2014,,1
BF,BF29,BF2905,11.1,Romaine,hrt break,7/10/2014,9/12/2014,9/15/2014,,3
BF,BF71,BF7103,15.1,Broccoli,avenger,6/30/2014,9/14/2014,9/15/2014,,1
BF,BF15,BF1522,13.1,Romaine,sparx,7/11/2014,9/17/2014,9/17/2014,,
BF,BF29,BF2905,9,Romaine,hrt break,7/12/2014,9/17/2014,9/17/2014,,
BF,BF16,BF1602,14.1,Lettuce,denali,7/2/2014,9/18/2014,9/17/2014,1,
BF,BF29,BF2905,15.1,Romaine,stryker,7/10/2014,9/10/2014,9/17/2014,,7
BF,BF07,BF0704,5,Cauliflower,absolute,7/11/2014,9/17/2014,9/18/2014,,1
BF,BF04,BF0405,14.1,Celery,sonora,6/18/2014,9/21/2014,9/18/2014,3,
BF,BF29,BF2905,9.1,Romaine,grn thunder,7/10/2014,9/12/2014,9/18/2014,,6
BF,BF25,BF2510,10,Lettuce,denali,7/3/2014,9/8/2014,9/18/2014,,10
BF,BF51,BF5101,11.1,Lettuce,denali,7/3/2014,9/10/2014,9/18/2014,,8
BF,BF15,BF1522,15.1,Romaine,grn forest,7/11/2014,9/19/2014,9/19/2014,,
BF,BF29,BF2904,3.1,Romaine,hrt break,7/14/2014,9/19/2014,9/19/2014,,
BF,BF29,BF2905,5,Romaine,stryker,7/12/2014,9/15/2014,9/19/2014,,4
BF,BF11,BF1101,10.1,Romaine,stryker,7/12/2014,9/19/2014,9/19/2014,,
BF,BF72,BF7203,10,Celery,sonora,6/20/2014,9/18/2014,9/20/2014,,2
BF,BF29,BF2905,5.1,Romaine,grn thunder,7/12/2014,9/14/2014,9/20/2014,,6
BF,BF11,BF1101,4,Romaine,grn thunder,7/12/2014,9/24/2014,9/20/2014,4,
BF,BF29,BF2904,10.1,Romaine,stryker,7/13/2014,9/18/2014,9/20/2014,,2
BF,BF29,BF2902,10,Lettuce,denali,7/6/2014,9/17/2014,9/21/2014,,4
BF,BF29,BF2904,10.1,Romaine,stryker,7/14/2014,9/19/2014,9/21/2014,,2
BF,BF29,BF2904,4,Romaine,hrt break,7/17/2014,9/21/2014,9/22/2014,,1
BF,BF29,BF2904,4,Romaine,grn thunder,7/14/2014,9/17/2014,9/22/2014,,5
BF,BF07,BF0705,15.1,Cauliflower,absolute,7/16/2014,9/26/2014,9/23/2014,3,
BF,BF03,BF0307,14,Broccoli,avenger,7/2/2014,9/14/2014,9/24/2014,,10
BF,BF51,BF5106,3,Lettuce,journey,7/21/2014,9/27/2014,9/24/2014,3,
BF,BF51,BF5104,10.1,Lettuce,denali,7/9/2014,9/20/2014,9/24/2014,,4
BF,BF29,BF2904,5,Romaine,stryker,7/17/2014,9/22/2014,9/25/2014,,3
BF,BF15,BF1521,12.1,Romaine,sparx,7/19/2014,9/24/2014,9/25/2014,,1
BF,BF25,BF2511,12.1,Lettuce,denali,7/10/2014,9/19/2014,9/26/2014,,7
BF,BF29,BF2904,12,Romaine,grn thunder,7/17/2014,9/21/2014,9/26/2014,,5
BF,BF72,BF7203,9.1,Celery,sonora,6/26/2014,9/20/2014,9/26/2014,,6
BF,BF72,BF7202,6,Celery,sonora,6/26/2014,9/26/2014,9/26/2014,,
BF,BF17,BF1703,6,Celery,sonora,6/26/2014,9/27/2014,9/26/2014,1,
BF,BF03,BF0306,10,Broccoli,heritage,7/7/2014,9/24/2014,9/26/2014,,2
BF,BF15,BF1522,11.1,Romaine,sun valley,7/19/2014,9/27/2014,9/26/2014,1,
BF,BF16,BF1603,11,Lettuce,denali,7/11/2014,9/15/2014,9/27/2014,,12
BF,BF11,BF1101,6,Romaine,stryker,7/20/2014,10/1/2014,9/28/2014,3,
BF,BF11,BF1102,11,Romaine,stryker,7/20/2014,10/1/2014,9/28/2014,3,
BF,BF74,BF7406,11.1,Lettuce,telluride,7/19/2014,10/1/2014,9/28/2014,3,
BF,BF29,BF2901,9.1,Lettuce,denali,7/13/2014,10/2/2014,9/29/2014,3,
BF,BF01,BF0114,15.1,Romaine,hrt break,7/23/2014,9/20/2014,9/29/2014,,9
BF,BF11,BF1101,8.1,Romaine,grn thunder,7/20/2014,9/29/2014,9/29/2014,,
BF,BF71,BF7104,13.1,Broccoli,avenger,7/7/2014,9/20/2014,9/29/2014,,9
BF,BF17,BF1703,3.1,Celery,sonora,6/30/2014,9/29/2014,9/29/2014,,
BF,BF01,BF0114,11.1,Romaine,hrt break,7/24/2014,9/26/2014,9/30/2014,,4
BF,BF07,BF0701,9,Cauliflower,absolute,7/23/2014,10/2/2014,9/30/2014,2,
BF,BF72,BF7202,9,Celery,sonora,7/2/2014,10/3/2014,10/1/2014,2,
BF,BF72,BF7201,6,Celery,sonora,7/2/2014,10/8/2014,10/1/2014,7,
BF,BF01,BF0114,8,Romaine,stryker,7/23/2014,9/20/2014,10/1/2014,,11
BF,BF51,BF5103,3.1,Lettuce,denali,7/16/2014,10/3/2014,10/2/2014,1,
BF,BF15,BF1521,15.1,Romaine,sparx,7/25/2014,10/1/2014,10/2/2014,,1
BF,BF11,BF1102,4.1,Romaine,hrt break,7/26/2014,10/6/2014,10/2/2014,4,
BF,BF01,BF0114,6,Romaine,grn thunder,7/23/2014,9/20/2014,10/2/2014,,12
BF,BF01,BF0114,9.1,Romaine,stryker,7/24/2014,9/24/2014,10/2/2014,,8
BF,BF15,BF1521,7.1,Romaine,sun valley,7/25/2014,10/4/2014,10/3/2014,1,
BF,BF01,BF0114,5,Romaine,grn thunder,7/24/2014,9/25/2014,10/3/2014,,8
BF,BF01,BF0113,14,Romaine,hrt break,7/28/2014,9/27/2014,10/3/2014,,6
BF,BF16,BF1604,9.1,Lettuce,victory,7/21/2014,10/5/2014,10/4/2014,1,
BF,BF15,BF1521,14.1,Romaine,grn thunder,7/25/2014,10/3/2014,10/4/2014,,1
BF,BF11,BF1102,7.1,Romaine,stryker,7/26/2014,10/6/2014,10/4/2014,2,
BF,BF17,BF1703,3.1,Celery,sonora,7/6/2014,10/8/2014,10/5/2014,3,
BF,BF11,BF1102,11,Romaine,grn thunder,7/26/2014,10/6/2014,10/5/2014,1,
BF,BF07,BF0702,13.1,Cauliflower,absolute,7/28/2014,10/6/2014,10/5/2014,1,
BF,BF71,BF7105,8.1,Broccoli,avenger,7/13/2014,9/27/2014,10/5/2014,,8
BF,BF01,BF0113,15,Romaine,hrt break,7/30/2014,10/2/2014,10/5/2014,,3
BF,BF01,BF0113,7.1,Romaine,stryker,7/28/2014,9/28/2014,10/6/2014,,8
BF,BF29,BF2913,6.1,Broccoli,grn magic,7/18/2014,9/24/2014,10/6/2014,,12
BF,BF03,BF0306,5.1,Broccoli,avenger,7/14/2014,10/2/2014,10/6/2014,,4
BF,BF11,BF1102,15,Romaine,hrt break,7/31/2014,10/18/2014,10/6/2014,12,
BF,BF01,BF0113,4,Romaine,grn thunder,7/28/2014,9/27/2014,10/7/2014,,10
BF,BF72,BF7201,8,Celery,sonora,7/9/2014,10/9/2014,10/8/2014,1,
BF,BF01,BF0113,3.1,Romaine,stryker,7/30/2014,10/3/2014,10/8/2014,,5
BF,BF74,BF7404,12,Lettuce,quest,7/30/2014,10/5/2014,10/8/2014,,3
BF,BF01,BF0113,9,Romaine,grn thunder,7/30/2014,10/2/2014,10/9/2014,,7
BF,BF11,BF1102,8,Romaine,stryker,7/31/2014,10/10/2014,10/9/2014,1,
BF,BF11,BF1102,8.1,Romaine,grn thunder,7/31/2014,10/20/2014,10/10/2014,10,
BF,BF17,BF1703,14,Celery,sonora,7/12/2014,10/11/2014,10/11/2014,,
BF,BF17,BF1702,14,Celery,sonora,7/12/2014,10/12/2014,10/11/2014,1,
BF,BF74,BF7405,3,Lettuce,denali,7/25/2014,10/3/2014,10/11/2014,,8
BF,BF01,BF0112,15.1,Romaine,stryker,8/2/2014,10/5/2014,10/11/2014,,6
BF,BF01,BF0112,15.1,Romaine,hrt break,8/2/2014,10/6/2014,10/12/2014,,6
BF,BF20,BF2007S,10,Romaine,grn thunder,8/1/2014,10/5/2014,10/12/2014,,7
BF,BF71,BF7107,9,Broccoli,avenger,7/19/2014,10/6/2014,10/12/2014,,6
BF,BF20,BF2007S,15,Romaine,sparx,8/1/2014,10/8/2014,10/12/2014,,4
BF,BF20,BF2007S,11,Romaine,sun valley,8/1/2014,10/11/2014,10/12/2014,,1
BF,BF51,BF5102,10.1,Lettuce,denali,7/26/2014,10/11/2014,10/12/2014,,1
BF,BF01,BF0112,3,Romaine,stryker,8/3/2014,10/10/2014,10/12/2014,,2
BF,BF01,BF0112,13.1,Romaine,hrt break,8/3/2014,10/10/2014,10/13/2014,,3
BF,BF29,BF2912,14.1,Broccoli,grn magic,7/24/2014,10/1/2014,10/13/2014,,12
BF,BF01,BF0112,12,Romaine,grn thunder,8/2/2014,10/8/2014,10/13/2014,,5
BF,BF73,BF7308,13.1,Celery,sonora,7/14/2014,10/18/2014,10/13/2014,5,
BF,BF01,BF0112,11,Romaine,grn thunder,8/3/2014,10/9/2014,10/14/2014,,5
BF,BF74,BF7403,6.1,Lettuce,denali,8/4/2014,10/17/2014,10/15/2014,2,
BF,BF07,BF0706,3,Cauliflower,absolute,8/4/2014,10/11/2014,10/15/2014,,4
BF,BF51,BF5105,9,Lettuce,journey,8/8/2014,10/23/2014,10/17/2014,6,
BF,BF71,BF7106,4,Broccoli,avenger,7/24/2014,10/12/2014,10/18/2014,,6
BF,BF17,BF1702,10,Celery,sonora,7/18/2014,10/22/2014,10/18/2014,4,
BF,BF01,BF0111,13.1,Romaine,hrt break,8/8/2014,10/13/2014,10/18/2014,,5
BF,BF11,BF1107,10,Romaine,grn thunder,8/7/2014,10/9/2014,10/18/2014,,9
BF,BF20,BF2007N,8,Romaine,grn thunder,8/7/2014,10/18/2014,10/18/2014,,
BF,BF20,BF2007N,7,Romaine,sun valley,8/7/2014,10/15/2014,10/18/2014,,3
BF,BF01,BF0111,15.1,Romaine,grn thunder,8/8/2014,10/13/2014,10/19/2014,,6
BF,BF07,BF0703,11.1,Cauliflower,absolute,8/8/2014,10/17/2014,10/19/2014,,2
BF,BF11,BF1107,3,Romaine,grn forest,8/7/2014,10/12/2014,10/19/2014,,7
BF,BF20,BF2007N,7.1,Romaine,grn forest,8/7/2014,10/13/2014,10/19/2014,,6
BF,BF29,BF2911,4,Broccoli,grn magic,7/31/2014,10/8/2014,10/20/2014,,12
BF,BF74,BF7402,14,Lettuce,denali,8/9/2014,10/26/2014,10/20/2014,6,
BF,BF73,BF7308,4.1,Celery,sonora,7/21/2014,10/22/2014,10/21/2014,1,
BF,BF73,BF7307,7,Celery,sonora,7/21/2014,10/23/2014,10/21/2014,2,
BF,BF51,BF5105,14,Lettuce,quest,8/8/2014,10/23/2014,10/21/2014,2,
BF,BF11,BF1107,5.1,Romaine,hrt break,8/11/2014,10/26/2014,10/21/2014,5,
BF,BF14,BF1406,7.1,Cauliflower,absolute,8/10/2014,10/19/2014,10/21/2014,,2
BF,BF11,BF1107,7.1,Romaine,grn thunder,8/11/2014,10/22/2014,10/22/2014,,
BF,BF20,BF2006,15,Romaine,grn thunder,8/11/2014,10/23/2014,10/22/2014,1,
BF,BF20,BF2006,5.1,Romaine,sun valley,8/11/2014,10/19/2014,10/22/2014,,3
BF,BF20,BF2006,10,Romaine,grn forest,8/11/2014,10/22/2014,10/24/2014,,2
BF,BF01,BF0110,13.1,Romaine,hrt break,8/14/2014,10/19/2014,10/25/2014,,6
BF,BF17,BF1702,12.1,Celery,sonora,7/25/2014,10/26/2014,10/26/2014,,
BF,BF73,BF7307,14.1,Celery,sonora,7/25/2014,10/29/2014,10/26/2014,3,
BF,BF73,BF7306,12.1,Celery,sonora,7/25/2014,10/30/2014,10/26/2014,4,
BF,BF01,BF0110,5,Romaine,grn thunder,8/14/2014,10/18/2014,10/26/2014,,8
BF,BF11,BF1108,11,Romaine,hrt break,8/16/2014,10/31/2014,10/27/2014,4,
BF,BF20,BF2006,9.1,Romaine,grn thunder,8/15/2014,10/24/2014,10/27/2014,,3
BF,BF74,BF7401,3,Lettuce,telluride,8/15/2014,11/1/2014,10/27/2014,5,
BF,BF01,BF0110,14,Romaine,grn forest,8/14/2014,10/19/2014,10/28/2014,,9
BF,BF11,BF1108,8,Romaine,grn thunder,8/16/2014,11/2/2014,10/28/2014,5,
BF,BF14,BF1407,10.1,Cauliflower,absolute,8/16/2014,10/29/2014,10/29/2014,,
BF,BF20,BF2006,8,Romaine,grn forest,8/15/2014,10/24/2014,10/29/2014,,5
BF,BF11,BF1105,5.1,Romaine,hrt break,8/18/2014,10/30/2014,10/30/2014,,
BF,BF11,BF1108,12.1,Romaine,grn forest,8/16/2014,10/29/2014,10/30/2014,,1
BF,BF11,BF1108,11,Romaine,grn thunder,8/18/2014,11/5/2014,10/31/2014,5,
BF,BF17,BF1702,15.1,Celery,sonora,7/30/2014,11/1/2014,10/31/2014,1,
BF,BF73,BF7305,4.1,Celery,sonora,7/30/2014,11/5/2014,10/31/2014,5,
BF,BF73,BF7306,13,Celery,sonora,7/30/2014,11/5/2014,10/31/2014,5,
BF,BF16,BF1605,15.1,Romaine,hrt break,8/20/2014,10/29/2014,11/1/2014,,3
BF,BF11,BF1105,8.1,Romaine,grn forest,8/18/2014,10/29/2014,11/2/2014,,4
BF,BF11,BF1108,12.1,Romaine,grn forest,8/18/2014,11/8/2014,11/2/2014,6,
BF,BF10,BF1017,5,Cauliflower,paciencia,8/11/2014,11/3/2014,11/2/2014,1,
BF,BF16,BF1605,12.1,Romaine,grn thunder,8/20/2014,11/2/2014,11/3/2014,,1
BF,BF11,BF1105,14.1,Romaine,grn thunder,8/20/2014,11/5/2014,11/3/2014,2,
BF,BF20,BF2005,8,Romaine,sun valley,8/20/2014,11/3/2014,11/3/2014,,
BF,BF14,BF1408,13,Cauliflower,absolute,8/21/2014,11/2/2014,11/4/2014,,2
BF,BF20,BF2005,5.1,Romaine,grn forest,8/20/2014,11/1/2014,11/4/2014,,3
BF,BF16,BF1605,8.1,Romaine,grn forest,8/20/2014,11/6/2014,11/4/2014,2,
BF,BF73,BF7305,15.1,Celery,sonora,8/4/2014,11/7/2014,11/4/2014,3,
BF,BF17,BF1701,15,Celery,sonora,8/4/2014,11/13/2014,11/4/2014,9,
BF,BF11,BF1106,6,Romaine,hrt break,8/23/2014,11/14/2014,11/5/2014,9,
BF,BF15,BF1524,8.1,Cauliflower,paciencia,8/14/2014,11/8/2014,11/6/2014,2,
BF,BF11,BF1106,6,Romaine,grn thunder,8/23/2014,11/13/2014,11/6/2014,7,
BF,BF29,BF2910,11.1,Broccoli,grn magic,8/10/2014,10/19/2014,11/7/2014,,19
BF,BF11,BF1106,14.1,Romaine,grn forest,8/23/2014,11/8/2014,11/8/2014,,
BF,BF10,BF1016,13,Cauliflower,paciencia,8/16/2014,11/9/2014,11/8/2014,1,
BF,BF49,BF4909,9,Romaine,grn star,8/25/2014,11/2/2014,11/9/2014,,7
BF,BF15,BF1525,4.1,Cauliflower,paciencia,8/18/2014,11/12/2014,11/11/2014,1,
BF,BF73,BF7304,10.1,Celery,sonora,8/10/2014,11/10/2014,11/12/2014,,2
BF,BF10,BF1014,8,Cauliflower,paciencia,8/20/2014,11/16/2014,11/15/2014,1,
BF,BF15,BF1525,10,Cauliflower,paciencia,8/22/2014,11/14/2014,11/17/2014,,3
BF,BF27,BF2701,15,Broccoli,marathon,8/18/2014,11/2/2014,11/18/2014,,16
BF,BF73,BF7304,15,Celery,sonora,8/15/2014,11/15/2014,11/19/2014,,4
BF,BF73,BF7303,13.1,Celery,sonora,8/15/2014,11/16/2014,11/19/2014,,3
BF,BF10,BF1015,8,Cauliflower,paciencia,8/25/2014,11/19/2014,11/21/2014,,2
BF,BF47,BF4708,7,Cauliflower,absolute,9/1/2014,11/19/2014,11/23/2014,,4
BF,BF15,BF1526,6,Cauliflower,paciencia,8/28/2014,11/23/2014,11/24/2014,,1
BF,BF15,BF1527,9.1,Cauliflower,paciencia,8/28/2014,11/24/2014,11/24/2014,,
BF,BF27,BF2702,9,Broccoli,marathon,8/23/2014,11/10/2014,11/25/2014,,15
BF,BF73,BF7303,11,Celery,sonora,8/20/2014,11/14/2014,11/26/2014,,12
BF,BF15,BF1528,10.1,Cauliflower,paciencia,9/4/2014,12/3/2014,11/27/2014,6,
BF,BF10,BF1013,13.1,Cauliflower,paciencia,8/31/2014,11/28/2014,11/28/2014,,
BF,BF15,BF1505,8,Broccoli,heritage,8/24/2014,12/14/2014,11/29/2014,15,
BF,BF47,BF4706,4,Cauliflower,symphony,9/6/2014,11/26/2014,11/29/2014,,3
BF,BF47,BF4707,5.1,Cauliflower,symphony,9/6/2014,11/27/2014,11/29/2014,,2
BF,BF10,BF1012,8.1,Cauliflower,paciencia,9/7/2014,12/8/2014,11/30/2014,8,
BF,BF73,BF7302,13,Celery,sonora,8/24/2014,11/23/2014,12/1/2014,,8
BF,BF15,BF1529,7.1,Cauliflower,paciencia,9/8/2014,12/7/2014,12/1/2014,6,
BF,BF27,BF2703,15,Broccoli,marathon,8/29/2014,11/23/2014,12/2/2014,,9
BF,BF15,BF1504,11.1,Broccoli,heritage,8/30/2014,12/20/2014,12/4/2014,16,
BF,BF73,BF7302,4,Celery,sonora,8/28/2014,12/1/2014,12/4/2014,,3
BF,BF73,BF7301,4,Celery,sonora,8/28/2014,12/3/2014,12/4/2014,,1
BF,BF47,BF4705,4.1,Cauliflower,symphony,9/12/2014,12/4/2014,12/5/2014,,1
BF,BF10,BF1011,11,Cauliflower,paciencia,9/13/2014,12/15/2014,12/7/2014,8,
BF,BF15,BF1530,15.1,Cauliflower,paciencia,9/14/2014,12/4/2014,12/8/2014,,4
BF,BF27,BF2704,4.1,Broccoli,marathon,9/5/2014,11/28/2014,12/8/2014,,10
BF,BF15,BF1504,12,Broccoli,heritage,9/4/2014,12/28/2014,12/11/2014,17,
BF,BF15,BF1503,3.1,Broccoli,heritage,9/4/2014,12/29/2014,12/11/2014,18,
BF,BF47,BF4704,11,Cauliflower,symphony,9/17/2014,12/6/2014,12/12/2014,,6
BF,BF27,BF2705,15,Broccoli,marathon,9/8/2014,11/30/2014,12/13/2014,,13
BF,BF08,BF0804E,5.1,Cauliflower,paciencia,9/18/2014,12/26/2014,12/13/2014,13,
BF,BF73,BF7301,10.1,Celery,sonora,9/4/2014,12/5/2014,12/15/2014,,10
BF,BF73,BF7310,6,Celery,sonora,9/4/2014,12/12/2014,12/15/2014,,3
BF,BF15,BF1502,15.1,Broccoli,heritage,9/8/2014,1/9/2015,12/18/2014,22,
BF,BF47,BF4703,7,Cauliflower,symphony,9/21/2014,12/10/2014,12/18/2014,,8
BF,BF15,BF1501,10,Broccoli,heritage,9/11/2014,1/17/2015,12/23/2014,25,
BF,BF01,BF0105,9.1,Broccoli,marathon,9/14/2014,12/11/2014,12/23/2014,,12
BF,BF47,BF4702,11.1,Cauliflower,symphony,9/28/2014,12/28/2014,12/28/2014,,
BF,BF01,BF0104,6.1,Broccoli,marathon,9/18/2014,12/17/2014,12/29/2014,,12
BF,BF73,BF7310,5,Celery,sonora,9/13/2014,12/14/2014,12/30/2014,,16
BF,BF73,BF7309,7.1,Celery,sonora,9/13/2014,12/17/2014,12/30/2014,,13
MN,MN57,MN5704,13,Broccoli,heritage,9/16/2013,1/13/2014,1/4/2014,9,
MN,MN57,MN5703,15,Broccoli,heritage,9/21/2013,1/20/2014,1/12/2014,8,
MN,MN57,MN5702,14.1,Broccoli,heritage,9/24/2013,1/21/2014,1/18/2014,3,
MN,MN57,MN5701,9.1,Broccoli,heritage,9/29/2013,1/25/2014,1/26/2014,,1
MN,MN57,MN5711,6,Broccoli,heritage,10/12/2013,2/6/2014,2/13/2014,,7
MN,MN57,MN5715,5,Broccoli,heritage,10/31/2013,2/21/2014,3/13/2014,,21
MN,MN57,MN5716,9,Broccoli,heritage,11/7/2013,2/28/2014,3/14/2014,,14
MN,MN57,MN5717,12.1,Broccoli,heritage,11/16/2013,3/12/2014,3/22/2014,,10
MN,MN56,MN5606,14,Cauliflower,symphony,1/31/2014,5/9/2014,5/7/2014,2,
MN,MN56,MN5603,10.1,Cauliflower,symphony,2/13/2014,5/17/2014,5/22/2014,,5
MN,MN57,MN5711,4,Broccoli,avenger,3/8/2014,6/6/2014,6/9/2014,,3
MN,MN57,MN5710,7,Lettuce,journey,3/24/2014,6/11/2014,6/15/2014,,4
MN,MN57,MN5712,9.1,Broccoli,avenger,3/16/2014,6/15/2014,6/15/2014,,
MN,MN57,MN5713,13,Broccoli,avenger,4/3/2014,6/27/2014,6/25/2014,2,
MN,MN57,MN5705,12,Broccoli,heritage,4/4/2014,6/26/2014,6/26/2014,,
MN,MN57,MN5709,13.1,Lettuce,quest,4/3/2014,6/22/2014,6/28/2014,,6
MN,MN57,MN5708,12,Lettuce,journey,4/6/2014,6/23/2014,6/30/2014,,7
MN,MN57,MN5704,3,Broccoli,heritage,4/17/2014,7/3/2014,7/6/2014,,3
MN,MN57,MN5713,12,Broccoli,avenger,4/20/2014,7/4/2014,7/9/2014,,5
MN,MN57,MN5714,15,Broccoli,avenger,4/20/2014,7/5/2014,7/9/2014,,4
MN,MN57,MN5703,5,Broccoli,heritage,4/21/2014,7/6/2014,7/9/2014,,3
MN,MN57,MN5706,13,Lettuce,9238,4/24/2014,7/16/2014,7/15/2014,1,
MN,MN57,MN5702,7.1,Broccoli,heritage,4/27/2014,7/13/2014,7/15/2014,,2
MN,MN57,MN5718,12.1,Lettuce,9238,5/2/2014,7/16/2014,7/24/2014,,8
MN,MN57,MN5718,9,Lettuce,denali,5/2/2014,7/18/2014,7/24/2014,,6
MN,MN57,MN5701,13.1,Broccoli,heritage,5/5/2014,7/20/2014,7/24/2014,,4
MN,MN57,MN5715,10,Broccoli,avenger,5/17/2014,7/31/2014,8/3/2014,,3
MN,MN57,MN5716,12,Broccoli,avenger,5/24/2014,8/10/2014,8/9/2014,1,
MN,MN57,MN5717,3,Broccoli,avenger,5/31/2014,8/18/2014,8/15/2014,3,
MN,MN56,MN5601,8.1,Lettuce,9238,6/9/2014,8/23/2014,8/23/2014,,
MN,MN56,MN5602,9,Lettuce,quest,6/16/2014,8/30/2014,8/29/2014,1,
MN,MN56,MN5604,7,Lettuce,9238,6/23/2014,8/30/2014,9/5/2014,,6
MN,MN56,MN5603,12.1,Lettuce,quest,6/29/2014,9/6/2014,9/10/2014,,4
MN,MN56,MN5605,12.1,Lettuce,denali,7/5/2014,9/6/2014,9/15/2014,,9
MN,MN56,MN5606,5.1,Lettuce,9238,7/11/2014,9/29/2014,9/21/2014,8,
MN,MN57,MN5711,12.1,Lettuce,denali,7/20/2014,10/13/2014,10/1/2014,12,
MN,MN57,MN5712,5,Lettuce,denali,7/26/2014,10/18/2014,10/7/2014,11,
MN,MN57,MN5710,14.1,Celery,sonora,8/9/2014,11/14/2014,11/12/2014,2,
MN,MN57,MN5710,7,Celery,sonora,8/14/2014,11/19/2014,11/19/2014,,
MN,MN57,MN5709,5.1,Celery,sonora,8/17/2014,11/23/2014,11/23/2014,,
MN,MN57,MN5709,8.1,Celery,sonora,8/23/2014,11/29/2014,11/30/2014,,1
MN,MN57,MN5708,11,Celery,sonora,8/28/2014,12/4/2014,12/5/2014,,1
MN,MN57,MN5708,6,Celery,sonora,9/1/2014,12/10/2014,12/10/2014,,
MN,MN57,MN5707,7.1,Celery,sonora,9/6/2014,12/13/2014,12/18/2014,,5
MN,MN57,MN5707,14,Celery,sonora,9/8/2014,12/17/2014,12/21/2014,,4
MN,MN57,MN5706,5,Broccoli,heritage,9/14/2014,12/15/2014,12/25/2014,,10
OF,OF01,OF0109,12,Broccoli,heritage,9/15/2013,1/9/2014,1/4/2014,5,
OF,OF01,OF0102,3,Broccoli,heritage,9/20/2013,1/16/2014,1/13/2014,3,
OF,OF01,OF0112,7,Broccoli,heritage,9/24/2013,1/21/2014,1/20/2014,1,
OF,OF01,OF0117,7,Broccoli,heritage,10/3/2013,1/24/2014,1/26/2014,,2
OF,OF01,OF0116,9.1,Broccoli,heritage,9/29/2013,1/19/2014,1/27/2014,,8
OF,OF01,OF0111,3,Broccoli,heritage,10/9/2013,1/30/2014,2/3/2014,,4
OF,OF01,OF0115,15.1,Broccoli,heritage,10/14/2013,2/7/2014,2/11/2014,,4
OF,OF08,OF0801,7,Broccoli,heritage,10/28/2013,2/21/2014,3/2/2014,,10
OF,OF08,OF0802,5,Broccoli,heritage,11/5/2013,2/23/2014,3/3/2014,,9
OF,OF08,OF0803,6.1,Broccoli,heritage,11/10/2013,2/27/2014,3/8/2014,,10
OF,OF08,OF0806,6.1,Broccoli,heritage,11/19/2013,3/8/2014,3/17/2014,,9
OF,OF08,OF0805,15,Broccoli,heritage,12/1/2013,3/24/2014,3/25/2014,,1
OF,OF08,OF0804,6,Broccoli,heritage,12/8/2013,3/26/2014,3/30/2014,,4
OF,OF09,OF0905,12,Broccoli,heritage,12/17/2013,4/3/2014,4/6/2014,,3
OF,OF09,OF0904,9,Broccoli,heritage,12/27/2013,4/10/2014,4/14/2014,,4
OF,OF01,OF0101,10,Lettuce,vandenberg,1/11/2014,4/3/2014,4/19/2014,,16
OF,OF09,OF0903,5,Broccoli,heritage,1/5/2014,4/16/2014,4/19/2014,,3
OF,OF01,OF0108N,6.1,Lettuce,vandenberg,1/19/2014,4/16/2014,4/23/2014,,7
OF,OF01,OF0108S,6.1,Lettuce,sure shot,2/5/2014,4/24/2014,5/3/2014,,9
OF,OF01,OF0103,14,Cauliflower,paciencia,1/30/2014,5/8/2014,5/6/2014,2,
OF,OF09,OF0901,3,Broccoli,heritage,1/29/2014,4/30/2014,5/6/2014,,6
OF,OF01,OF0109,15,Lettuce,vandenberg,2/16/2014,4/28/2014,5/12/2014,,14
OF,OF02,OF0202,11,Cauliflower,paciencia,2/4/2014,5/11/2014,5/14/2014,,3
OF,OF02,OF0203,10,Cauliflower,symphony,2/17/2014,5/14/2014,5/24/2014,,10
OF,OF01,OF0102,13,Cauliflower,paciencia,2/18/2014,5/24/2014,5/25/2014,,1
OF,OF02,OF0204,8,Cauliflower,symphony,3/9/2014,5/30/2014,5/30/2014,,
OF,OF10,OF1001,10.1,Broccoli,avenger,3/3/2014,5/31/2014,6/3/2014,,3
OF,OF10,OF1002,11,Broccoli,avenger,3/10/2014,6/4/2014,6/7/2014,,3
OF,OF02,OF0205,15,Cauliflower,symphony,3/22/2014,6/9/2014,6/9/2014,,
OF,OF01,OF0116,9,Lettuce,reliant,3/15/2014,5/16/2014,6/13/2014,,28
OF,OF02,OF0201,12.1,Cauliflower,symphony,4/4/2014,6/25/2014,6/19/2014,6,
OF,OF01,OF0117,13.1,Lettuce,vandenberg,3/24/2014,5/21/2014,6/19/2014,,29
OF,OF01,OF0113,13.1,Celery,mission-2510,2/28/2014,6/13/2014,6/21/2014,,8
OF,OF08,OF0801,13,Cauliflower,symphony,4/9/2014,6/19/2014,6/22/2014,,3
OF,OF01,OF0113,11,Celery,mission-2510,3/8/2014,6/15/2014,6/27/2014,,12
OF,OF10,OF1003,12.1,Broccoli,avenger,4/4/2014,6/26/2014,6/28/2014,,2
OF,OF10,OF1004,6,Broccoli,avenger,4/5/2014,6/23/2014,6/29/2014,,6
OF,OF01,OF0114,14.1,Celery,mission-2510,3/15/2014,6/27/2014,7/2/2014,,5
OF,OF10,OF1005,10,Broccoli,avenger,4/10/2014,6/28/2014,7/2/2014,,4
OF,OF08,OF0802,10,Cauliflower,symphony,4/21/2014,7/2/2014,7/3/2014,,1
OF,OF05,OF0501,5,Lettuce,quest,4/5/2014,6/15/2014,7/4/2014,,19
OF,OF05,OF0502,11,Lettuce,quest,4/9/2014,6/21/2014,7/6/2014,,15
OF,OF08,OF0803,6.1,Cauliflower,symphony,4/30/2014,7/9/2014,7/11/2014,,2
OF,OF01,OF0110,14.1,Celery,command,4/5/2014,7/16/2014,7/11/2014,5,
OF,OF10,OF1006,11.1,Broccoli,avenger,4/21/2014,7/5/2014,7/11/2014,,6
OF,OF01,OF0114,3,Celery,mission-2510,3/29/2014,7/5/2014,7/12/2014,,7
OF,OF05,OF0503,13,Lettuce,quest,4/21/2014,7/6/2014,7/16/2014,,10
OF,OF08,OF0806,11,Cauliflower,symphony,5/9/2014,7/18/2014,7/19/2014,,1
OF,OF07,OF0705,14,Broccoli,avenger,4/30/2014,7/21/2014,7/19/2014,2,
OF,OF01,OF0110,3,Celery,command,4/19/2014,7/17/2014,7/21/2014,,4
OF,OF05,OF0504,14,Lettuce,quest,4/29/2014,7/18/2014,7/23/2014,,5
OF,OF06,OF0601,8,Lettuce,quest,4/30/2014,7/18/2014,7/24/2014,,6
OF,OF06,OF0602,15,Lettuce,quest,5/8/2014,7/20/2014,7/24/2014,,4
OF,OF01,OF0111,5,Celery,command,4/23/2014,7/23/2014,7/25/2014,,2
OF,OF07,OF0702,9.1,Broccoli,avenger,5/7/2014,7/24/2014,7/25/2014,,1
OF,OF08,OF0805,14.1,Cauliflower,symphony,5/18/2014,7/26/2014,7/26/2014,,
OF,OF01,OF0111,11.1,Celery,command,4/28/2014,7/24/2014,7/29/2014,,5
OF,OF06,OF0603,13,Lettuce,quest,5/17/2014,7/27/2014,8/1/2014,,5
OF,OF07,OF0703,3,Broccoli,avenger,5/15/2014,8/2/2014,8/1/2014,1,
OF,OF01,OF0115,11.1,Celery,command,5/5/2014,7/31/2014,8/1/2014,,1
OF,OF08,OF0804,10,Cauliflower,symphony,5/25/2014,7/30/2014,8/1/2014,,2
OF,OF07,OF0703,7.1,Broccoli,avenger,5/22/2014,8/8/2014,8/7/2014,1,
OF,OF06,OF0604,11.1,Lettuce,quest,5/25/2014,8/9/2014,8/7/2014,2,
OF,OF01,OF0115,8.1,Celery,command,5/15/2014,8/6/2014,8/9/2014,,3
OF,OF07,OF0704,4.1,Broccoli,heritage,5/30/2014,8/13/2014,8/12/2014,1,
OF,OF01,OF0101,5.1,Cauliflower,symphony,6/2/2014,8/9/2014,8/14/2014,,5
OF,OF09,OF0905,14,Celery,command,5/22/2014,8/10/2014,8/15/2014,,5
OF,OF01,OF0107,15.1,Lettuce,quest,6/2/2014,8/13/2014,8/16/2014,,3
OF,OF01,OF0108N,15,Cauliflower,symphony,6/9/2014,8/11/2014,8/20/2014,,9
OF,OF09,OF0905,6,Celery,command,5/29/2014,8/22/2014,8/21/2014,1,
OF,OF07,OF0701,3.1,Broccoli,avenger,6/5/2014,8/20/2014,8/23/2014,,3
OF,OF01,OF0106,13,Lettuce,journey,6/9/2014,8/16/2014,8/24/2014,,8
OF,OF04,OF0403,8,Broccoli,avenger,6/8/2014,8/23/2014,8/25/2014,,2
OF,OF01,OF0108S,10.1,Cauliflower,symphony,6/16/2014,8/20/2014,8/26/2014,,6
OF,OF09,OF0904,10,Celery,command,6/5/2014,8/30/2014,8/28/2014,2,
OF,OF01,OF0105,15,Lettuce,9238,6/15/2014,8/27/2014,8/29/2014,,2
OF,OF01,OF0109,10,Cauliflower,symphony,6/22/2014,8/27/2014,9/1/2014,,5
OF,OF09,OF0904,15,Celery,command,6/12/2014,8/31/2014,9/3/2014,,3
OF,OF04,OF0403,11,Broccoli,avenger,6/18/2014,8/31/2014,9/4/2014,,4
OF,OF01,OF0104,3,Lettuce,9238,6/22/2014,9/6/2014,9/5/2014,1,
OF,OF04,OF0402,5.1,Broccoli,avenger,6/23/2014,9/7/2014,9/8/2014,,1
OF,OF01,OF0112,8,Cauliflower,symphony,6/30/2014,9/6/2014,9/8/2014,,2
OF,OF09,OF0903,8,Celery,command,6/19/2014,9/11/2014,9/10/2014,1,
OF,OF01,OF0116,5,Cauliflower,symphony,7/5/2014,9/8/2014,9/11/2014,,3
OF,OF01,OF0103,11,Lettuce,journey,6/30/2014,9/11/2014,9/12/2014,,1
OF,OF04,OF0402,14.1,Broccoli,avenger,6/29/2014,9/12/2014,9/13/2014,,1
OF,OF09,OF0903,6.1,Celery,command,6/23/2014,9/12/2014,9/14/2014,,2
OF,OF01,OF0117,13,Cauliflower,symphony,7/12/2014,9/13/2014,9/17/2014,,4
OF,OF02,OF0202,6.1,Lettuce,sniper,7/7/2014,9/14/2014,9/20/2014,,6
OF,OF09,OF0902,3.1,Celery,command,6/30/2014,9/24/2014,9/20/2014,4,
OF,OF04,OF0401,11,Broccoli,avenger,7/5/2014,9/17/2014,9/22/2014,,5
OF,OF02,OF0203,5.1,Lettuce,victory,7/12/2014,9/22/2014,9/25/2014,,3
OF,OF05,OF0501,5.1,Broccoli,avenger,7/11/2014,9/19/2014,9/28/2014,,9
OF,OF02,OF0204,9,Lettuce,victory,7/19/2014,10/2/2014,10/2/2014,,
OF,OF01,OF0102,10.1,Broccoli,avenger,7/16/2014,9/26/2014,10/3/2014,,7
OF,OF05,OF0502,15.1,Broccoli,heritage,7/19/2014,10/1/2014,10/4/2014,,3
OF,OF09,OF0902,11,Celery,command,7/7/2014,10/4/2014,10/4/2014,,
OF,OF05,OF0502,7,Broccoli,avenger,7/19/2014,9/29/2014,10/6/2014,,7
OF,OF02,OF0201,8,Lettuce,journey,7/27/2014,10/11/2014,10/11/2014,,
OF,OF09,OF0901,11,Celery,command,7/14/2014,10/13/2014,10/11/2014,2,
OF,OF05,OF0503,15.1,Broccoli,avenger,7/27/2014,10/10/2014,10/15/2014,,5
OF,OF09,OF0901,14.1,Celery,command,7/19/2014,10/15/2014,10/17/2014,,2
OF,OF06,OF0601,15,Cauliflower,symphony,8/9/2014,10/18/2014,10/18/2014,,
OF,OF05,OF0504,5,Broccoli,avenger,8/1/2014,10/16/2014,10/22/2014,,6
OF,OF06,OF0602,4,Cauliflower,symphony,8/16/2014,10/26/2014,10/26/2014,,
OF,OF10,OF1001,7,Lettuce,denali,8/4/2014,10/29/2014,10/27/2014,2,
OF,OF06,OF0603,3.1,Cauliflower,symphony,8/20/2014,11/1/2014,10/31/2014,1,
OF,OF08,OF0801,14,Broccoli,heritage,8/11/2014,10/29/2014,11/1/2014,,3
OF,OF10,OF1002,8.1,Lettuce,9238,8/8/2014,11/2/2014,11/1/2014,1,
OF,OF10,OF1002,3,Lettuce,quest,8/8/2014,11/3/2014,11/1/2014,2,
OF,OF01,OF0113,4.1,Cauliflower,symphony,8/23/2014,11/2/2014,11/4/2014,,2
OF,OF10,OF1003,9.1,Lettuce,denali,8/13/2014,11/3/2014,11/6/2014,,3
OF,OF08,OF0802,15.1,Broccoli,heritage,8/16/2014,11/5/2014,11/6/2014,,1
OF,OF10,OF1004,8,Lettuce,denali,8/15/2014,11/8/2014,11/9/2014,,1
OF,OF06,OF0604,8.1,Cauliflower,symphony,8/30/2014,11/9/2014,11/13/2014,,4
OF,OF08,OF0803,10,Broccoli,heritage,8/21/2014,11/12/2014,11/14/2014,,2
OF,OF10,OF1005,3.1,Lettuce,denali,8/20/2014,11/16/2014,11/17/2014,,1
OF,OF08,OF0806,7,Broccoli,heritage,8/28/2014,11/26/2014,11/23/2014,3,
OF,OF01,OF0110,6.1,Cauliflower,symphony,9/10/2014,12/1/2014,12/3/2014,,2
OF,OF08,OF0805,15,Broccoli,heritage,9/1/2014,12/3/2014,12/5/2014,,2
OF,OF01,OF0111,8.1,Cauliflower,symphony,9/15/2014,12/5/2014,12/9/2014,,4
OF,OF01,OF0107,6,Cauliflower,paciencia,9/15/2014,12/22/2014,12/9/2014,13,
OF,OF08,OF0804,3.1,Broccoli,heritage,9/7/2014,12/6/2014,12/13/2014,,7
OF,OF01,OF0106,8.1,Cauliflower,paciencia,9/19/2014,12/21/2014,12/16/2014,5,
OF,OF01,OF0115,11.1,Cauliflower,symphony,9/21/2014,12/5/2014,12/18/2014,,13
OF,OF01,OF0105,5.1,Cauliflower,paciencia,9/25/2014,12/31/2014,12/24/2014,7,
OF,OF10,OF1006,3.1,Broccoli,heritage,9/18/2014,12/28/2014,12/30/2014,,2
OF,OF03,OF0303,8,Broccoli,avenger,1/30/2014,5/5/2014,5/7/2014,,2
OF,OF03,OF0304,7,Broccoli,avenger,2/5/2014,5/9/2014,5/17/2014,,8
OF,OF03,OF0302,15.1,Broccoli,avenger,2/16/2014,5/17/2014,5/26/2014,,9
OF,OF03,OF0301,13.1,Broccoli,avenger,2/22/2014,5/22/2014,5/31/2014,,9
OF,OF03,OF0304,4.1,Celery,command,7/24/2014,10/17/2014,10/22/2014,,5
OF,OF03,OF0304,12,Celery,command,7/28/2014,10/24/2014,10/27/2014,,3
OF,OF03,OF0303,9,Celery,command,8/3/2014,10/27/2014,11/5/2014,,9
OF,OF03,OF0303,14,Celery,command,8/7/2014,11/1/2014,11/11/2014,,10
OF,OF03,OF0302,6.1,Celery,command,8/13/2014,11/8/2014,11/19/2014,,11
OF,OF03,OF0302,14.1,Celery,command,8/18/2014,11/10/2014,11/26/2014,,16
OF,OF03,OF0301,12.1,Celery,command,8/28/2014,11/27/2014,12/7/2014,,10
OF,OF03,OF0301,5,Celery,command,8/31/2014,12/10/2014,12/11/2014,,1
OF,OF11,OF1101,10.1,Lettuce,sniper,4/7/2014,6/1/2014,7/6/2014,,35
OF,OF11,OF1101,5,Cauliflower,symphony,7/18/2014,9/20/2014,9/24/2014,,4
OF,OF11,OF1102,3.1,Cauliflower,symphony,7/25/2014,9/26/2014,10/1/2014,,5
OF,OF12,OF1201,6,Broccoli,heritage,9/14/2014,12/19/2014,12/26/2014,,7
