Date_of_Prediction,Planting,Ranch,Field,Acres,Crop,Variety,Planting_Date,Estimated_Harvest,Estimated_Harvest_GDD,Days_Early,Days_Late,Notes,Actual_Harvest_Date
5/13/2015,48639,BF35,BF3501 ,13,Lettuce,vandenberg,12/5/2014,4/13/2015,3/18/2015,26, ,"3""",3/26/2015
5/13/2015,48638,BF35,BF3502 ,13,Lettuce,vandenberg,12/12/2014,4/13/2015,3/25/2015,19, ,"3""",4/3/2015
5/13/2015,48636,BF35,BF3504 ,13.6,Lettuce,vandenberg,1/1/2015,4/25/2015,4/6/2015,19, ,"2.8""",4/6/2015
5/13/2015,48637,BF35,BF3503 ,11.8,Lettuce,vandenberg,1/16/2015,5/3/2015,4/20/2015,13, ,"2.8""",4/15/2015
5/13/2015,49338,BF35,BF3505 ,21.8,Lettuce,reliant,1/26/2015,5/7/2015,4/27/2015,10, , ,4/24/2015
5/13/2015,49337,BF35,BF3506 ,15.4,Lettuce,reliant,1/31/2015,5/12/2015,5/2/2015,10, ,"3""",4/27/2015
5/13/2015,49336,BF35,BF3507 ,15.4,Lettuce,reliant,2/6/2015,5/14/2015,5/5/2015,9, , ,5/2/2015
5/13/2015,49365,BF35,BF3514 ,12,Broccoli,heritage,2/18/2015,5/15/2015,5/13/2015,2, , ,NA
5/13/2015,49335,BF35,BF3508 ,13.6,Lettuce,reliant,2/25/2015,5/28/2015,5/25/2015,3, , ,NA
5/13/2015,49334,BF35,BF3509 ,14.2,Lettuce,reliant,3/7/2015,6/6/2015,6/4/2015,2, ,"3""",NA
5/13/2015,49333,BF35,BF3510A,6.2,Lettuce,gunslinger,3/18/2015,6/11/2015,6/9/2015,2, , ,NA
5/13/2015,50743,BF35,BF3510B,5.6,Lettuce,reliant,3/18/2015,6/11/2015,6/14/2015, ,3, ,NA
5/13/2015,49332,BF35,BF3511 ,12.2,Lettuce,journey,3/28/2015,6/18/2015,6/18/2015, , , ,NA
5/13/2015,49331,BF35,BF3512 ,16.1,Lettuce,journey,4/4/2015,6/24/2015,6/21/2015,3, ,"3""",NA
5/13/2015,49330,BF35,BF3513 ,12.7,Lettuce,journey,4/15/2015,7/3/2015,6/30/2015,3, ,"3""",NA
5/13/2015,50797,BF35,BF3501 ,13,Cauliflower,absolute,4/15/2015,6/24/2015,7/2/2015, ,8,WB,NA
5/13/2015,49895,BF34,BF3413 ,22.8,Lettuce,vandenberg,1/18/2015,5/5/2015,4/22/2015,13, ,"2.8""",4/22/2015
5/13/2015,48834,BF34,BF3410 ,16.6,Cauliflower,paciencia,1/7/2015,4/24/2015,4/24/2015, , ,"WB  14""",4/23/2015
5/13/2015,49289,BF32,BF3212 ,16.9,Broccoli,heritage,1/7/2015,5/6/2015,4/24/2015,12, ,"7.5""",4/29/2015
5/13/2015,48835,BF34,BF3409 ,16.6,Cauliflower,paciencia,1/19/2015,5/3/2015,5/6/2015, ,3,WB,4/29/2015
5/13/2015,49290,BF32,BF3211 ,16.7,Broccoli,heritage,1/20/2015,5/17/2015,5/7/2015,10, ,"7.5""",5/7/2015
5/13/2015,49359,BF32,BF3205 ,11.3,Lettuce,reliant,2/9/2015,5/17/2015,5/9/2015,8, , ,5/11/2015
5/13/2015,49291,BF32,BF3210 ,17.5,Broccoli,heritage,1/24/2015,5/20/2015,5/11/2015,9, , ,5/13/2015
5/13/2015,48836,BF34,BF3408 ,16.2,Cauliflower,paciencia,1/28/2015,5/9/2015,5/15/2015, ,6,WB,5/7/2015
5/13/2015,49292,BF32,BF3209 ,17.8,Broccoli,heritage,1/30/2015,5/26/2015,5/17/2015,9, ,"7.5""",NA
5/13/2015,49360,BF32,BF3204A,5.7,Lettuce,reliant,2/17/2015,5/24/2015,5/17/2015,7, ,From North,NA
5/13/2015,50367,BF32,BF3204B,6,Lettuce,gunslinger,2/17/2015,5/24/2015,5/18/2015,6, , ,NA
5/13/2015,49364,BF34,BF3401 ,13,Lettuce,reliant,2/18/2015,5/25/2015,5/18/2015,7, , ,NA
5/13/2015,48837,BF34,BF3407 ,17.3,Cauliflower,paciencia,2/13/2015,5/25/2015,5/26/2015, ,1,WB,NA
5/13/2015,49293,BF32,BF3208 ,18.1,Broccoli,heritage,2/5/2015,5/30/2015,5/27/2015,3, , ,NA
5/13/2015,49363,BF34,BF3402 ,15.4,Lettuce,reliant,2/28/2015,5/31/2015,5/28/2015,3, ,"3""",NA
5/13/2015,48838,BF34,BF3406 ,16.4,Cauliflower,paciencia,2/18/2015,5/24/2015,5/31/2015, ,7,WB,NA
5/13/2015,48839,BF34,BF3405 ,16,Cauliflower,absolute,3/13/2015,5/30/2015,6/4/2015, ,5,WB,NA
5/13/2015,49294,BF32,BF3207 ,18.2,Broccoli,heritage,2/15/2015,6/7/2015,6/6/2015,1, , ,NA
5/13/2015,48840,BF34,BF3404 ,15.7,Cauliflower,absolute,3/24/2015,6/8/2015,6/14/2015, ,6,WB,NA
5/13/2015,48841,BF34,BF3403 ,14.4,Cauliflower,absolute,4/1/2015,6/14/2015,6/22/2015, ,8,WB,NA
5/13/2015,49295,BF32,BF3206 ,14.9,Broccoli,heritage,3/3/2015,6/16/2015,6/23/2015, ,7,"7.5""",NA
5/13/2015,50906,BF32,BF3203A,5.5,Lettuce,journey,4/22/2015,7/9/2015,7/5/2015,4, ,"3""",NA
5/13/2015,50907,BF32,BF3202 ,5.7,Lettuce,journey,4/22/2015,7/9/2015,7/5/2015,4, ,"3""",NA
5/13/2015,50905,BF32,BF3203B,12.5,Lettuce,journey,4/30/2015,7/17/2015,7/12/2015,5, ,"3""",NA
5/13/2015,48519,BF30,BF3009 ,15.4,Cauliflower,paciencia,12/6/2014,4/5/2015,3/23/2015,13, ,WB,3/25/2015
5/13/2015,49931,BF21,BF2104A,6.9,Romaine,coastal star,1/23/2015,4/15/2015,3/26/2015,20, , ,3/25/2015
5/13/2015,49930,BF21,BF2104B,7.3,Romaine,rio bravo,2/2/2015,4/18/2015,3/31/2015,18, , ,3/29/2015
5/13/2015,49957,BF21,BF2103B,5.1,Romaine,grn towers,2/2/2015,4/18/2015,3/31/2015,18, , ,4/1/2015
5/13/2015,49958,BF21,BF2103A,4,Romaine,coastal star,2/2/2015,4/18/2015,3/31/2015,18, ,From East,3/30/2015
5/13/2015,50294,BF21,BF2103C,3,Romaine,grn thunder,2/2/2015,4/18/2015,3/31/2015,18, , ,3/31/2015
5/13/2015,48520,BF30,BF3008 ,17.3,Cauliflower,paciencia,12/30/2014,4/21/2015,4/16/2015,5, ,"WB 14""",4/15/2015
5/13/2015,48521,BF30,BF3007 ,18.5,Cauliflower,paciencia,1/7/2015,4/24/2015,4/22/2015,2, ,"WB  14""",4/17/2015
5/13/2015,48522,BF30,BF3006 ,15.4,Cauliflower,paciencia,1/24/2015,5/11/2015,5/8/2015,3, ,"WB  14""",4/23/2015
5/13/2015,49944,BF30,BF3020 ,12.9,Cauliflower,absolute,4/17/2015,6/26/2015,6/30/2015, ,4,WB,NA
5/13/2015,49945,BF30,BF3019 ,12.7,Cauliflower,absolute,4/25/2015,7/2/2015,7/7/2015, ,5,WB,NA
5/13/2015,49946,BF30,BF3018 ,12.9,Cauliflower,absolute,5/2/2015,7/9/2015,7/13/2015, ,4,WB,NA
5/13/2015,48657,BF09,BF0901A,6.1,Romaine,rio bravo,1/14/2015,4/8/2015,3/18/2015,21, ,"11""",3/21/2015
5/13/2015,48655,BF09,BF0901B,6.1,Romaine,rio bravo,1/23/2015,4/15/2015,3/26/2015,20, , ,3/27/2015
5/13/2015,50358,BF09,BF0902B,7.3,Romaine,coastal star,2/12/2015,4/28/2015,4/12/2015,16, , ,4/9/2015
5/13/2015,50359,BF09,BF0902A,7.3,Romaine,rio bravo,2/12/2015,4/28/2015,4/12/2015,16, ,From North,4/6/2015
5/13/2015,50521,BF09,BF0906NA,5.5,Romaine,inferno,2/27/2015,5/27/2015,5/21/2015,6, ,"3""",5/9/2015
5/13/2015,50593,BF09,BF0906NB,5.9,Romaine,stryker,2/27/2015,5/27/2015,5/23/2015,4, ,"3""",5/7/2015
5/13/2015,50520,BF09,BF0906SA,5.9,Romaine,inferno,3/7/2015,5/31/2015,5/24/2015,7, ,"3.1""",NA
5/13/2015,50604,BF09,BF0906SB,5.2,Romaine,sparx,3/7/2015,5/31/2015,5/26/2015,5, ,"3.1""",NA
5/13/2015,47860,BF11,BF1104 ,13.6,Cauliflower,paciencia,10/9/2014,2/4/2015,1/15/2015,20, , ,NA
5/13/2015,48132,OF02,OF0202 ,10.6,Cauliflower,paciencia,10/10/2014,2/7/2015,1/16/2015,22, ,"14""",NA
5/13/2015,48078,BF10,BF1017A,17.8,Cauliflower,paciencia,10/10/2014,2/7/2015,1/17/2015,21, ,"WB 15"" Spacing",NA
5/13/2015,48388,BF10,BF1017B,1,Cauliflower,paciencia,10/10/2014,2/7/2015,1/17/2015,21, ,"WB  15"" Spacing",NA
5/13/2015,47811,BF49,BF4907 ,14.8,Cauliflower,paciencia,10/10/2014,2/7/2015,1/17/2015,21, ,"14"" Spacing",NA
5/13/2015,47824,BF16,BF1605C,7.2,Broccoli,heritage,10/16/2014,2/1/2015,1/18/2015,14, ,tranasition,1/28/2015
5/13/2015,47816,BF15,BF1533 ,13.1,Cauliflower,paciencia,10/12/2014,2/9/2015,1/19/2015,21, ,WB,NA
5/13/2015,46736,BF72,BF7203 ,13.6,Cauliflower,paciencia,10/12/2014,2/9/2015,1/19/2015,21, ,WB,NA
5/13/2015,47859,BF11,BF1105 ,13.7,Cauliflower,paciencia,10/14/2014,2/11/2015,1/22/2015,20, , ,NA
5/13/2015,47871,BF48,BF4803 ,14.1,Broccoli,bravado,10/20/2014,2/5/2015,1/23/2015,13, , ,1/26/2015
5/13/2015,48131,OF02,OF0203 ,10.2,Cauliflower,paciencia,10/15/2014,2/13/2015,1/23/2015,21, , ,2/2/2015
5/13/2015,47810,BF49,BF4908 ,11.6,Cauliflower,paciencia,10/15/2014,2/13/2015,1/24/2015,20, , ,NA
5/13/2015,48079,BF10,BF1016 ,18.3,Cauliflower,paciencia,10/16/2014,2/14/2015,1/25/2015,20, ,WB,1/26/2015
5/13/2015,47809,BF49,BF4909 ,11.3,Cauliflower,paciencia,10/17/2014,2/15/2015,1/26/2015,20, , ,1/29/2015
5/13/2015,48073,BF51,BF5101A,10.6,Cauliflower,paciencia,10/17/2014,2/15/2015,1/26/2015,20, ,"WB  14""",1/27/2015
5/13/2015,47870,BF48,BF4804 ,14.2,Broccoli,bravado,10/25/2014,2/10/2015,1/29/2015,12, , ,2/2/2015
5/13/2015,46735,BF72,BF7204 ,15.6,Cauliflower,paciencia,10/20/2014,2/18/2015,1/30/2015,19, ,"WB 17""",1/31/2015
5/13/2015,47878,BF25,BF2505 ,14,Broccoli,avenger,10/22/2014,2/7/2015,1/30/2015,8, , ,1/30/2015
5/13/2015,48130,OF02,OF0204 ,10.1,Cauliflower,paciencia,10/21/2014,2/19/2015,1/30/2015,20, ,"13""",2/6/2015
5/13/2015,48203,BF27,BF2701 ,13.2,Broccoli,marathon,10/26/2014,2/11/2015,1/31/2015,11, ,"WB-4L 9.5""",1/31/2015
5/13/2015,47858,BF11,BF1106 ,15.2,Cauliflower,paciencia,10/21/2014,2/19/2015,1/31/2015,19, , ,1/30/2015
5/13/2015,48072,BF51,BF5101B,6.6,Cauliflower,paciencia,10/22/2014,2/20/2015,2/1/2015,19, ,"WB 14""",1/30/2015
5/13/2015,48077,BF51,BF5104A,3.4,Cauliflower,paciencia,10/22/2014,2/20/2015,2/1/2015,19, ,"WB 14""",1/30/2015
5/13/2015,48202,BF27,BF2702 ,13.7,Broccoli,heritage,11/5/2014,2/21/2015,2/2/2015,19, ,"WB-4L 9.5""",2/10/2015
5/13/2015,48084,BF10,BF1011 ,14.2,Cauliflower,paciencia,10/23/2014,2/21/2015,2/3/2015,18, ,"14""",1/28/2015
5/13/2015,48064,BF15,BF1525A,11.6,Broccoli,bravado,10/29/2014,2/14/2015,2/3/2015,11, , ,2/4/2015
5/13/2015,46734,BF72,BF7205 ,15.4,Cauliflower,paciencia,10/24/2014,2/22/2015,2/4/2015,18, ,WB,2/3/2015
5/13/2015,48063,BF15,BF1525B,11.1,Broccoli,bravado,11/7/2014,2/23/2015,2/4/2015,19, , ,2/11/2015
5/13/2015,47857,BF11,BF1107 ,13.7,Cauliflower,paciencia,10/25/2014,2/23/2015,2/5/2015,18, ,"14""",2/4/2015
5/13/2015,48075,BF51,BF5102A,11.1,Cauliflower,paciencia,10/25/2014,2/22/2015,2/5/2015,17, ,"WB 14""",2/2/2015
5/13/2015,48201,BF27,BF2703 ,14.3,Broccoli,heritage,11/8/2014,2/24/2015,2/5/2015,19, ,"WB-4L 9.5""",2/13/2015
5/13/2015,47877,BF25,BF2506 ,13.7,Broccoli,avenger,10/28/2014,2/13/2015,2/6/2015,7, ,"9""",2/3/2015
5/13/2015,48135,BF49,BF4901 ,12.5,Cauliflower,paciencia,10/27/2014,2/25/2015,2/7/2015,18, , ,2/4/2015
5/13/2015,48129,OF02,OF0205 ,13.8,Cauliflower,paciencia,10/28/2014,2/27/2015,2/8/2015,19, ,"14""",2/11/2015
5/13/2015,48083,BF10,BF1012 ,16.4,Cauliflower,paciencia,10/28/2014,2/27/2015,2/8/2015,19, ,"14""",2/5/2015
5/13/2015,46733,BF72,BF7206 ,15.3,Cauliflower,paciencia,10/29/2014,2/27/2015,2/9/2015,18, ,WB,2/9/2015
5/13/2015,48065,BF15,BF1531 ,12.6,Broccoli,bravado,11/12/2014,2/28/2015,2/10/2015,18, , ,2/17/2015
5/13/2015,48134,BF49,BF4902 ,12.2,Cauliflower,paciencia,10/30/2014,3/1/2015,2/10/2015,19, , ,2/9/2015
5/13/2015,47856,BF11,BF1108 ,15.1,Cauliflower,paciencia,10/31/2014,3/2/2015,2/11/2015,19, , ,2/11/2015
5/13/2015,48200,BF27,BF2704 ,14.8,Broccoli,heritage,11/15/2014,3/3/2015,2/13/2015,18, ,"WB-4L 9.5""",2/16/2015
5/13/2015,47876,BF25,BF2507 ,13.6,Broccoli,avenger,11/10/2014,2/26/2015,2/15/2015,11, , ,2/15/2015
5/13/2015,48074,BF51,BF5102B,9.7,Cauliflower,paciencia,11/5/2014,3/7/2015,2/16/2015,19, ,"WB  14""",2/14/2015
5/13/2015,48066,BF15,BF1530 ,12.3,Broccoli,bravado,11/18/2014,3/5/2015,2/16/2015,17, , ,2/23/2015
5/13/2015,48082,BF10,BF1013 ,19.7,Cauliflower,paciencia,11/6/2014,3/8/2015,2/17/2015,19, , ,2/16/2015
5/13/2015,48136,BF14,BF1402 ,18.4,Cauliflower,paciencia,11/6/2014,3/8/2015,2/17/2015,19, ,"14""",2/14/2015
5/13/2015,48133,OF02,OF0201 ,10.3,Cauliflower,paciencia,11/7/2014,3/9/2015,2/18/2015,19, ,"13""",2/19/2015
5/13/2015,47881,BF25,BF2501 ,15.4,Broccoli,avenger,11/13/2014,3/1/2015,2/18/2015,11, , ,2/15/2015
5/13/2015,46732,BF72,BF7207 ,15.1,Cauliflower,paciencia,11/11/2014,3/12/2015,2/22/2015,18, ,"WB 17""",2/18/2015
5/13/2015,48199,BF27,BF2705 ,9.4,Broccoli,heritage,11/24/2014,3/11/2015,2/22/2015,17, ,"WB-4L 9.5""",2/26/2015
5/13/2015,47880,BF25,BF2502 ,14.4,Broccoli,avenger,11/17/2014,3/4/2015,2/22/2015,10, , ,2/24/2015
5/13/2015,49503,BF73,BF7308B,3.4,RomaineHearts,hrt delight,11/27/2014,4/5/2015,2/23/2015,41, ,"WB-5L  3.1""",3/14/2015
5/13/2015,49508,BF73,BF7308A,7.8,RomaineHearts,heavy heart,11/27/2014,4/5/2015,2/23/2015,41, ,"WB-5L  3.1""",3/12/2015
5/13/2015,49509,BF73,BF7307A,4.6,RomaineHearts,hrt delight,11/27/2014,4/5/2015,2/23/2015,41, ,"WB-5L  3.1""",3/16/2015
5/13/2015,48081,BF10,BF1014 ,19.6,Cauliflower,paciencia,11/12/2014,3/13/2015,2/24/2015,17, ,"14""",2/19/2015
5/13/2015,48071,BF15,BF1524 ,11.1,Broccoli,bravado,11/26/2014,3/13/2015,2/25/2015,16, , ,3/4/2015
5/13/2015,48076,BF51,BF5105 ,24,Cauliflower,paciencia,11/13/2014,3/14/2015,2/25/2015,17, ,"WB 17""",2/19/2015
5/13/2015,48080,BF10,BF1015 ,20.4,Cauliflower,paciencia,11/14/2014,3/15/2015,2/27/2015,16, ,"14""",2/21/2015
5/13/2015,48802,BF10,BF1008 ,16,Lettuce,vandenberg,11/28/2014,4/6/2015,2/28/2015,37, ,"3""",3/19/2015
5/13/2015,48625,BF51,BF5104B,22,Cauliflower,paciencia,11/15/2014,3/16/2015,2/28/2015,16, ,"14""",2/26/2015
5/13/2015,47879,BF25,BF2503 ,13.9,Broccoli,avenger,11/25/2014,3/12/2015,3/5/2015,7, , ,3/6/2015
5/13/2015,48139,BF15,BF1504 ,10.3,Cauliflower,paciencia,11/19/2014,3/19/2015,3/6/2015,13, ,"14""",3/6/2015
5/13/2015,48868,BF74,BF7401 ,11.2,Lettuce,vandenberg,12/26/2014,4/8/2015,3/10/2015,29, ,"WB-4L 12""",3/28/2015
5/13/2015,48307,BF51,BF5103 ,14.4,Broccoli,heritage,12/9/2014,3/25/2015,3/10/2015,15, , ,3/13/2015
5/13/2015,48867,BF74,BF7402 ,12.9,Lettuce,vandenberg,12/31/2014,4/13/2015,3/13/2015,31, ,"WB-4L 12""",3/24/2015
5/13/2015,48140,BF15,BF1503 ,9.5,Cauliflower,paciencia,11/28/2014,3/25/2015,3/15/2015,10, , ,3/14/2015
5/13/2015,49305,BF08,BF0804W ,16,Lettuce,vandenberg,1/2/2015,4/15/2015,3/16/2015,30, , ,3/30/2015
5/13/2015,48337,BF07,BF0704 ,22.1,Cauliflower,paciencia,11/29/2014,3/26/2015,3/16/2015,10, ,"WB  17""",3/16/2015
5/13/2015,49748,BF15,BF1521A,15.1,Lettuce,vandenberg,1/10/2015,4/16/2015,3/22/2015,25, , ,3/23/2015
5/13/2015,48827,BF14,BF1403A,4.4,RomaineHearts,hrt delight,1/21/2015,4/13/2015,3/23/2015,21, ,WB-5L,4/1/2015
5/13/2015,49954,BF14,BF1403B,3.3,RomaineHearts,rio bravo,1/21/2015,4/13/2015,3/23/2015,21, ,WB-5L,3/24/2015
5/13/2015,48803,BF10,BF1007A,9,Lettuce,vandenberg,12/13/2014,4/14/2015,3/24/2015,21, , ,3/26/2015
5/13/2015,49711,BF10,BF1007B,2.5,Lettuce,vail,12/13/2014,4/14/2015,3/24/2015,21, , ,3/27/2015
5/13/2015,48306,BF51,BF5106 ,17.9,Broccoli,heritage,12/26/2014,4/6/2015,3/26/2015,11, , ,4/1/2015
5/13/2015,48141,BF15,BF1502 ,7.5,Cauliflower,paciencia,12/9/2014,4/2/2015,3/26/2015,7, ,"13""",3/25/2015
5/13/2015,48822,BF25,BF2513 ,12.3,Broccoli,heritage,12/27/2014,4/7/2015,3/26/2015,12, , ,3/30/2015
5/13/2015,48319,BF20,BF2001 ,13.8,Broccoli,heritage,1/2/2015,4/11/2015,3/27/2015,15, , ,3/31/2015
5/13/2015,49886,BF08,BF0801 ,15.9,Lettuce,vandenberg,1/15/2015,4/21/2015,3/27/2015,25, , ,3/29/2015
5/13/2015,48338,BF06,BF0602 ,16.4,Cauliflower,paciencia,12/10/2014,4/3/2015,3/27/2015,7, ,WB,3/26/2015
5/13/2015,48339,BF06,BF0601 ,13.4,Cauliflower,paciencia,12/10/2014,4/3/2015,3/27/2015,7, ,WB,3/27/2015
5/13/2015,48762,BF27,BF2706A,7.3,Broccoli,heritage,1/3/2015,4/12/2015,3/27/2015,16, ,"WB-4L 10.5""",3/30/2015
5/13/2015,48766,BF27,BF2706B,6.7,Broccoli,bravado,1/3/2015,4/12/2015,3/27/2015,16, ,"WB-4L 10.5""",3/30/2015
5/13/2015,49952,BF14,BF1403D,8.4,RomaineHearts,heavy heart,1/26/2015,4/16/2015,3/28/2015,19, , ,3/31/2015
5/13/2015,49953,BF14,BF1403C,0.6,RomaineHearts,rio bravo,1/26/2015,4/16/2015,3/28/2015,19, , ,3/31/2015
5/13/2015,48866,BF74,BF7403A,9.4,Lettuce,vandenberg,1/16/2015,4/22/2015,3/28/2015,25, ,"WB-4L 12""",3/29/2015
5/13/2015,49887,BF74,BF7403B,3.6,Lettuce,showtime,1/16/2015,4/22/2015,3/28/2015,25, ,"WB-4L 12""",3/31/2015
5/13/2015,49502,BF73,BF7307B,7.6,RomaineHearts,heavy heart,12/28/2014,4/22/2015,3/28/2015,25, ,"3.1""",3/30/2015
5/13/2015,49789,BF73,BF7306B,8,RomaineHearts,hrt delight,12/28/2014,4/22/2015,3/28/2015,25, ,3.1',3/28/2015
5/13/2015,48318,BF20,BF2002 ,15.4,Broccoli,heritage,1/5/2015,4/14/2015,3/28/2015,17, , ,4/3/2015
5/13/2015,49181,BF01,BF0117 ,15.6,Broccoli,heritage,12/31/2014,4/9/2015,3/29/2015,11, ,"WB-4L 10.5""",3/28/2015
5/13/2015,49182,BF01,BF0116 ,16.6,Broccoli,heritage,1/6/2015,4/15/2015,3/29/2015,17, ,"WB-4L 10.5""",3/31/2015
5/13/2015,48761,BF27,BF2707A,7.2,Broccoli,heritage,1/8/2015,4/15/2015,3/31/2015,15, ,"WB-4L 10.5""",4/4/2015
5/13/2015,48765,BF27,BF2707B,7.2,Broccoli,bravado,1/8/2015,4/15/2015,3/31/2015,15, ,"WB-4L 10.5""",4/7/2015
5/13/2015,49353,BF07,BF0701A,5.3,RomaineHearts,hrt delight,1/30/2015,4/20/2015,4/1/2015,19, , ,4/1/2015
5/13/2015,49354,BF07,BF0701B,5.4,RomaineHearts,heavy heart,1/30/2015,4/20/2015,4/1/2015,19, , ,4/2/2015
5/13/2015,49961,BF14,BF1405A,8.4,RomaineHearts,hrt delight,2/3/2015,4/19/2015,4/1/2015,18, ,From North,4/8/2015
5/13/2015,49962,BF14,BF1405B,8.4,RomaineHearts,heavy heart,2/3/2015,4/19/2015,4/1/2015,18, , ,4/4/2015
5/13/2015,50295,BF14,BF1405C,3.4,RomaineHearts,rio bravo,2/3/2015,4/19/2015,4/1/2015,18, , ,4/7/2015
5/13/2015,49177,BF01,BF0111 ,15.6,Lettuce,vandenberg,1/2/2015,4/26/2015,4/4/2015,22, ,"WB-4L  3.1""",4/3/2015
5/13/2015,49355,BF07,BF0701C,3.9,RomaineHearts,hrt delight,2/6/2015,4/22/2015,4/4/2015,18, , ,4/10/2015
5/13/2015,49358,BF07,BF0701D,4.3,RomaineHearts,heavy heart,2/6/2015,4/22/2015,4/4/2015,18, , ,4/11/2015
5/13/2015,49183,BF01,BF0115 ,20.9,Broccoli,heritage,1/12/2015,4/19/2015,4/5/2015,14, ,"WB-4L 10.5""",4/9/2015
5/13/2015,49710,BF10,BF1007C,7,Lettuce,vail,1/4/2015,4/28/2015,4/5/2015,23, ,"2.8""",4/7/2015
5/13/2015,49742,BF25,BF2512 ,12.9,Broccoli,heritage,1/13/2015,4/20/2015,4/6/2015,14, , ,4/11/2015
5/13/2015,49747,BF15,BF1522 ,16.7,Lettuce,vandenberg,1/26/2015,4/24/2015,4/6/2015,18, , ,4/9/2015
5/13/2015,50124,BF15,BF1521B,5.1,Lettuce,vandenberg,1/26/2015,4/24/2015,4/6/2015,18, , ,4/13/2015
5/13/2015,48764,BF27,BF2708 ,14.5,Broccoli,heritage,1/16/2015,4/21/2015,4/9/2015,12, ,"WB-4L 10.5""",4/14/2015
5/13/2015,48804,BF10,BF1006A,7.3,Lettuce,vandenberg,12/31/2014,4/24/2015,4/9/2015,15, ,"2.8""",4/8/2015
5/13/2015,49783,BF10,BF1006B,7.3,Lettuce,vail,12/31/2014,4/24/2015,4/9/2015,15, ,"2.8""",4/8/2015
5/13/2015,50108,BF08,BF0803A,5.8,Lettuce,vandenberg,2/4/2015,4/26/2015,4/10/2015,16, , ,4/16/2015
5/13/2015,50298,BF08,BF0803B,10.5,Lettuce,vandenberg,2/4/2015,4/26/2015,4/10/2015,16, , ,4/15/2015
5/13/2015,50476,BF07,BF0701E,2.3,RomaineHearts,heavy heart,2/10/2015,4/26/2015,4/10/2015,16, , ,4/11/2015
5/13/2015,49969,BF08,BF0802 ,17.1,Lettuce,vandenberg,1/29/2015,4/27/2015,4/10/2015,17, , ,4/6/2015
5/13/2015,49746,BF15,BF1523 ,14.7,Lettuce,vandenberg,2/6/2015,4/28/2015,4/12/2015,16, , ,4/16/2015
5/13/2015,50361,BF14,BF1407B,8.9,RomaineHearts,heavy heart,2/12/2015,4/28/2015,4/12/2015,16, , ,4/10/2015
5/13/2015,50362,BF14,BF1407A,5.6,RomaineHearts,hrt delight,2/12/2015,4/28/2015,4/12/2015,16, ,From South,4/14/2015
5/13/2015,50360,BF14,BF1407C,3.5,RomaineHearts,rio bravo,2/12/2015,4/28/2015,4/12/2015,16, , ,4/15/2015
5/13/2015,48317,BF20,BF2003 ,14.3,Broccoli,heritage,1/19/2015,4/24/2015,4/12/2015,12, , ,4/18/2015
5/13/2015,48865,BF74,BF7404 ,12.4,Lettuce,vandenberg,1/31/2015,4/29/2015,4/13/2015,16, ,"WB-4L 12""",4/13/2015
5/13/2015,49494,BF73,BF7304A,7.7,RomaineHearts,hrt delight,2/13/2015,4/29/2015,4/13/2015,16, ,From West,4/14/2015
5/13/2015,49495,BF73,BF7304B,8.2,RomaineHearts,heavy heart,2/13/2015,4/29/2015,4/13/2015,16, , ,4/14/2015
5/13/2015,48142,BF15,BF1501 ,14.4,Cauliflower,paciencia,12/28/2014,4/17/2015,4/14/2015,3, , ,4/6/2015
5/13/2015,48805,BF10,BF1005A,8,Lettuce,vandenberg,1/12/2015,4/29/2015,4/14/2015,15, ,"2.8""",4/13/2015
5/13/2015,49872,BF10,BF1005B,3.1,Lettuce,vail,1/12/2015,4/29/2015,4/14/2015,15, ,"2.8""",4/13/2015
5/13/2015,48336,BF07,BF0705 ,21.5,Cauliflower,paciencia,12/29/2014,4/18/2015,4/15/2015,3, , ,4/8/2015
5/13/2015,49743,BF25,BF2511 ,15.9,Broccoli,heritage,1/22/2015,4/27/2015,4/15/2015,12, , ,4/20/2015
5/13/2015,49871,BF10,BF1005C,6.5,Lettuce,vail,1/15/2015,5/2/2015,4/17/2015,15, , ,4/13/2015
5/13/2015,48763,BF27,BF2709 ,14.6,Broccoli,heritage,1/27/2015,4/29/2015,4/20/2015,9, ,"WB-4L 10.5""",4/24/2015
5/13/2015,49178,BF01,BF0110 ,20.3,Lettuce,vandenberg,1/18/2015,5/5/2015,4/20/2015,15, ,"WB-4L  3.1""",4/13/2015
5/13/2015,49352,BF07,BF0702A,5.5,RomaineHearts,hrt delight,2/20/2015,5/1/2015,4/20/2015,11, ,WB-5L,4/17/2015
5/13/2015,49357,BF07,BF0702B,5.5,RomaineHearts,heavy heart,2/20/2015,5/1/2015,4/20/2015,11, ,WB-5L,4/17/2015
5/13/2015,48795,BF15,BF1507 ,9.7,Cauliflower,paciencia,1/5/2015,4/22/2015,4/20/2015,2, ,"13""",4/14/2015
5/13/2015,49315,BF17,BF1701B,5.8,Romaine,coastal star,2/21/2015,5/2/2015,4/21/2015,11, , ,4/15/2015
5/13/2015,49319,BF17,BF1701A,5.8,Romaine,rio bravo,2/21/2015,5/2/2015,4/21/2015,11, , ,4/16/2015
5/13/2015,48316,BF20,BF2004 ,14.1,Broccoli,heritage,1/29/2015,5/1/2015,4/22/2015,9, , ,4/25/2015
5/13/2015,48826,BF14,BF1404 ,9.3,RomaineHearts,heavy heart,1/26/2015,5/6/2015,4/23/2015,13, ,"WB-5L  3.1""",4/21/2015
5/13/2015,49934,BF14,BF1404B,11.1,RomaineHearts,hrt delight,1/26/2015,5/6/2015,4/23/2015,13, ,"WB-5L  3.1""",4/20/2015
5/13/2015,48864,BF74,BF7405 ,13.1,Lettuce,sure shot,2/14/2015,5/6/2015,4/23/2015,13, ,"WB-4L 12""",4/20/2015
5/13/2015,49179,BF01,BF0119 ,22.9,Broccoli,heritage,1/30/2015,5/2/2015,4/23/2015,9, ,"WB-4L 10.5""",4/21/2015
5/13/2015,48806,BF10,BF1004 ,16,Lettuce,reliant,1/24/2015,5/5/2015,4/23/2015,12, ,"2.8""",4/23/2015
5/13/2015,49493,BF73,BF7303B,6.9,RomaineHearts,hrt delight,2/24/2015,5/5/2015,4/24/2015,11, , ,4/22/2015
5/13/2015,49496,BF73,BF7303A,7.4,RomaineHearts,heavy heart,2/24/2015,5/5/2015,4/24/2015,11, , ,4/22/2015
5/13/2015,48801,BF04,BF0401A,11.3,Cauliflower,paciencia,1/9/2015,4/26/2015,4/24/2015,2, ,WB,4/18/2015
5/13/2015,49180,BF01,BF0118 ,19.8,Broccoli,heritage,2/6/2015,5/6/2015,4/28/2015,8, ,"WB-4L 10.5""",4/30/2015
5/13/2015,48797,BF04,BF0401B,10.5,Cauliflower,paciencia,1/14/2015,5/4/2015,4/29/2015,5, ,"WB 13""",4/23/2015
5/13/2015,49176,BF01,BF0112 ,16,Lettuce,vandenberg,1/28/2015,5/9/2015,4/29/2015,10, ,"WB-4L  3.1""",4/22/2015
5/13/2015,49350,BF07,BF0702C,5.2,RomaineHearts,hrt delight,3/2/2015,5/6/2015,4/29/2015,7, , ,4/28/2015
5/13/2015,49351,BF07,BF0702D,5.4,RomaineHearts,heavy heart,3/2/2015,5/6/2015,4/29/2015,7, , ,4/28/2015
5/13/2015,49314,BF17,BF1702A,2,Romaine,coastal star,3/7/2015,5/11/2015,4/29/2015,12, , ,4/24/2015
5/13/2015,49318,BF17,BF1702B,5,Romaine,inferno,3/7/2015,5/11/2015,4/29/2015,12, , ,4/29/2015
5/13/2015,50603,BF17,BF1702C,5,Romaine,sparx,3/7/2015,5/11/2015,4/29/2015,12, , ,4/25/2015
5/13/2015,48863,BF74,BF7406 ,12.2,Lettuce,vandenberg,2/25/2015,5/11/2015,4/30/2015,11, ,"WB-4L 12""",5/6/2015
5/13/2015,49279,BF29,BF2909A,8.9,Celery,mission-2510,1/14/2015,5/12/2015,5/1/2015,11, ,"WB 9""",NA
5/13/2015,48807,BF10,BF1003 ,18.9,Lettuce,reliant,2/5/2015,5/13/2015,5/2/2015,11, ,"2.8""",5/4/2015
5/13/2015,48315,BF20,BF2005 ,17,Broccoli,heritage,2/10/2015,5/10/2015,5/2/2015,8, , ,5/6/2015
5/13/2015,49175,BF01,BF0113 ,18,Lettuce,vandenberg,2/7/2015,5/15/2015,5/4/2015,11, ,"WB-4L  3.1""",4/30/2015
5/13/2015,48794,BF15,BF1508 ,8.2,Cauliflower,paciencia,1/21/2015,5/5/2015,5/5/2015, , ,"13""",4/25/2015
5/13/2015,49963,BF14,BF1406B,7.5,RomaineHearts,heavy heart,2/5/2015,5/10/2015,5/5/2015,5, ,"WB-5L  3.1""",4/24/2015
5/13/2015,49964,BF14,BF1406A,7.8,RomaineHearts,hrt delight,2/5/2015,5/10/2015,5/5/2015,5, ,"WB-5L  3.1""",4/28/2015
5/13/2015,49349,BF07,BF0703A,2.7,RomaineHearts,hrt delight,3/11/2015,5/13/2015,5/6/2015,7, ,WB,4/30/2015
5/13/2015,50712,BF07,BF0703B,2.7,RomaineHearts,heavy heart,3/11/2015,5/13/2015,5/6/2015,7, ,WB,5/1/2015
5/13/2015,49788,BF73,BF7305B,7.6,RomaineHearts,hrt delight,2/6/2015,5/11/2015,5/6/2015,5, ,"WB-5L  3.1""",4/27/2015
5/13/2015,49791,BF73,BF7305A,8,RomaineHearts,heavy heart,2/6/2015,5/11/2015,5/6/2015,5, ,"WB-5L  3.1""",4/24/2015
5/13/2015,49356,BF07,BF0703C,2.3,RomaineHearts,inferno,3/14/2015,5/16/2015,5/10/2015,6, ,WB,5/6/2015
5/13/2015,50720,BF07,BF0703D,2.7,RomaineHearts,stryker,3/14/2015,5/16/2015,5/10/2015,6, ,WB,5/7/2015
5/13/2015,49278,BF29,BF2909B,3.2,Celery,conquistdr,1/24/2015,5/18/2015,5/10/2015,8, ,"WB  8""",NA
5/13/2015,49281,BF29,BF2908A,2.8,Celery,mission-2510,1/24/2015,5/18/2015,5/10/2015,8, ,"8""",NA
5/13/2015,49932,BF29,BF2909C,8.5,Celery,mission-2510,1/24/2015,5/18/2015,5/10/2015,8, ,"WB  8""",NA
5/13/2015,48800,BF04,BF0402 ,11.3,Cauliflower,paciencia,1/27/2015,5/8/2015,5/10/2015, ,2,"13""",4/30/2015
5/13/2015,49313,BF17,BF1703B,6.3,Romaine,sparx,3/18/2015,5/20/2015,5/10/2015,10, , ,5/5/2015
5/13/2015,49317,BF17,BF1703A,6.4,Romaine,inferno,3/18/2015,5/20/2015,5/10/2015,10, , ,5/13/2015
5/13/2015,48314,BF20,BF2006 ,18.8,Broccoli,heritage,2/19/2015,5/16/2015,5/11/2015,5, , ,NA
5/13/2015,49296,BF15,BF1520 ,5.1,Broccoli,heritage,2/21/2015,5/18/2015,5/13/2015,5, , ,NA
5/13/2015,48793,BF15,BF1509 ,8.9,Cauliflower,paciencia,1/30/2015,5/11/2015,5/13/2015, ,2, ,5/8/2015
5/13/2015,48799,BF04,BF0403 ,14.4,Cauliflower,paciencia,2/5/2015,5/14/2015,5/14/2015, , , ,NA
5/13/2015,49184,BF10,BF1020 ,17.8,Cauliflower,paciencia,2/5/2015,5/14/2015,5/14/2015, , ,WB,NA
5/13/2015,49491,BF73,BF7301A,8.6,RomaineHearts,inferno,3/18/2015,5/20/2015,5/14/2015,6, , ,5/11/2015
5/13/2015,49498,BF73,BF7301B,8.1,RomaineHearts,stryker,3/18/2015,5/20/2015,5/14/2015,6, , ,5/12/2015
5/13/2015,49192,BF06,BF0603 ,13.2,Cauliflower,paciencia,1/31/2015,5/12/2015,5/14/2015, ,2,WB,5/8/2015
5/13/2015,49174,BF01,BF0114A,10,Lettuce,vandenberg,2/18/2015,5/25/2015,5/15/2015,10, ,"WB-4L  3.1""",NA
5/13/2015,49965,BF14,BF1408A,8,RomaineHearts,hrt delight,2/14/2015,5/15/2015,5/15/2015, , ,"WB-5L  3.1""",5/1/2015
5/13/2015,49967,BF14,BF1408B,8.5,RomaineHearts,heavy heart,2/14/2015,5/15/2015,5/15/2015, , ,"WB-5L  3.1""",5/1/2015
5/13/2015,50518,BF01,BF0114B,6.8,Lettuce,gunslinger,2/18/2015,5/25/2015,5/15/2015,10, ,"WB-4L  3.1""",5/8/2015
5/13/2015,50305,BF27,BF2710A,6.6,Broccoli,heritage,2/24/2015,5/18/2015,5/16/2015,2, ,WB,NA
5/13/2015,50587,BF27,BF2710B,7,Broccoli,heritage,2/24/2015,5/18/2015,5/16/2015,2, , ,NA
5/13/2015,49236,BF01,BF0109 ,16.5,Lettuce,vandenberg,2/20/2015,5/27/2015,5/18/2015,9, ,"WB-5L  North 54 Beds 3.1""  South 57 Beds 4""",5/9/2015
5/13/2015,49191,BF06,BF0604 ,11.7,Cauliflower,paciencia,2/10/2015,5/19/2015,5/19/2015, , ,WB,NA
5/13/2015,48792,BF15,BF1510 ,10.7,Cauliflower,paciencia,2/10/2015,5/19/2015,5/19/2015, , , ,NA
5/13/2015,49347,BF07,BF0703E,5.5,RomaineHearts,inferno,3/23/2015,5/23/2015,5/20/2015,3, , ,NA
5/13/2015,49348,BF07,BF0703F,5.1,RomaineHearts,stryker,3/23/2015,5/23/2015,5/20/2015,3, , ,NA
5/13/2015,50891,BF03,BF0310B,2.4,Romaine,stryker,3/30/2015,5/27/2015,5/21/2015,6, ,WB-5L,NA
5/13/2015,49276,BF29,BF2908C,9.7,Celery,mission-2510,2/3/2015,5/26/2015,5/22/2015,4, , ,NA
5/13/2015,49277,BF29,BF2908B,3.6,Celery,conquistdr,2/3/2015,5/26/2015,5/22/2015,4, , ,NA
5/13/2015,50890,BF03,BF0310C,1.3,Romaine,sparx,3/30/2015,5/27/2015,5/23/2015,4, ,WB-5L,NA
5/13/2015,50892,BF03,BF0310A,4.5,Romaine,inferno,3/30/2015,5/27/2015,5/23/2015,4, ,WB-5L,NA
5/13/2015,50110,BF07,BF0706B,10.4,RomaineHearts,inferno,3/1/2015,5/25/2015,5/23/2015,2, ,"WB-5L  3.1""",NA
5/13/2015,49492,BF73,BF7302B,7.4,RomaineHearts,stryker,3/27/2015,5/27/2015,5/24/2015,3, , ,NA
5/13/2015,49497,BF73,BF7302A,7.6,RomaineHearts,inferno,3/27/2015,5/27/2015,5/24/2015,3, , ,NA
5/13/2015,50116,BF15,BF1526A,6.7,RomaineHearts,inferno,3/2/2015,5/26/2015,5/24/2015,2, ,"WB-5L  3.1""",5/8/2015
5/13/2015,50122,BF15,BF1526B,6.7,RomaineHearts,stryker,3/2/2015,5/26/2015,5/24/2015,2, ,"WB-5L  3.1""",5/8/2015
5/13/2015,50107,BF08,BF0804EA,9.3,Lettuce,reliant,2/28/2015,5/31/2015,5/25/2015,6, ,"3.1""",NA
5/13/2015,50524,BF04,BF0405B,6.3,Cauliflower,paciencia,3/7/2015,6/5/2015,5/25/2015,11, , ,NA
5/13/2015,50594,BF08,BF0804EB,10.2,Lettuce,gunslinger,2/28/2015,5/31/2015,5/25/2015,6, ,"3.1""",NA
5/13/2015,50517,BF04,BF0404 ,7.5,Cauliflower,paciencia,2/16/2015,5/22/2015,5/25/2015, ,3, ,NA
5/13/2015,48313,BF20,BF2007N ,12.4,Broccoli,heritage,3/4/2015,5/26/2015,5/26/2015, , , ,NA
5/13/2015,50109,BF07,BF0706A,11.1,RomaineHearts,inferno,2/25/2015,5/25/2015,5/26/2015, ,1,"WB-5L  3.1""",NA
5/13/2015,49185,BF10,BF1019 ,16.8,Cauliflower,paciencia,2/17/2015,5/23/2015,5/26/2015, ,3,WB,NA
5/13/2015,50605,BF04,BF0405D,0.9,Cauliflower,aerospace,3/7/2015,5/24/2015,5/26/2015, ,2, ,NA
5/13/2015,50606,BF04,BF0405C,1.1,Cauliflower,bejo 293648,3/7/2015,5/24/2015,5/26/2015, ,2, ,NA
5/13/2015,49263,BF47,BF4701 ,12.2,Cauliflower,paciencia,2/18/2015,5/24/2015,5/27/2015, ,3,WB,NA
5/13/2015,48791,BF15,BF1511 ,11.3,Cauliflower,paciencia,2/19/2015,5/25/2015,5/28/2015, ,3, ,NA
5/13/2015,49190,BF06,BF0605 ,13.7,Cauliflower,paciencia,2/20/2015,5/26/2015,5/29/2015, ,3,WB,NA
5/13/2015,49505,BF73,BF7309B,7.5,RomaineHearts,stryker,3/9/2015,6/2/2015,5/29/2015,4, ,"WB-5L  3.1""",NA
5/13/2015,49507,BF73,BF7309A,8.3,RomaineHearts,inferno,3/9/2015,6/2/2015,5/29/2015,4, ,"WB-5L  3.1""",NA
5/13/2015,50860,BF01,BF0108B,3.4,Lettuce,sure shot,3/28/2015,6/5/2015,5/31/2015,5, ,"WB 12""  REPLANT",NA
5/13/2015,50530,BF49,BF4905 ,16.9,Lettuce,reliant,3/6/2015,6/5/2015,5/31/2015,5, ,"3.1""",NA
5/13/2015,49732,BF10,BF1009 ,13,Broccoli,avenger,3/7/2015,5/28/2015,6/1/2015, ,4, ,NA
5/13/2015,49274,BF29,BF2907A,1.1,Celery,conquistdr,2/13/2015,6/3/2015,6/1/2015,2, , ,NA
5/13/2015,49275,BF29,BF2908D,2.1,Celery,conquistdr,2/13/2015,6/3/2015,6/1/2015,2, , ,NA
5/13/2015,49282,BF29,BF2907B,9.5,Celery,mission-2510,2/13/2015,6/3/2015,6/1/2015,2, , ,NA
5/13/2015,49238,BF01,BF0107 ,18,Lettuce,vandenberg,3/11/2015,6/10/2015,6/1/2015,9, ,"WB-5L  3.1""",NA
5/13/2015,50536,BF03,BF0302B,9.8,RomaineHearts,stryker,3/12/2015,6/4/2015,6/1/2015,3, ,"WB  3.1""",NA
5/13/2015,50537,BF03,BF0302A,11.3,RomaineHearts,inferno,3/12/2015,6/4/2015,6/1/2015,3, ,"WB  3.1""",NA
5/13/2015,50525,BF04,BF0405A,7.7,Cauliflower,paciencia,2/24/2015,5/27/2015,6/2/2015, ,6, ,NA
5/13/2015,48790,BF15,BF1512 ,12.4,Cauliflower,absolute,3/14/2015,5/31/2015,6/2/2015, ,2,WB,NA
5/13/2015,50115,BF15,BF1527B,6.6,RomaineHearts,stryker,3/13/2015,6/5/2015,6/2/2015,3, ,"WB-5L  3.1""",NA
5/13/2015,50121,BF15,BF1527A,6.6,RomaineHearts,inferno,3/13/2015,6/5/2015,6/2/2015,3, ,"WB-5L  3.1""",NA
5/13/2015,50859,BF01,BF0108C,1.6,Lettuce,tellmark,3/28/2015,6/11/2015,6/2/2015,9, ,"WB 12""  REPLANT",NA
5/13/2015,49186,BF10,BF1018A,9.6,Cauliflower,paciencia,2/26/2015,5/29/2015,6/3/2015, ,5,WB,NA
5/13/2015,49189,BF06,BF0606 ,13.1,Cauliflower,absolute,3/16/2015,6/2/2015,6/4/2015, ,2,WB,NA
5/13/2015,50861,BF01,BF0108A,11.6,Lettuce,vandenberg,3/28/2015,6/5/2015,6/4/2015,1, ,"WB 12"" REPLANT",NA
5/13/2015,50523,BF17,BF1704A,5.6,Romaine,inferno,3/18/2015,6/10/2015,6/4/2015,6, ,"3.1""",NA
5/13/2015,49262,BF47,BF4702 ,13.3,Cauliflower,paciencia,2/28/2015,5/31/2015,6/5/2015, ,5,WB,NA
5/13/2015,50522,BF17,BF1704B,6.2,Romaine,sparx,3/18/2015,6/10/2015,6/5/2015,5, ,"3.1""",NA
5/13/2015,50529,BF49,BF4906A,7,Lettuce,gunslinger,3/18/2015,6/11/2015,6/6/2015,5, , ,NA
5/13/2015,49374,BF29,BF2906A,4.4,Celery,conquistdr,2/20/2015,6/8/2015,6/7/2015,1, , ,NA
5/13/2015,50363,BF29,BF2907 ,7.1,Celery,mission-2510,2/20/2015,6/8/2015,6/7/2015,1, , ,NA
5/13/2015,49366,BF10,BF1018B,9.2,Cauliflower,absolute,3/20/2015,6/4/2015,6/8/2015, ,4,WB,NA
5/13/2015,49504,BF73,BF7310B,7.4,RomaineHearts,stryker,3/19/2015,6/5/2015,6/8/2015, ,3,"WB-5L  3.1""",NA
5/13/2015,49506,BF73,BF7310A,7.4,RomaineHearts,inferno,3/19/2015,6/5/2015,6/8/2015, ,3,"WB-5L  3.1""",NA
5/13/2015,50741,BF49,BF4906B,7.1,Lettuce,reliant,3/18/2015,6/11/2015,6/11/2015, , , ,NA
5/13/2015,50562,BF03,BF0316 ,21,Lettuce,denali,3/18/2015,6/11/2015,6/11/2015, , ,"3.1""",NA
5/13/2015,49239,BF01,BF0106 ,18.4,Lettuce,vandenberg,3/22/2015,6/15/2015,6/11/2015,4, ,"WB-5L S:8.9AC 3.1""  N:9.5AC 4""",NA
5/13/2015,49372,BF29,BF2906B,3.7,Celery,mission-2510,2/27/2015,6/13/2015,6/13/2015, , , ,NA
5/13/2015,49373,BF29,BF2906C,8.7,Celery,conquistdr,2/27/2015,6/13/2015,6/13/2015, , , ,NA
5/13/2015,48789,BF15,BF1513A,6.9,Cauliflower,absolute,3/26/2015,6/8/2015,6/13/2015, ,5,WB,NA
5/13/2015,50535,BF03,BF0301B,8.1,RomaineHearts,stryker,3/25/2015,6/11/2015,6/13/2015, ,2,"WB-5L  3.1""",NA
5/13/2015,50538,BF03,BF0301A,10.4,RomaineHearts,inferno,3/25/2015,6/11/2015,6/13/2015, ,2,"WB-5L  3.1""",NA
5/13/2015,50393,BF12,BF1201A,6.1,Romaine,inferno,3/29/2015,6/15/2015,6/14/2015,1, ,"WB-5L  3.1""",NA
5/13/2015,50114,BF15,BF1528B,6.7,RomaineHearts,stryker,3/26/2015,6/12/2015,6/14/2015, ,2,"WB-5L  3.1""",NA
5/13/2015,50120,BF15,BF1528A,6.6,RomaineHearts,inferno,3/26/2015,6/12/2015,6/14/2015, ,2,"WB-5L  3.1""",NA
5/13/2015,50858,BF15,BF1513B,5.5,Cauliflower,absolute,3/28/2015,6/10/2015,6/15/2015, ,5,WB,NA
5/13/2015,49261,BF47,BF4703 ,14.6,Cauliflower,absolute,3/28/2015,6/10/2015,6/15/2015, ,5,WB,NA
5/13/2015,50386,BF12,BF1201B,6.1,Romaine,sparx,3/29/2015,6/15/2015,6/15/2015, , ,"WB-5L  3.1""",NA
5/13/2015,49674,BF27,BF2702 ,13.5,Lettuce,vandenberg,4/13/2015,6/16/2015,6/15/2015,1, ,"WB-4L  12""",NA
5/13/2015,50888,BF03,BF0310E,7.9,RomaineHearts,stryker,4/2/2015,6/16/2015,6/16/2015, , ,"WB-5L  3.1""",NA
5/13/2015,50889,BF03,BF0310D,7.7,RomaineHearts,inferno,4/2/2015,6/16/2015,6/16/2015, , ,"WB-5L  3.1""",NA
5/13/2015,50540,BF03,BF0304B,10.5,RomaineHearts,stryker,4/3/2015,6/17/2015,6/16/2015,1, ,"WB-5L  3.1""",NA
5/13/2015,50543,BF03,BF0304A,10.5,RomaineHearts,inferno,4/3/2015,6/17/2015,6/16/2015,1, ,"WB-5L  3.1""",NA
5/13/2015,50113,BF15,BF1529B,5.9,RomaineHearts,stryker,4/4/2015,6/18/2015,6/17/2015,1, ,"WB-5L  3.1""",NA
5/13/2015,50119,BF15,BF1529A,5.7,RomaineHearts,inferno,4/4/2015,6/18/2015,6/17/2015,1, ,"WB-5L  3.1""",NA
5/13/2015,50392,BF12,BF1202C,6,Romaine,sparx,4/8/2015,6/22/2015,6/17/2015,5, ,"WB-5L  3.1""",NA
5/13/2015,49188,BF06,BF0607 ,12.2,Cauliflower,absolute,3/31/2015,6/13/2015,6/17/2015, ,4,WB,NA
5/13/2015,50532,BF49,BF4903 ,10.6,Lettuce,reliant,3/27/2015,6/17/2015,6/19/2015, ,2, ,NA
5/13/2015,49936,BF25,BF2509 ,14.7,Broccoli,avenger,3/27/2015,6/14/2015,6/19/2015, ,5, ,NA
5/13/2015,49187,BF06,BF0608 ,12.1,Cauliflower,absolute,4/2/2015,6/15/2015,6/19/2015, ,4,WB,NA
5/13/2015,48788,BF15,BF1514 ,12.2,Cauliflower,absolute,4/2/2015,6/15/2015,6/19/2015, ,4,WB,NA
5/13/2015,50563,BF03,BF0315 ,20.5,Lettuce,denali,3/27/2015,6/17/2015,6/19/2015, ,2,"3.1""",NA
5/13/2015,50384,BF12,BF1202A,1.4,Romaine,inferno,4/8/2015,6/22/2015,6/20/2015,2, ,"WB-5L  3.1""",NA
5/13/2015,50385,BF12,BF1201C,4.6,Romaine,inferno,4/8/2015,6/22/2015,6/20/2015,2, ,"WB-5L  3.1""",NA
5/13/2015,49558,BF72,BF7201 ,13.3,Lettuce,denali,4/21/2015,6/23/2015,6/22/2015,1, ,"WB-4L 12""",NA
5/13/2015,50763,BF29,BF2913A,8.2,RomaineHearts,inferno,4/11/2015,6/24/2015,6/22/2015,2, ,"WB-5L  3.1""",NA
5/13/2015,50764,BF29,BF2913B,8,RomaineHearts,stryker,4/11/2015,6/24/2015,6/22/2015,2, ,"WB-5L  3.1""",NA
5/13/2015,49673,BF27,BF2703A,13.1,Lettuce,vandenberg,4/22/2015,6/24/2015,6/23/2015,1, ,"WB-4L 12""",NA
5/13/2015,49260,BF47,BF4704 ,13.8,Cauliflower,absolute,4/8/2015,6/19/2015,6/24/2015, ,5,WB,NA
5/13/2015,50541,BF03,BF0303B,10.5,RomaineHearts,stryker,4/13/2015,6/26/2015,6/24/2015,2, ,"WB-5L  3.1""",NA
5/13/2015,50544,BF03,BF0303A,13.5,RomaineHearts,inferno,4/13/2015,6/26/2015,6/24/2015,2, ,"WB-5L  3.1""",NA
5/13/2015,49935,BF25,BF2510 ,15.4,Broccoli,avenger,4/4/2015,6/20/2015,6/24/2015, ,4, ,NA
5/13/2015,49951,BF11,BF1101 ,14.2,Cauliflower,absolute,4/9/2015,6/20/2015,6/24/2015, ,4,WB,NA
5/13/2015,49371,BF29,BF2906D,3.1,Celery,conquistdr,3/10/2015,6/22/2015,6/25/2015, ,3, ,NA
5/13/2015,49375,BF29,BF2905A,9.8,Celery,mission-2510,3/10/2015,6/22/2015,6/25/2015, ,3, ,NA
5/13/2015,48787,BF15,BF1515 ,10.8,Cauliflower,absolute,4/10/2015,6/21/2015,6/25/2015, ,4,WB,NA
5/13/2015,50382,BF12,BF1202D,2,Romaine,sparx,4/18/2015,7/1/2015,6/25/2015,6, ,"WB  3.1""",NA
5/13/2015,50391,BF12,BF1203A,4,Romaine,sparx,4/18/2015,7/1/2015,6/25/2015,6, ,"WB  3.1""",NA
5/13/2015,50112,BF15,BF1532B,7.6,RomaineHearts,stryker,4/15/2015,6/28/2015,6/26/2015,2, ,"WB-5L  3.1""",NA
5/13/2015,50118,BF15,BF1532A,7.7,RomaineHearts,inferno,4/15/2015,6/28/2015,6/26/2015,2, ,"WB-5L  3.1""",NA
5/13/2015,50934,OF02,OF0204B,6.5,Lettuce,gunslinger,4/16/2015,7/4/2015,6/27/2015,7, ,"3""",NA
5/13/2015,50761,BF29,BF2913C,3.2,RomaineHearts,inferno,4/17/2015,6/30/2015,6/27/2015,3, ,"WB-5L  3.1""",NA
5/13/2015,50762,BF29,BF2913D,2.8,RomaineHearts,stryker,4/17/2015,6/30/2015,6/27/2015,3, ,"WB-5L  3.1""",NA
5/13/2015,50765,BF29,BF2912A,4.8,RomaineHearts,inferno,4/17/2015,6/30/2015,6/27/2015,3, ,"WB-5L  3.1""",NA
5/13/2015,50936,BF29,BF2912B,4.2,RomaineHearts,stryker,4/17/2015,6/30/2015,6/27/2015,3, ,"WB-5L  3.1""",NA
5/13/2015,49670,BF27,BF2703B,1.8,Lettuce,vandenberg,4/27/2015,6/29/2015,6/28/2015,1, ,"WB-4L 12""",NA
5/13/2015,49672,BF27,BF2704A,12.6,Lettuce,vandenberg,4/27/2015,6/29/2015,6/28/2015,1, ,"WB-4L 12""",NA
5/13/2015,50383,BF12,BF1202C,6,Romaine,inferno,4/18/2015,7/1/2015,6/28/2015,3, ,"WB  3.1""",NA
5/13/2015,50531,BF49,BF4904 ,11,Lettuce,9238,4/4/2015,6/24/2015,6/29/2015, ,5, ,NA
5/13/2015,50542,BF03,BF0305A,11.8,RomaineHearts,stryker,4/19/2015,6/30/2015,6/29/2015,1, ,"WB-5L  3.1""",NA
5/13/2015,50939,BF03,BF0303N ,9,RomaineHearts,inferno,4/19/2015,6/30/2015,6/29/2015,1, ,"WB-5L  3.1""",NA
5/13/2015,49259,BF47,BF4705 ,13.1,Cauliflower,absolute,4/15/2015,6/24/2015,6/29/2015, ,5,WB,NA
5/13/2015,49943,BF48,BF4801 ,14.1,Broccoli,heritage,4/9/2015,6/23/2015,6/29/2015, ,6, ,NA
5/13/2015,49950,BF11,BF1102 ,15.9,Cauliflower,absolute,4/16/2015,6/25/2015,6/30/2015, ,5,WB,NA
5/13/2015,50675,BF11,BF1105 ,13.6,Lettuce,denali,4/1/2015,6/22/2015,7/1/2015, ,9, ,NA
5/13/2015,50111,BF15,BF1533B,0.4,RomaineHearts,solid king,4/22/2015,7/3/2015,7/1/2015,2, ,"WB-5L  3.1""",NA
5/13/2015,50117,BF15,BF1533A,6.8,RomaineHearts,inferno,4/22/2015,7/3/2015,7/1/2015,2, ,"WB-5L  3.1""",NA
5/13/2015,50947,BF15,BF1533C,7.9,RomaineHearts,stryker,4/22/2015,7/3/2015,7/1/2015,2, ,"WB-5L  3.1""",NA
5/13/2015,50380,BF12,BF1203C,3.3,Romaine,sparx,4/25/2015,7/6/2015,7/2/2015,4, ,"WB-5L  3.1""",NA
5/13/2015,50390,BF12,BF1204A,2.5,Romaine,sparx,4/25/2015,7/6/2015,7/2/2015,4, ,"WB-5L  3.1""",NA
5/13/2015,50564,BF03,BF0314 ,21,Lettuce,denali,4/3/2015,6/24/2015,7/2/2015, ,8,"3.1""",NA
5/13/2015,50528,BF49,BF4907 ,15,Lettuce,telluride,4/13/2015,7/1/2015,7/2/2015, ,1, ,NA
5/13/2015,50561,BF11,BF1103 ,10.3,Cauliflower,absolute,4/20/2015,6/29/2015,7/3/2015, ,4,WB,NA
5/13/2015,50701,BF15,BF1504B,5.4,RomaineHearts,stryker,4/24/2015,7/5/2015,7/3/2015,2, ,"WB-5L  3.1""",NA
5/13/2015,50707,BF15,BF1504A,5.3,RomaineHearts,inferno,4/24/2015,7/5/2015,7/3/2015,2, ,"WB-5L  3.1""",NA
5/13/2015,50759,BF29,BF2912C,6.5,RomaineHearts,inferno,4/25/2015,7/6/2015,7/4/2015,2, ,"WB-5L  3.1""",NA
5/13/2015,50760,BF29,BF2912D,6.4,RomaineHearts,stryker,4/25/2015,7/6/2015,7/4/2015,2, ,"WB-5L  3.1""",NA
5/13/2015,50381,BF12,BF1203B,5.8,Romaine,inferno,4/25/2015,7/6/2015,7/4/2015,2, ,"WB-5L  3.1""",NA
5/13/2015,49369,BF29,BF2905C,4.8,Celery,mission-2510,3/21/2015,6/29/2015,7/4/2015, ,5, ,NA
5/13/2015,49370,BF29,BF2905B,4,Celery,conquistdr,3/21/2015,6/29/2015,7/4/2015, ,5, ,NA
5/13/2015,49376,BF29,BF2904A,4.2,Celery,mission-2510,3/21/2015,6/29/2015,7/4/2015, ,5, ,NA
5/13/2015,50727,OF02,OF0202 ,10.8,Lettuce,9238,4/7/2015,6/27/2015,7/4/2015, ,7, ,NA
5/13/2015,49942,BF48,BF4802 ,14.2,Broccoli,heritage,4/16/2015,6/30/2015,7/4/2015, ,4, ,NA
5/13/2015,50673,BF11,BF1107 ,14,Lettuce,telluride,4/16/2015,7/4/2015,7/5/2015, ,1,"3.1""",NA
5/13/2015,50674,BF11,BF1106 ,15.7,Lettuce,denali,4/8/2015,6/28/2015,7/5/2015, ,7,"3.1""",NA
5/13/2015,50547,BF10,BF1008 ,15.7,Cauliflower,absolute,4/23/2015,6/30/2015,7/6/2015, ,6,WB,NA
5/13/2015,49257,BF47,BF4707 ,10.3,Cauliflower,absolute,4/24/2015,7/1/2015,7/7/2015, ,6,WB,NA
5/13/2015,49258,BF47,BF4706 ,2.6,Cauliflower,absolute,4/24/2015,7/1/2015,7/7/2015, ,6,WB,NA
5/13/2015,49557,BF72,BF7202 ,13.9,Lettuce,denali,4/11/2015,7/1/2015,7/7/2015, ,6,"WB-5L  4""",NA
5/13/2015,50539,BF03,BF0305B,4.6,RomaineHearts,inferno,4/29/2015,7/9/2015,7/8/2015,1, , ,NA
5/13/2015,51288,BF03,BF0305C,4.7,RomaineHearts,stryker,4/29/2015,7/9/2015,7/8/2015,1, , ,NA
5/13/2015,50726,OF02,OF0203 ,11.5,Lettuce,9238,4/12/2015,6/30/2015,7/8/2015, ,8, ,NA
5/13/2015,50565,BF03,BF0313 ,20,Lettuce,denali,4/12/2015,6/30/2015,7/8/2015, ,8,"3.1""",NA
5/13/2015,50944,BF48,BF4803D,1.6,Broccoli,sv 1771,4/23/2015,7/6/2015,7/9/2015, ,3, ,NA
5/13/2015,50945,BF48,BF4803C,1.6,Broccoli,covina,4/23/2015,7/6/2015,7/9/2015, ,3, ,NA
5/13/2015,50946,BF48,BF4803B,1.6,Broccoli,durapak,4/23/2015,7/6/2015,7/9/2015, ,3, ,NA
5/13/2015,50758,BF29,BF2911A,8.4,RomaineHearts,inferno,5/1/2015,7/11/2015,7/9/2015,2, ,"WB-5L  3.1""",NA
5/13/2015,50766,BF29,BF2911B,8.3,RomaineHearts,stryker,5/1/2015,7/11/2015,7/9/2015,2, ,"WB-5L  3.1""",NA
5/13/2015,50672,BF11,BF1108 ,15.2,Lettuce,telluride,4/22/2015,7/9/2015,7/10/2015, ,1, ,NA
5/13/2015,50560,BF15,BF1524 ,10.8,Cauliflower,absolute,4/28/2015,7/5/2015,7/10/2015, ,5,WB,NA
5/13/2015,50376,BF12,BF1205A,0.7,Romaine,sparx,5/3/2015,7/13/2015,7/10/2015,3, ,"WB-5L  3.1""",NA
5/13/2015,50379,BF12,BF1204C,5.1,Romaine,sparx,5/3/2015,7/13/2015,7/10/2015,3, ,"WB-5L  3.1""",NA
5/13/2015,49941,BF48,BF4803A,9.2,Broccoli,heritage,4/23/2015,7/6/2015,7/10/2015, ,4, ,NA
5/13/2015,50700,BF15,BF1503B,4.5,RomaineHearts,stryker,5/3/2015,7/13/2015,7/11/2015,2, , ,NA
5/13/2015,50708,BF15,BF1503A,4.5,RomaineHearts,inferno,5/3/2015,7/13/2015,7/11/2015,2, , ,NA
5/13/2015,50548,BF10,BF1007 ,18.2,Cauliflower,absolute,4/29/2015,7/6/2015,7/11/2015, ,5,WB,NA
5/13/2015,50725,OF02,OF0204A,6,Lettuce,9238,4/16/2015,7/4/2015,7/11/2015, ,7,"3""",NA
5/13/2015,49367,BF29,BF2904B,9.3,Celery,mission-2510,3/30/2015,7/6/2015,7/12/2015, ,6, ,NA
5/13/2015,49368,BF29,BF2904C,4.2,Celery,conquistdr,3/30/2015,7/6/2015,7/12/2015, ,6, ,NA
5/13/2015,50948,BF03,BF0312B,10.6,Lettuce,stagecoach,4/22/2015,7/9/2015,7/12/2015, ,3, ,NA
5/13/2015,50378,BF12,BF1204B,5.8,Romaine,inferno,5/3/2015,7/13/2015,7/12/2015,1, ,"WB-5L  3.1""",NA
5/13/2015,50687,BF51,BF5101 ,17.5,Lettuce,denali,4/18/2015,7/6/2015,7/13/2015, ,7,"WB-5L  3.1""",NA
5/13/2015,49556,BF72,BF7203 ,13.5,Lettuce,denali,4/20/2015,7/8/2015,7/15/2015, ,7,"WB-5L  3.1""",NA
5/13/2015,50950,BF51,BF5102B,10.7,Lettuce,stagecoach,4/25/2015,7/12/2015,7/15/2015, ,3,"WB-5L  3.1""",NA
5/13/2015,50566,BF03,BF0312A,10.7,Lettuce,denali,4/22/2015,7/9/2015,7/16/2015, ,7, ,NA
5/13/2015,49940,BF48,BF4804 ,14.1,Broccoli,heritage,4/30/2015,7/13/2015,7/16/2015, ,3, ,NA
5/13/2015,50724,OF02,OF0205A,6.2,Lettuce,9238,4/24/2015,7/11/2015,7/18/2015, ,7, ,NA
5/13/2015,50949,OF02,OF0205B,6.8,Lettuce,denali,4/24/2015,7/11/2015,7/18/2015, ,7, ,NA
5/13/2015,50527,BF49,BF4908 ,11.2,Lettuce,9238,4/29/2015,7/16/2015,7/18/2015, ,2, ,NA
5/13/2015,50686,BF51,BF5102A,10,Lettuce,denali,4/25/2015,7/12/2015,7/19/2015, ,7,"WB-5L  3.1""",NA
5/13/2015,51289,BF51,BF5104B,12.3,Lettuce,stagecoach,5/1/2015,7/18/2015,7/20/2015, ,2,"WB-5L  3.1""",NA
5/13/2015,49984,BF01,BF0103 ,17.8,Lettuce,denali,4/26/2015,7/13/2015,7/20/2015, ,7,"WB-5L 3.1""",NA
5/13/2015,49555,BF72,BF7204 ,15.5,Lettuce,denali,4/26/2015,7/13/2015,7/20/2015, ,7,"WB-4L  4""",NA
5/13/2015,50684,BF51,BF5104A,12.6,Lettuce,denali,5/1/2015,7/18/2015,7/22/2015, ,4,"WB-5L  3.1""",NA
5/13/2015,50728,OF02,OF0201 ,10.3,Lettuce,9238,5/2/2015,7/19/2015,7/23/2015, ,4, ,NA
5/13/2015,50567,BF03,BF0311 ,22.7,Lettuce,denali,4/30/2015,7/17/2015,7/23/2015, ,6, ,NA
5/13/2015,49554,BF72,BF7205 ,15.6,Lettuce,denali,5/3/2015,7/20/2015,7/24/2015, ,4,"WB-5L  3.1""",NA
5/13/2015,49985,BF01,BF0102 ,17.1,Lettuce,denali,5/4/2015,7/21/2015,7/25/2015, ,4,"WB-5L 3.1""",NA
5/13/2015,47840,MN57,MN5704 ,9.2,Broccoli,bravado,10/17/2014,2/2/2015,1/23/2015,10, , ,1/29/2015
5/13/2015,47841,MN57,MN5703 ,9,Broccoli,heritage,10/24/2014,2/9/2015,1/31/2015,9, , ,2/4/2015
5/13/2015,47842,MN57,MN5702 ,8,Broccoli,heritage,10/31/2014,2/16/2015,2/9/2015,7, , ,2/7/2015
5/13/2015,47845,MN57,MN5716 ,8.7,Broccoli,bravado,11/6/2014,2/22/2015,2/9/2015,13, , ,2/17/2015
5/13/2015,47846,MN57,MN5715 ,8.9,Broccoli,bravado,11/7/2014,2/23/2015,2/10/2015,13, , ,2/19/2015
5/13/2015,47843,MN57,MN5701 ,7.3,Broccoli,heritage,11/11/2014,2/27/2015,2/14/2015,13, , ,2/16/2015
5/13/2015,47844,MN57,MN5717 ,8.2,Broccoli,heritage,11/14/2014,3/2/2015,2/18/2015,12, , ,2/20/2015
5/13/2015,48138,MN57,MN5708 ,8.5,Cauliflower,paciencia,11/7/2014,3/9/2015,2/18/2015,19, ,"14""",2/18/2015
5/13/2015,47850,MN57,MN5711 ,9.8,Broccoli,heritage,11/22/2014,3/9/2015,2/27/2015,10, , ,3/4/2015
5/13/2015,48137,MN57,MN5718A,6.1,Cauliflower,paciencia,11/18/2014,3/18/2015,3/4/2015,14, ,"14""",3/10/2015
5/13/2015,49516,MN57,MN5718B,3.5,Cauliflower,paciencia,11/18/2014,3/18/2015,3/4/2015,14, ,"14""",3/10/2015
5/13/2015,47849,MN57,MN5712A,5.9,Broccoli,heritage,11/28/2014,3/15/2015,3/6/2015,9, , ,3/3/2015
5/13/2015,49518,MN57,MN5712B,3.8,Broccoli,heritage,11/28/2014,3/15/2015,3/6/2015,9, , ,3/3/2015
5/13/2015,48325,MN56,MN5601 ,10.2,Cauliflower,paciencia,11/20/2014,3/20/2015,3/7/2015,13, ,"14""",3/17/2015
5/13/2015,47848,MN57,MN5713 ,9.3,Broccoli,heritage,12/8/2014,3/24/2015,3/9/2015,15, , ,3/13/2015
5/13/2015,48324,MN56,MN5602 ,10.4,Cauliflower,paciencia,11/29/2014,3/26/2015,3/15/2015,11, , ,3/19/2015
5/13/2015,48323,MN56,MN5603 ,13.1,Cauliflower,paciencia,12/10/2014,4/3/2015,3/22/2015,12, ,"13""",3/23/2015
5/13/2015,47847,MN57,MN5714 ,9.1,Broccoli,bravado,1/9/2015,4/16/2015,4/6/2015,10, , ,4/13/2015
5/13/2015,48321,MN56,MN5605 ,10.4,Cauliflower,paciencia,12/30/2014,4/21/2015,4/9/2015,12, , ,4/15/2015
5/13/2015,48322,MN56,MN5604 ,10.2,Cauliflower,paciencia,1/6/2015,4/23/2015,4/19/2015,4, ,"13""",4/17/2015
5/13/2015,48320,MN56,MN5606 ,9.3,Cauliflower,paciencia,1/22/2015,5/9/2015,5/3/2015,6, , ,4/30/2015
5/13/2015,49745,MN58,MN5805 ,16,Broccoli,heritage,3/25/2015,6/12/2015,6/15/2015, ,3, ,NA
5/13/2015,49735,MN57,MN5707 ,8.8,Broccoli,avenger,3/24/2015,6/11/2015,6/16/2015, ,5, ,NA
5/13/2015,49736,MN57,MN5706 ,9.1,Broccoli,avenger,4/4/2015,6/20/2015,6/22/2015, ,2, ,NA
5/13/2015,49744,MN58,MN5806 ,14.8,Broccoli,heritage,4/2/2015,6/18/2015,6/23/2015, ,5, ,NA
5/13/2015,49737,MN57,MN5705 ,9,Broccoli,avenger,4/9/2015,6/23/2015,6/25/2015, ,2, ,NA
5/13/2015,49939,MN57,MN5715 ,9.1,Broccoli,heritage,4/6/2015,6/22/2015,6/26/2015, ,4, ,NA
5/13/2015,50568,MN57,MN5714 ,9,Broccoli,avenger,4/18/2015,7/1/2015,7/2/2015, ,1, ,NA
5/13/2015,49938,MN57,MN5716 ,8.6,Broccoli,heritage,4/15/2015,6/29/2015,7/3/2015, ,4, ,NA
5/13/2015,49937,MN57,MN5717 ,8.7,Broccoli,heritage,4/22/2015,7/5/2015,7/9/2015, ,4, ,NA
5/13/2015,49739,MN57,MN5703 ,9.1,Broccoli,heritage,4/27/2015,7/10/2015,7/13/2015, ,3, ,NA
5/13/2015,50692,MN57,MN5708 ,8.9,Lettuce,9238,4/26/2015,7/13/2015,7/19/2015, ,6,"3.1""",NA
5/13/2015,50691,MN57,MN5709 ,9.3,Lettuce,9238,5/3/2015,7/20/2015,7/19/2015,1, , ,NA
5/13/2015,48148,BF45,BF4501 ,13.1,Cauliflower,paciencia,11/10/2014,3/11/2015,2/24/2015,15, ,"WB-3L  17""",2/16/2015
5/13/2015,48147,BF45,BF4502 ,13.1,Cauliflower,paciencia,11/18/2014,3/18/2015,3/8/2015,10, ,"WB-3L 17""",3/3/2015
5/13/2015,48146,BF45,BF4503 ,12.7,Cauliflower,paciencia,11/28/2014,3/25/2015,3/18/2015,7, ,"WB-3L 17""",3/17/2015
5/13/2015,48143,BF45,BF4506 ,12.1,Cauliflower,paciencia,12/11/2014,4/4/2015,3/31/2015,4, ,"WB-3L 15""",3/24/2015
5/13/2015,48145,BF45,BF4504 ,12.9,Cauliflower,paciencia,12/26/2014,4/19/2015,4/15/2015,4, ,"WB-3L 17""",4/3/2015
5/13/2015,48144,BF45,BF4505 ,12.5,Cauliflower,paciencia,1/9/2015,4/26/2015,4/26/2015, , ,"WB-3L 17""",4/17/2015
5/13/2015,49255,BF46,BF4601 ,13.5,Broccoli,heritage,2/3/2015,5/6/2015,4/27/2015,9, , ,4/30/2015
5/13/2015,48769,BF45,BF4507 ,11.5,Cauliflower,paciencia,1/20/2015,5/4/2015,5/6/2015, ,2,"WB-3L 17""",4/23/2015
5/13/2015,49254,BF46,BF4602 ,12.5,Broccoli,heritage,2/14/2015,5/11/2015,5/8/2015,3, ,WB,5/9/2015
5/13/2015,48768,BF45,BF4508 ,11.6,Cauliflower,paciencia,1/29/2015,5/10/2015,5/15/2015, ,5,"WB-3L 17""",5/3/2015
5/13/2015,48767,BF45,BF4509 ,11.1,Cauliflower,paciencia,2/10/2015,5/19/2015,5/21/2015, ,2,"WB-3L 17""",NA
5/13/2015,50595,BF42,BF4203B,4.9,Lettuce,vandenberg,2/28/2015,5/31/2015,5/26/2015,5, ,"WB-4L  3.1""",NA
5/13/2015,49224,BF42,BF4203A,4.9,Lettuce,gunslinger,2/28/2015,5/31/2015,5/27/2015,4, ,"WB-4L  3.1""",NA
5/13/2015,49253,BF46,BF4603 ,12.9,Broccoli,heritage,3/6/2015,5/27/2015,5/29/2015, ,2,WB,NA
5/13/2015,50721,BF42,BF4204B,4.5,Lettuce,gunslinger,3/12/2015,6/5/2015,6/1/2015,4, ,"WB-4L  3.1""",NA
5/13/2015,49251,BF46,BF4605 ,12.8,Broccoli,heritage,3/20/2015,6/8/2015,6/10/2015, ,2,WB,NA
5/13/2015,49222,BF42,BF4205 ,9.7,Lettuce,vandenberg,3/23/2015,6/16/2015,6/13/2015,3, ,"WB-4L  3.1""",NA
5/13/2015,49250,BF46,BF4606 ,12.9,Broccoli,heritage,4/11/2015,6/25/2015,7/1/2015, ,6,"WB-4L  18 Bds 10.5""  36 Bds 10""",NA
5/13/2015,49249,BF46,BF4607 ,14,Broccoli,heritage,4/18/2015,7/1/2015,7/6/2015, ,5,"WB-4L 10""",NA
5/13/2015,49248,BF46,BF4608 ,13.5,Broccoli,heritage,4/24/2015,7/7/2015,7/12/2015, ,5,"WB-4L 10""",NA
5/13/2015,49981,BF45,BF4501 ,13,Celery,sonora,5/1/2015,8/3/2015,8/5/2015, ,2, ,NA
5/13/2015,48198,BF77,BF7705 ,10,Broccoli,heritage,10/21/2014,2/6/2015,1/26/2015,11, ,"WB 9.5""",1/26/2015
5/13/2015,48204,BF77,BF7706 ,11.1,Broccoli,marathon,10/21/2014,2/6/2015,1/27/2015,10, ,"WB 9.5""",1/23/2015
5/13/2015,49227,BF76,BF7609A,5.7,Lettuce,vandenberg,2/12/2015,5/20/2015,5/11/2015,9, ,"WB-4L  3.1""",5/7/2015
5/13/2015,50366,BF76,BF7609B,5.1,Lettuce,gunslinger,2/12/2015,5/20/2015,5/11/2015,9, ,"WB-4L  3.1""",5/7/2015
5/13/2015,49228,BF76,BF7608 ,11.5,Lettuce,vandenberg,2/21/2015,5/24/2015,5/20/2015,4, ,"WB-4L  3.1""",NA
5/13/2015,49229,BF76,BF7607 ,10.5,Lettuce,vandenberg,3/1/2015,6/1/2015,5/26/2015,6, ,"WB-4L  3.1""",NA
5/13/2015,49548,BF77,BF7706 ,10.7,Broccoli,heritage,4/1/2015,6/17/2015,6/24/2015, ,7,"WB-4L 10""",NA
5/13/2015,49549,BF77,BF7705 ,10.7,Broccoli,heritage,4/1/2015,6/17/2015,6/24/2015, ,7,"WB-4L 10""",NA
5/13/2015,49230,BF76,BF7606 ,12.4,Lettuce,vandenberg,4/2/2015,6/23/2015,6/25/2015, ,2,"WB-4L  3.1""",NA
5/13/2015,49232,BF76,BF7604A,6.5,Lettuce,gunslinger,4/18/2015,7/6/2015,6/29/2015,7, ,"WB-4L  3.1""",NA
5/13/2015,49231,BF76,BF7605 ,13.3,Lettuce,vandenberg,4/10/2015,6/30/2015,7/1/2015, ,1,"WB-4L  3.1""",NA
5/13/2015,50938,BF76,BF7604B,6.2,Lettuce,vandenberg,4/18/2015,7/6/2015,7/7/2015, ,1,"WB-4L  3.1""",NA
5/13/2015,50756,BF75,BF7501 ,14.1,Broccoli,heritage,4/27/2015,7/10/2015,7/14/2015, ,4,"WB-4L 10""",NA
5/13/2015,49970,BF76,BF7603A,2.8,Celery,conquistdr,4/8/2015,7/13/2015,7/23/2015, ,10, ,NA
5/13/2015,50898,BF76,BF7603B,10.5,Celery,mission-2510,4/8/2015,7/13/2015,7/23/2015, ,10, ,NA
5/13/2015,50755,BF75,BF7502 ,14.5,Broccoli,heritage,5/2/2015,7/14/2015,7/24/2015, ,10,"WB-4L 10""",NA
5/13/2015,49972,BF76,BF7601 ,12.1,Celery,sonora,4/23/2015,7/26/2015,7/30/2015, ,4,WB,NA
5/13/2015,49971,BF76,BF7602A,3.3,Celery,conquistdr,4/18/2015,7/21/2015,7/30/2015, ,9,WB,NA
5/13/2015,50933,BF76,BF7602B,7.8,Celery,mission-2510,4/18/2015,7/21/2015,7/30/2015, ,9,WB,NA
5/13/2015,49286,OF03,OF0301 ,12.9,Broccoli,heritage,2/5/2015,5/5/2015,5/3/2015,2, , ,5/5/2015
5/13/2015,49285,OF03,OF0302 ,13.6,Broccoli,heritage,2/17/2015,5/14/2015,5/16/2015, ,2, ,NA
5/13/2015,49284,OF03,OF0303 ,9.5,Broccoli,heritage,2/27/2015,5/21/2015,5/26/2015, ,5, ,NA
5/13/2015,49283,OF03,OF0304 ,10,Broccoli,heritage,3/6/2015,5/27/2015,6/1/2015, ,5, ,NA
5/13/2015,49300,OF11,OF1102 ,8.8,Cauliflower,absolute,3/16/2015,6/2/2015,6/11/2015, ,9,"12""",NA
5/13/2015,49301,OF11,OF1101 ,8.8,Cauliflower,absolute,3/21/2015,6/5/2015,6/15/2015, ,10,"12""",NA
5/13/2015,47884,OF06,OF0602 ,9.8,Broccoli,avenger,10/16/2014,2/1/2015,1/26/2015,6, , ,1/26/2015
5/13/2015,47883,OF06,OF0603 ,7.6,Broccoli,avenger,10/23/2014,2/8/2015,2/3/2015,5, , ,2/3/2015
5/13/2015,48059,OF01,OF0108N ,11.4,Broccoli,bravado,10/30/2014,2/15/2015,2/5/2015,10, , ,2/9/2015
5/13/2015,48058,OF01,OF0108S ,9.9,Broccoli,bravado,11/8/2014,2/24/2015,2/7/2015,17, , ,2/16/2015
5/13/2015,47882,OF06,OF0604 ,7.6,Broccoli,avenger,10/29/2014,2/14/2015,2/10/2015,4, , ,2/7/2015
5/13/2015,48061,OF01,OF0113 ,12.4,Broccoli,avenger,11/15/2014,3/3/2015,2/23/2015,8, , ,2/21/2015
5/13/2015,48069,OF08,OF0801 ,10.4,Cauliflower,paciencia,11/13/2014,3/14/2015,2/28/2015,14, ,"13""",2/24/2015
5/13/2015,48060,OF01,OF0114 ,12.4,Broccoli,avenger,11/21/2014,3/8/2015,3/4/2015,4, , ,2/26/2015
5/13/2015,48068,OF08,OF0802A,9.5,Cauliflower,paciencia,11/17/2014,3/19/2015,3/6/2015,13, , ,3/7/2015
5/13/2015,49515,OF08,OF0802B,1.6,Cauliflower,paciencia,11/17/2014,3/19/2015,3/6/2015,13, , ,3/7/2015
5/13/2015,48062,OF01,OF0110 ,9.4,Broccoli,avenger,11/29/2014,3/16/2015,3/12/2015,4, , ,3/13/2015
5/13/2015,48829,OF01,OF0109 ,11.4,Lettuce,vandenberg,12/28/2014,4/10/2015,3/13/2015,28, , ,3/31/2015
5/13/2015,48302,OF01,OF0106 ,8.4,Broccoli,heritage,12/11/2014,3/24/2015,3/14/2015,10, , ,3/16/2015
5/13/2015,48067,OF08,OF0803A,5.6,Cauliflower,paciencia,11/24/2014,3/24/2015,3/14/2015,10, , ,3/18/2015
5/13/2015,49517,OF08,OF0803B,4.8,Cauliflower,paciencia,11/24/2014,3/24/2015,3/14/2015,10, , ,3/18/2015
5/13/2015,48303,OF01,OF0105 ,8.8,Broccoli,heritage,12/24/2014,4/4/2015,3/25/2015,10, , ,4/2/2015
5/13/2015,48828,OF01,OF0112 ,12.8,Lettuce,vandenberg,1/12/2015,4/18/2015,3/28/2015,21, , ,4/2/2015
5/13/2015,48301,OF01,OF0107 ,8.3,Broccoli,bravado,12/30/2014,4/8/2015,3/29/2015,10, , ,4/3/2015
5/13/2015,48328,OF07,OF0705 ,7.2,Cauliflower,paciencia,12/11/2014,4/4/2015,3/31/2015,4, ,"13""",3/26/2015
5/13/2015,48304,OF01,OF0104 ,8.6,Broccoli,bravado,1/8/2015,4/15/2015,4/5/2015,10, , ,4/10/2015
5/13/2015,48833,OF05,OF0501 ,10.2,Lettuce,vandenberg,1/26/2015,4/24/2015,4/11/2015,13, , ,4/11/2015
5/13/2015,49298,OF08,OF0805 ,10.3,Cauliflower,paciencia,1/3/2015,4/25/2015,4/15/2015,10, , ,4/13/2015
5/13/2015,48305,OF01,OF0103 ,8.6,Broccoli,bravado,1/17/2015,4/22/2015,4/15/2015,7, , ,4/18/2015
5/13/2015,49299,OF08,OF0804 ,10.6,Cauliflower,paciencia,12/27/2014,4/16/2015,4/16/2015, , ,"13""",4/10/2015
5/13/2015,50293,OF01,OF0102 ,9.4,Broccoli,heritage,1/28/2015,4/30/2015,4/25/2015,5, , ,4/29/2015
5/13/2015,48832,OF05,OF0502 ,10.2,Lettuce,vandenberg,2/12/2015,5/4/2015,4/26/2015,8, , ,4/24/2015
5/13/2015,49297,OF08,OF0806 ,9.6,Cauliflower,paciencia,1/17/2015,5/1/2015,4/27/2015,4, , ,4/27/2015
5/13/2015,48831,OF05,OF0503 ,10.4,Lettuce,vandenberg,2/21/2015,5/7/2015,5/4/2015,3, , ,5/8/2015
5/13/2015,48330,OF07,OF0702A,9.9,Cauliflower,paciencia,1/26/2015,5/7/2015,5/5/2015,2, , ,5/6/2015
5/13/2015,49329,OF09,OF0901 ,11.7,Lettuce,reliant,3/4/2015,5/15/2015,5/7/2015,8, , ,5/12/2015
5/13/2015,48830,OF05,OF0504 ,9.2,Lettuce,vandenberg,3/4/2015,5/15/2015,5/8/2015,7, , ,NA
5/13/2015,48327,OF07,OF0702B,9,Cauliflower,paciencia,2/4/2015,5/13/2015,5/12/2015,1, , ,NA
5/13/2015,48329,OF07,OF0703A,8,Cauliflower,paciencia,2/14/2015,5/20/2015,5/23/2015, ,3, ,NA
5/13/2015,48464,OF01,OF0116A,3.6,Celery,mission-2510,2/2/2015,5/25/2015,5/24/2015,1, , ,NA
5/13/2015,48326,OF07,OF0703B,7.9,Cauliflower,paciencia,2/25/2015,5/28/2015,6/2/2015, ,5, ,NA
5/13/2015,48462,OF01,OF0116B,3.6,Celery,mission-2510,2/12/2015,6/2/2015,6/2/2015, , , ,NA
5/13/2015,48463,OF01,OF0117A,4.5,Celery,mission-2510,2/19/2015,6/7/2015,6/8/2015, ,1, ,NA
5/13/2015,49734,OF07,OF0701 ,5.5,Broccoli,avenger,3/19/2015,6/7/2015,6/12/2015, ,5, ,NA
5/13/2015,49325,OF09,OF0905 ,11.8,Lettuce,reliant,4/10/2015,6/13/2015,6/13/2015, , , ,NA
5/13/2015,48461,OF01,OF0117B,4.5,Celery,mission-2510,2/28/2015,6/14/2015,6/15/2015, ,1, ,NA
5/13/2015,49899,OF06,OF0601 ,8.4,Cauliflower,absolute,4/1/2015,6/14/2015,6/23/2015, ,9, ,NA
5/13/2015,48473,OF01,OF0111A,5.3,Celery,command,3/9/2015,6/21/2015,6/23/2015, ,2, ,NA
5/13/2015,49288,OF01,OF0101 ,13.6,Broccoli,heritage,3/31/2015,6/16/2015,6/24/2015, ,8, ,NA
5/13/2015,49898,OF06,OF0602 ,8,Cauliflower,absolute,4/11/2015,6/22/2015,6/30/2015, ,8, ,NA
5/13/2015,48470,OF01,OF0111B,5.3,Celery,command,3/19/2015,6/27/2015,7/2/2015, ,5, ,NA
5/13/2015,49912,OF10,OF1001 ,10.3,Broccoli,heritage,4/14/2015,6/28/2015,7/3/2015, ,5, ,NA
5/13/2015,49897,OF06,OF0603 ,8.3,Cauliflower,absolute,4/17/2015,6/26/2015,7/4/2015, ,8, ,NA
5/13/2015,49911,OF10,OF1002 ,10.1,Broccoli,heritage,4/20/2015,7/3/2015,7/8/2015, ,5, ,NA
5/13/2015,49910,OF10,OF1003 ,9.6,Broccoli,heritage,4/22/2015,7/5/2015,7/10/2015, ,5, ,NA
5/13/2015,48471,OF01,OF0115B,3.5,Celery,command,4/7/2015,7/12/2015,7/11/2015,1, , ,NA
5/13/2015,48472,OF01,OF0115A,4.2,Celery,command,3/30/2015,7/6/2015,7/11/2015, ,5, ,NA
5/13/2015,49896,OF06,OF0604 ,8.6,Cauliflower,absolute,4/28/2015,7/5/2015,7/14/2015, ,9, ,NA
5/13/2015,50932,OF01,OF0115C,3.2,Celery,command,4/16/2015,7/19/2015,7/17/2015,2, , ,NA
5/13/2015,49905,OF01,OF0113A,6.1,Celery,command,4/22/2015,7/25/2015,7/22/2015,3, , ,NA
5/13/2015,49909,OF10,OF1004 ,8.8,Broccoli,avenger,5/1/2015,7/14/2015,7/23/2015, ,9, ,NA
5/13/2015,49903,OF01,OF0113B,5.6,Celery,command,4/29/2015,8/1/2015,7/28/2015,4, , ,NA
