Date_of_Prediction,Region,Planting,Farm,Field,Acres,Crop,Variety,Planting_Date,Estimated_Harvest,Estimated_Harvest_GDD,Days_Early,Days_Late,Actual_Harvest_Date,Notes
6/3/2015,Cambs,28091,Waters,WATERS: BL1,112047,Lettuce,Robinson,2/18/2015,5/13/2015,5/12/2015,1, ,5/12/2015,
6/3/2015,Cambs,28085a,Waters,WATERS: BL1,198912,Lettuce,Affic,2/19/2015,5/13/2015,5/12/2015,1, ,5/9/2015,
6/3/2015,Cambs,28086,Waters,WATERS: BL1,200096,Lettuce,Tevion,2/20/2015,5/14/2015,5/12/2015,2, ,5/13/2015,
6/3/2015,Cambs,28086a,Waters,WATERS: BL1,200096,Lettuce,Robinson,2/23/2015,5/15/2015,5/14/2015,1, ,5/12/2015,
6/3/2015,Cambs,28082a,Waters,WATERS: BL1,92317,Lettuce,Etude,2/23/2015,5/15/2015,5/14/2015,1, ,5/14/2015,
6/3/2015,Cambs,28084a,Waters,WATERS: BL1,200096,Lettuce,Etude,2/23/2015,5/15/2015,5/14/2015,1, ,5/14/2015,
6/3/2015,Cambs,42070,Buckinghams,BUCKINGHAMS: DELPH 1+2,322621,Lettuce,Etude,2/27/2015,5/17/2015,5/16/2015,1, ,5/14/2015,
6/3/2015,Cambs,42070a,Buckinghams,BUCKINGHAMS: DELPH 1+2,21125,Lettuce,Etude,2/27/2015,5/17/2015,5/16/2015,1, ,5/14/2015,
6/3/2015,Cambs,28087b,Buckinghams,BUCKINGHAMS: DELPH 1+2,78247,Lettuce,Ensemble,2/27/2015,5/12/2015,5/16/2015, ,4,5/14/2015,
6/3/2015,Cambs,28093,Buckinghams,BUCKINGHAMS: DELPH 1+2,155649,Lettuce,Carbine,3/2/2015,5/18/2015,5/19/2015, ,1,5/18/2015,
6/3/2015,Cambs,28094,Buckinghams,BUCKINGHAMS: DELPH 1+2,111202,Lettuce,Affic,3/2/2015,5/18/2015,5/19/2015, ,1,5/18/2015,
6/3/2015,Cambs,28095,Buckinghams,BUCKINGHAMS: COOKS 1,205673,Lettuce,Tevion,3/3/2015,5/19/2015,5/20/2015, ,1,5/19/2015,
6/3/2015,Cambs,28099,Waters,WATERS: TR8,44616,Lettuce,Champion,3/4/2015,5/19/2015,5/20/2015, ,1,5/21/2015,
6/3/2015,Cambs,28096,Buckinghams,BUCKINGHAMS: COOKS 1,251134,Lettuce,Ensemble,3/3/2015,5/14/2015,5/20/2015, ,6,5/20/2015,
6/3/2015,Cambs,28098,Waters,WATERS: TR8,133341,Lettuce,Robinson,3/5/2015,5/20/2015,5/21/2015, ,1,5/20/2015,
6/3/2015,Cambs,28097,Waters,WATERS: TR8,150123,Lettuce,Trophy,3/5/2015,5/20/2015,5/21/2015, ,1,5/21/2015,
6/3/2015,Cambs,28096a,Waters,WATERS: TR8,59995,Lettuce,Ensemble,3/4/2015,5/14/2015,5/22/2015, ,8,5/18/2015,
6/3/2015,Cambs,28102,Waters,WATERS: TR8,255021,Lettuce,Ensemble,3/5/2015,5/15/2015,5/22/2015, ,7,5/18/2015,
6/3/2015,Cambs,28079,Waters,WATERS: BL5,132552,Lettuce,Robinson,2/10/2015,5/10/2015,5/8/2015,2, ,5/9/2015,
6/3/2015,Cambs,28078,Waters,WATERS: BL5,198912,Lettuce,Trophy,2/11/2015,5/10/2015,5/9/2015,1, ,5/7/2015,
6/3/2015,Cambs,28077,Waters,WATERS: BL5,110544,Lettuce,Tevion,2/12/2015,5/10/2015,5/9/2015,1, ,5/3/2015,
6/3/2015,Cambs,28081,Waters,WATERS: BL5,66360,Lettuce,Carbine,2/12/2015,5/10/2015,5/9/2015,1, ,5/8/2015,
6/3/2015,Cambs,28079a,Waters,WATERS: BL5,111202,Lettuce,Ensemble,2/11/2015,5/5/2015,5/10/2015, ,5,5/3/2015,
6/3/2015,Cambs,28080,Waters,WATERS: BL5,17784,Lettuce,Ensemble,2/12/2015,5/6/2015,5/10/2015, ,4,5/3/2015,
6/3/2015,Cambs,28084,Waters,WATERS: BL3,54116,Lettuce,Trophy,2/16/2015,5/12/2015,5/11/2015,1, ,5/9/2015,
6/3/2015,Cambs,28088,Waters,WATERS: BL2,74077,Lettuce,Tevion,2/17/2015,5/12/2015,5/11/2015,1, ,5/6/2015,
6/3/2015,Cambs,42069,Waters,WATERS: BL2,124722,Lettuce,Tevion,2/17/2015,5/12/2015,5/11/2015,1, ,5/6/2015,
6/3/2015,Cambs,28090,Waters,WATERS: BL2,98770,Lettuce,Trophy,2/17/2015,5/12/2015,5/11/2015,1, ,5/12/2015,
6/3/2015,Cambs,28082,Waters,WATERS: BL3,88049,Lettuce,Robinson,2/18/2015,5/13/2015,5/11/2015,2, ,5/10/2015,
6/3/2015,Cambs,28085,Waters,WATERS: BL3,33800,Lettuce,Carbine,2/18/2015,5/13/2015,5/11/2015,2, ,5/11/2015,
6/3/2015,Cambs,42069a,Waters,WATERS: BL2,149706,Lettuce,Carbine,2/18/2015,5/13/2015,5/11/2015,2, ,5/13/2015,
6/3/2015,Cambs,28083,Waters,WATERS: BL3,143676,Lettuce,Ensemble,2/16/2015,5/8/2015,5/12/2015, ,4,5/5/2015,
6/3/2015,Cambs,42069b,Waters,WATERS: TR10,54587,Lettuce,Etude,2/23/2015,5/15/2015,5/13/2015,2, ,5/18/2015,
6/3/2015,Cambs,28089,Waters,WATERS: TR10,155649,Lettuce,Carbine,2/23/2015,5/15/2015,5/13/2015,2, ,5/18/2015,
6/3/2015,Cambs,28092,Waters,WATERS: TR10,254058,Lettuce,Trophy,2/24/2015,5/15/2015,5/14/2015,1, ,5/16/2015,
6/3/2015,Cambs,28087,Waters,WATERS: TR12,338845,Lettuce,Ensemble,2/25/2015,5/11/2015,5/16/2015, ,5,5/16/2015,
6/3/2015,Cambs,28087a,Waters,WATERS: TR10,5239,Lettuce,Ensemble,2/25/2015,5/11/2015,5/16/2015, ,5,5/22/2015,
6/3/2015,Cambs,28121a,Waters,WATERS: TR9,31584,Lettuce,Gondar,4/2/2015,6/4/2015,6/9/2015, ,5,NA,
6/3/2015,Cambs,28150,Waters,WATERS: TR9,44184,Lettuce,2140 Seminis,4/2/2015,6/4/2015,6/9/2015, ,5,NA,
6/3/2015,Cambs,28151,Waters,WATERS: TR9,22176,Lettuce,RZ 45-171,4/2/2015,6/4/2015,6/9/2015, ,5,NA,
6/3/2015,Cambs,28118,Waters,WATERS: TR9,44184,Lettuce,Carbine,4/2/2015,6/4/2015,6/9/2015, ,5,NA,
6/3/2015,Cambs,28124,Waters,WATERS: TR9,188832,Lettuce,Affic,4/2/2015,6/4/2015,6/9/2015, ,5,NA,
6/3/2015,Cambs,28124a,Waters,WATERS: AB3,10248,Lettuce,Affic,4/3/2015,6/4/2015,6/10/2015, ,6,NA,
6/3/2015,Cambs,28122,Waters,WATERS: AB3,431320,Lettuce,Challenge,4/3/2015,6/8/2015,6/12/2015, ,4,NA,
6/3/2015,Cambs,42936,Waters,WATERS: AB3,170006,Lettuce,Antarctica,4/7/2015,6/8/2015,6/12/2015, ,4,NA,
6/3/2015,Cambs,42079,Waters,WATERS: AB3,70641,Lettuce,Pursuit,4/7/2015,6/8/2015,6/12/2015, ,4,NA,
6/3/2015,Cambs,28340,Waters,WATERS: TR15+TR16,75985,Lettuce,Gondar,4/20/2015,6/17/2015,6/21/2015, ,4,NA,
6/3/2015,Cambs,28356,Waters,WATERS: TR15+TR16,154896,Lettuce,Gondar,4/20/2015,6/17/2015,6/21/2015, ,4,NA,
6/3/2015,Cambs,28355,Waters,WATERS: TR15+TR16,303916,Lettuce,Excalibur,4/21/2015,6/18/2015,6/22/2015, ,4,NA,
6/3/2015,Cambs,28359,Waters,WATERS: TR15+TR16,176736,Lettuce,Glassica,4/22/2015,6/19/2015,6/22/2015, ,3,NA,
6/3/2015,Cambs,28358,Waters,WATERS: TR15+TR16,309288,Lettuce,Yucaipa,4/22/2015,6/19/2015,6/22/2015, ,3,NA,
6/3/2015,Cambs,28354,Waters,WATERS: TR15+TR16,309288,Lettuce,Challenge,4/20/2015,6/20/2015,6/23/2015, ,3,NA,
6/3/2015,Cambs,43567,Waters,WATERS: TR15+TR16,176736,Lettuce,Antartica,4/23/2015,6/19/2015,6/23/2015, ,4,NA,
6/3/2015,Cambs,28357,Waters,WATERS: TR15+TR16,287280,Lettuce,Challenge,4/21/2015,6/21/2015,6/23/2015, ,2,NA,
6/3/2015,Cambs,42078,Redmere,REDMERE: P62,99365,Lettuce,Pursuit,4/7/2015,6/8/2015,6/13/2015, ,5,NA,
6/3/2015,Cambs,28127,Redmere,REDMERE: P62,88704,Lettuce,Gondar,4/8/2015,6/8/2015,6/13/2015, ,5,NA,
6/3/2015,Cambs,28337,Redmere,REDMERE: P62,44184,Lettuce,Ardinas,4/8/2015,6/8/2015,6/13/2015, ,5,NA,
6/3/2015,Cambs,28125,Redmere,REDMERE: P62,147906,Lettuce,Trophy,4/8/2015,6/8/2015,6/13/2015, ,5,NA,
6/3/2015,Cambs,28125a,Redmere,REDMERE: P56,201192,Lettuce,Trophy,4/9/2015,6/9/2015,6/14/2015, ,5,NA,
6/3/2015,Cambs,28154,Redmere,REDMERE: P56,44184,Lettuce,Icecastle,4/10/2015,6/10/2015,6/15/2015, ,5,NA,
6/3/2015,Cambs,28152,Redmere,REDMERE: P56,44184,Lettuce,LS 12521,4/10/2015,6/10/2015,6/15/2015, ,5,NA,
6/3/2015,Cambs,28153,Redmere,REDMERE: P56,44184,Lettuce,LS 14507,4/10/2015,6/10/2015,6/15/2015, ,5,NA,
6/3/2015,Cambs,42080,Redmere,REDMERE: P56,169505,Lettuce,Pursuit,4/10/2015,6/10/2015,6/15/2015, ,5,NA,
6/3/2015,Cambs,42397,Redmere,REDMERE: P56,169505,Lettuce,Antarctica,4/10/2015,6/10/2015,6/15/2015, ,5,NA,
6/3/2015,Cambs,28126,Redmere,REDMERE: P56,143640,Lettuce,Excalibur,4/10/2015,6/10/2015,6/15/2015, ,5,NA,
6/3/2015,Cambs,28126a,Redmere,REDMERE: P56,143640,Lettuce,Excalibur,4/11/2015,6/10/2015,6/16/2015, ,6,NA,
6/3/2015,Cambs,28339,Redmere,REDMERE: P56,92956,Lettuce,Excalibur,4/11/2015,6/10/2015,6/16/2015, ,6,NA,
6/3/2015,Cambs,28339a,Redmere,REDMERE: P57,214200,Lettuce,Excalibur,4/11/2015,6/10/2015,6/16/2015, ,6,NA,
6/3/2015,Cambs,28338,Redmere,REDMERE: P57,307447,Lettuce,Challenge,4/13/2015,6/15/2015,6/17/2015, ,2,NA,
6/3/2015,Cambs,28342,Redmere,REDMERE: P57,176736,Lettuce,Yucaipa,4/13/2015,6/12/2015,6/17/2015, ,5,NA,
6/3/2015,Cambs,28341,Redmere,REDMERE: P57,80160,Lettuce,Challenge,4/14/2015,6/15/2015,6/18/2015, ,3,NA,
6/3/2015,Cambs,28341a,Redmere,REDMERE: P58,227287,Lettuce,Challenge,4/14/2015,6/16/2015,6/18/2015, ,2,NA,
6/3/2015,Cambs,28343,Redmere,REDMERE: P58,44184,Lettuce,RZ 45-171,4/14/2015,6/12/2015,6/18/2015, ,6,NA,
6/3/2015,Cambs,28360,Redmere,REDMERE: P58,309288,Lettuce,Excalibur,4/14/2015,6/12/2015,6/18/2015, ,6,NA,
6/3/2015,Cambs,43566,Redmere,REDMERE: P58,167000,Lettuce,Pursuit,4/15/2015,6/13/2015,6/19/2015, ,6,NA,
6/3/2015,Cambs,43565,Redmere,REDMERE: P58,89345,Lettuce,Antartica,4/15/2015,6/13/2015,6/19/2015, ,6,NA,
6/3/2015,Cambs,43565a,Redmere,REDMERE: P59,77655,Lettuce,Antartica,4/15/2015,6/13/2015,6/19/2015, ,6,NA,
6/3/2015,Cambs,28362,Redmere,REDMERE: P59,132552,Lettuce,Glassica,4/15/2015,6/13/2015,6/19/2015, ,6,NA,
6/3/2015,Cambs,28361,Redmere,REDMERE: P59,186144,Lettuce,Yucaipa,4/16/2015,6/15/2015,6/19/2015, ,4,NA,
6/3/2015,Cambs,28361a,Redmere,REDMERE: P59,145320,Lettuce,Yucaipa,4/16/2015,6/15/2015,6/19/2015, ,4,NA,
6/3/2015,Cambs,28340,Redmere,REDMERE: P59,253506,Lettuce,Gondar,4/16/2015,6/15/2015,6/19/2015, ,4,NA,
6/3/2015,Cambs,43567a,Hiams,HIAMS: SHIPPEA HILL 4,181770,Lettuce,Antartica,4/23/2015,6/19/2015,6/23/2015, ,4,NA,
6/3/2015,Cambs,28368,Hiams,HIAMS: SHIPPEA HILL 4,176736,Lettuce,Glassica,4/24/2015,6/20/2015,6/24/2015, ,4,NA,
6/3/2015,Cambs,28363,Hiams,HIAMS: SHIPPEA HILL 4,161280,Lettuce,Challenge,4/24/2015,6/22/2015,6/25/2015, ,3,NA,
6/3/2015,Cambs,28364,Plantation,PLANTATION: SCHOOL GROUND,370304,Lettuce,Excalibur,4/28/2015,6/22/2015,6/26/2015, ,4,NA,
6/3/2015,Cambs,43568,Plantation,PLANTATION: SCHOOL GROUND,342883,Lettuce,Antarctica,4/28/2015,6/22/2015,6/26/2015, ,4,NA,
6/3/2015,Cambs,28365,Plantation,PLANTATION: SCHOOL GROUND,231440,Lettuce,Gondar,4/29/2015,6/22/2015,6/27/2015, ,5,NA,
6/3/2015,Cambs,28367,Plantation,PLANTATION: SCHOOL GROUND,324016,Lettuce,Yucaipa,4/29/2015,6/22/2015,6/27/2015, ,5,NA,
6/3/2015,Cambs,28363a,Plantation,PLANTATION: SCHOOL GROUND,190784,Lettuce,Challenge,4/27/2015,6/24/2015,6/27/2015, ,3,NA,
6/3/2015,Cambs,28366,Plantation,PLANTATION: SCHOOL GROUND,370304,Lettuce,Challenge,4/29/2015,6/25/2015,6/28/2015, ,3,NA,
6/3/2015,Cambs,28370,Plantation,PLANTATION: VICS,356083,Lettuce,Excalibur,5/6/2015,6/27/2015,7/2/2015, ,5,NA,
6/3/2015,Cambs,28370a,Plantation,PLANTATION: VICS,356083,Lettuce,Excalibur,5/7/2015,6/28/2015,7/2/2015, ,4,NA,
6/3/2015,Cambs,43569,Plantation,PLANTATION: VICS,342720,Lettuce,Antartica,5/7/2015,6/28/2015,7/2/2015, ,4,NA,
6/3/2015,Cambs,28369,Plantation,PLANTATION: VICS,307447,Lettuce,Challenge,5/5/2015,6/29/2015,7/2/2015, ,3,NA,
6/3/2015,Cambs,28374,Plantation,PLANTATION: VICS,244205,Lettuce,Yucaipa,5/8/2015,6/29/2015,7/3/2015, ,4,NA,
6/3/2015,Cambs,28374a,Plantation,PLANTATION: VICS,244205,Lettuce,Yucaipa,5/9/2015,6/29/2015,7/4/2015, ,5,NA,
6/3/2015,Cambs,28374b,Plantation,PLANTATION: VICS,111540,Lettuce,Yucaipa,5/9/2015,6/30/2015,7/4/2015, ,4,NA,
6/3/2015,Cambs,28373,Plantation,PLANTATION: VICS,176736,Lettuce,Glassica,5/9/2015,6/30/2015,7/4/2015, ,4,NA,
6/3/2015,Cambs,28372,Plantation,PLANTATION: VICS,128440,Lettuce,Challenge,5/7/2015,7/1/2015,7/4/2015, ,3,NA,
6/3/2015,Cambs,28372a,Plantation,PLANTATION: VICS,249444,Lettuce,Challenge,5/8/2015,7/2/2015,7/4/2015, ,2,NA,
6/3/2015,Cambs,28399,Plantation,PLANTATION: VICS,186706,Lettuce,Excalibur,5/11/2015,7/2/2015,7/5/2015, ,3,NA,
6/3/2015,Cambs,28399a,Plantation,PLANTATION: VICS,186706,Lettuce,Excalibur,5/12/2015,7/3/2015,7/6/2015, ,3,NA,
6/3/2015,Cambs,28400,Plantation,PLANTATION: VICS,210820,Lettuce,Elsol,5/12/2015,7/3/2015,7/6/2015, ,3,NA,
6/3/2015,Cambs,28402,Plantation,PLANTATION: VICS,87740,Lettuce,Yucaipa,5/12/2015,7/3/2015,7/6/2015, ,3,NA,
6/3/2015,Cambs,28398,Plantation,PLANTATION: VICS,375648,Lettuce,Challenge,5/11/2015,7/5/2015,7/7/2015, ,2,NA,
6/3/2015,Cambs,28402a,Plantation,PLANTATION: SCHOOL GROUND,135300,Lettuce,Yucaipa,5/13/2015,7/4/2015,7/7/2015, ,3,NA,
6/3/2015,Cambs,28402b,Plantation,PLANTATION: WOOD GROUND,122016,Lettuce,Yucaipa,5/13/2015,7/4/2015,7/7/2015, ,3,NA,
6/3/2015,Cambs,28403,Plantation,PLANTATION: WOOD GROUND,220920,Lettuce,Glassica,5/14/2015,7/4/2015,7/7/2015, ,3,NA,
6/3/2015,Cambs,43750,Plantation,PLANTATION: WOOD GROUND,339845,Lettuce,Antartica,5/15/2015,7/5/2015,7/8/2015, ,3,NA,
6/3/2015,Cambs,28401,Plantation,PLANTATION: WOOD GROUND,187908,Lettuce,Challenge,5/13/2015,7/7/2015,7/8/2015, ,1,NA,
6/3/2015,Cambs,28401a,Plantation,PLANTATION: WOOD GROUND,187908,Lettuce,Challenge,5/14/2015,7/7/2015,7/9/2015, ,2,NA,
6/3/2015,Cambs,28409,Plantation,PLANTATION: WOOD GROUND,132552,Lettuce,Glassica,5/19/2015,7/8/2015,7/11/2015, ,3,NA,
6/3/2015,Cambs,28406,Plantation,PLANTATION: WOOD GROUND,221256,Lettuce,Elsol,5/19/2015,7/8/2015,7/11/2015, ,3,NA,
6/3/2015,Cambs,28411,Plantation,PLANTATION: WOOD GROUND,44352,Lettuce,Icecastle,5/19/2015,7/8/2015,7/11/2015, ,3,NA,
6/3/2015,Cambs,28409a,Plantation,PLANTATION: WOOD GROUND,132552,Lettuce,Glassica,5/20/2015,7/8/2015,7/11/2015, ,3,NA,
6/3/2015,Cambs,28405,Plantation,PLANTATION: PIGGERY,375648,Lettuce,Excalibur,5/21/2015,7/9/2015,7/12/2015, ,3,NA,
6/3/2015,Cambs,28404,Plantation,PLANTATION: WOOD GROUND,85680,Lettuce,Challenge,5/19/2015,7/11/2015,7/12/2015, ,1,NA,
6/3/2015,Cambs,28407,Plantation,PLANTATION: WOOD GROUND,294421,Lettuce,Challenge,5/20/2015,7/11/2015,7/13/2015, ,2,NA,
6/3/2015,Cambs,28408,Plantation,PLANTATION: PIGGERY,353472,Lettuce,Yucaipa,5/22/2015,7/10/2015,7/13/2015, ,3,NA,
6/3/2015,Cambs,28407a,Plantation,PLANTATION: PIGGERY,101202,Lettuce,Challenge,5/21/2015,7/12/2015,7/14/2015, ,2,NA,
6/3/2015,Cambs,28404a,Plantation,PLANTATION: PIGGERY,294336,Lettuce,Challenge,5/22/2015,7/12/2015,7/15/2015, ,3,NA,
6/3/2015,Cambs,42072,Redmere,REDMERE: P21,74360,Lettuce,Challenge,3/7/2015,5/24/2015,5/21/2015,3, ,NA,
6/3/2015,Cambs,28102a,Redmere,REDMERE: P21,78416,Lettuce,Ensemble,3/7/2015,5/16/2015,5/22/2015, ,6,5/19/2015,
6/3/2015,Cambs,42071,Redmere,REDMERE: P21,261950,Lettuce,Etude,3/7/2015,5/21/2015,5/22/2015, ,1,5/23/2015,
6/3/2015,Cambs,28100,Redmere,REDMERE: P8,198912,Lettuce,Challenge,3/10/2015,5/25/2015,5/23/2015,2, ,5/23/2015,
6/3/2015,Cambs,28145,Redmere,REDMERE: P8,44447,Lettuce,Icecastle,3/9/2015,5/22/2015,5/23/2015, ,1,NA,
6/3/2015,Cambs,28101,Redmere,REDMERE: P21,52559,Lettuce,Affic,3/9/2015,5/22/2015,5/23/2015, ,1,5/20/2015,
6/3/2015,Cambs,28101a,Redmere,REDMERE: P8,58643,Lettuce,Affic,3/9/2015,5/22/2015,5/23/2015, ,1,5/20/2015,
6/3/2015,Cambs,28104,Redmere,REDMERE: P21,200096,Lettuce,Tevion,3/9/2015,5/22/2015,5/23/2015, ,1,5/23/2015,
6/3/2015,Cambs,42073,Redmere,REDMERE: P8,340536,Lettuce,Etude,3/10/2015,5/22/2015,5/24/2015, ,2,5/22/2015,
6/3/2015,Cambs,28144,Redmere,REDMERE: P8,44447,Lettuce,2140 Seminis,3/10/2015,5/22/2015,5/24/2015, ,2,5/23/2015,
6/3/2015,Cambs,28103,Redmere,REDMERE: P8,309456,Lettuce,Trophy,3/11/2015,5/23/2015,5/24/2015, ,1,5/21/2015,
6/3/2015,Cambs,28105,Redmere,REDMERE: P34,86190,Lettuce,Challenge,3/13/2015,5/27/2015,5/25/2015,2, ,NA,
6/3/2015,Cambs,28106,Redmere,REDMERE: P8,155649,Lettuce,Ensemble,3/13/2015,5/19/2015,5/25/2015, ,6,5/20/2015,
6/3/2015,Cambs,28107a,Redmere,REDMERE: P34,61992,Lettuce,Affic,3/13/2015,5/24/2015,5/26/2015, ,2,NA,
6/3/2015,Cambs,28107,Redmere,REDMERE: P8,92736,Lettuce,Affic,3/13/2015,5/24/2015,5/26/2015, ,2,5/20/2015,
6/3/2015,Cambs,28105a,Redmere,REDMERE: P34,202800,Lettuce,Challenge,3/16/2015,5/29/2015,5/26/2015,3, ,NA,
6/3/2015,Cambs,28110,Redmere,REDMERE: P34,243096,Lettuce,Excalibur,3/16/2015,5/26/2015,5/27/2015, ,1,NA,
6/3/2015,Cambs,28111,Redmere,REDMERE: P35,384212,Lettuce,Challenge,3/19/2015,5/30/2015,5/28/2015,2, ,NA,
6/3/2015,Cambs,28109,Redmere,REDMERE: P34,265104,Lettuce,Trophy,3/18/2015,5/27/2015,5/28/2015, ,1,NA,
6/3/2015,Cambs,28108,Redmere,REDMERE: P34,110712,Lettuce,Carbine,3/18/2015,5/27/2015,5/28/2015, ,1,NA,
6/3/2015,Cambs,28108a,Redmere,REDMERE: P35,14112,Lettuce,Carbine,3/19/2015,5/27/2015,5/28/2015, ,1,NA,
6/3/2015,Cambs,42074,Redmere,REDMERE: P35,337478,Lettuce,Etude,3/19/2015,5/27/2015,5/28/2015, ,1,NA,
6/3/2015,Cambs,28113,Redmere,REDMERE: P35,246233,Lettuce,Ensemble,3/20/2015,5/23/2015,5/29/2015, ,6,5/23/2015,
6/3/2015,Cambs,28113a,Redmere,REDMERE: P23,20449,Lettuce,Ensemble,3/23/2015,5/25/2015,5/30/2015, ,5,NA,
6/3/2015,Cambs,28114,Redmere,REDMERE: P23,243096,Lettuce,Trophy,3/23/2015,5/30/2015,5/31/2015, ,1,NA,
6/3/2015,Cambs,28115,Redmere,REDMERE: P23,243096,Lettuce,Excalibur,3/23/2015,5/30/2015,5/31/2015, ,1,NA,
6/3/2015,Cambs,28149,Redmere,REDMERE: P23,111202,Lettuce,Gondar,3/24/2015,5/30/2015,5/31/2015, ,1,NA,
6/3/2015,Cambs,28112,Redmere,REDMERE: P23,132552,Lettuce,Affic,3/24/2015,5/30/2015,5/31/2015, ,1,NA,
6/3/2015,Cambs,28116,Redmere,REDMERE: P23,252450,Lettuce,Challenge,3/26/2015,6/2/2015,6/1/2015,1, ,NA,
6/3/2015,Cambs,28117,Redmere,REDMERE: P23,198912,Lettuce,Affic,3/27/2015,5/31/2015,6/2/2015, ,2,NA,
6/3/2015,Cambs,28120,Redmere,REDMERE: P23,243096,Lettuce,Excalibur,3/27/2015,5/31/2015,6/2/2015, ,2,NA,
6/3/2015,Cambs,28116a,Redmere,REDMERE: P23,246675,Lettuce,Challenge,3/30/2015,6/5/2015,6/3/2015,2, ,NA,
6/3/2015,Cambs,28119,Redmere,REDMERE: P23,243096,Lettuce,Trophy,3/30/2015,6/2/2015,6/4/2015, ,2,NA,
6/3/2015,Cambs,42076,Redmere,REDMERE: P23,2688,Lettuce,Pursuit,3/31/2015,6/2/2015,6/5/2015, ,3,NA,
6/3/2015,Cambs,42076a,Redmere,REDMERE: P15,171192,Lettuce,Pursuit,4/1/2015,6/3/2015,6/9/2015, ,6,NA,
6/3/2015,Cambs,42075,Redmere,REDMERE: P15,171024,Lettuce,Antarctica,4/1/2015,6/3/2015,6/9/2015, ,6,NA,
6/3/2015,Cambs,28121,Redmere,REDMERE: P15,78960,Lettuce,Gondar,4/2/2015,6/4/2015,6/10/2015, ,6,NA,
